---------------------------------------------------------------

[2021-08-29T05:08:15+08:00] 47.102.115.133 GET test03.zwrjkf.cn/
[运行时间：0.048815s] [吞吐率：20.49req/s] [内存消耗：4,474.42kb] [文件加载：112]
[ info ] [ LANG ] /www/wwwroot/test01.zwrjkf.com/dp_service/vendor/thinkphp/lang/zh-cn.php
[ info ] [ DB ] INIT mysql
[ info ] [ LANG ] /www/wwwroot/test01.zwrjkf.com/dp_service/vendor/thinkcmf/cmf/src/behavior/../lang/zh-cn.php
[ info ] [ LANG ] /www/wwwroot/test01.zwrjkf.com/dp_service/app/admin/lang/zh-cn/common.php
[ info ] [ LANG ] /www/wwwroot/test01.zwrjkf.com/dp_service/app/portal/lang/zh-cn/common.php
[ info ] [ LANG ] /www/wwwroot/test01.zwrjkf.com/dp_service/app/portal//lang/zh-cn.php
[ info ] [ ROUTE ] array (
)
[ info ] [ HEADER ] array (
  'accept-encoding' => 'gzip',
  'connection' => 'Keep-Alive',
  'host' => 'test03.zwrjkf.cn',
  'user-agent' => 'Mozilla/5.0 (X11; Ubuntu; Linux x86_64; rv:36.0) Gecko/20100101 Firefox/36.0',
  'content-length' => '',
  'content-type' => '',
)
[ info ] [ PARAM ] array (
)
[ info ] [ LANG ] /www/wwwroot/test01.zwrjkf.com/dp_service/app/portal/lang/zh-cn/home.php
[ sql ] [ DB ] CONNECT:[ UseTime:0.000953s ] mysql:host=47.104.242.77;port=3306;dbname=dp2.0;charset=utf8mb4
[ sql ] [ SQL ] SHOW COLUMNS FROM `cmf_hook` [ RunTime:0.001348s ]
[ sql ] [ SQL ] SELECT `hook` FROM `cmf_hook` WHERE  `type` = 1 OR (  `type` = 3  AND ( `app` = '' or `app` = 'cmf' ) ) [ RunTime:0.000666s ]
[ sql ] [ EXPLAIN : array (
  'id' => 1,
  'select_type' => 'SIMPLE',
  'table' => 'cmf_hook',
  'type' => 'ALL',
  'possible_keys' => NULL,
  'key' => NULL,
  'key_len' => NULL,
  'ref' => NULL,
  'rows' => 30,
  'extra' => 'Using where',
) ]
[ sql ] [ SQL ] SHOW COLUMNS FROM `cmf_hook_plugin` [ RunTime:0.001115s ]
[ sql ] [ SQL ] SELECT `hook`,`plugin` FROM `cmf_hook_plugin` WHERE  `status` = 1  AND `hook` IN ('app_dispatch','before_content','log_write_done','switch_theme','switch_admin_theme','captcha_image') ORDER BY `list_order` ASC [ RunTime:0.000611s ]
[ sql ] [ EXPLAIN : array (
  'id' => 1,
  'select_type' => 'SIMPLE',
  'table' => 'cmf_hook_plugin',
  'type' => 'ALL',
  'possible_keys' => NULL,
  'key' => NULL,
  'key_len' => NULL,
  'ref' => NULL,
  'rows' => 1,
  'extra' => 'Using where; Using filesort',
) ]
[ sql ] [ SQL ] SELECT `hook` FROM `cmf_hook` WHERE  `type` = 1 OR (  `type` = 3  AND ( `app` = '' or `app` = 'cmf' ) ) [ RunTime:0.000550s ]
[ sql ] [ EXPLAIN : array (
  'id' => 1,
  'select_type' => 'SIMPLE',
  'table' => 'cmf_hook',
  'type' => 'ALL',
  'possible_keys' => NULL,
  'key' => NULL,
  'key_len' => NULL,
  'ref' => NULL,
  'rows' => 30,
  'extra' => 'Using where',
) ]
[ sql ] [ SQL ] SELECT `hook`,`plugin` FROM `cmf_hook_plugin` WHERE  `status` = 1  AND `hook` IN ('app_dispatch','before_content','log_write_done','switch_theme','switch_admin_theme','captcha_image') ORDER BY `list_order` ASC [ RunTime:0.000543s ]
[ sql ] [ EXPLAIN : array (
  'id' => 1,
  'select_type' => 'SIMPLE',
  'table' => 'cmf_hook_plugin',
  'type' => 'ALL',
  'possible_keys' => NULL,
  'key' => NULL,
  'key_len' => NULL,
  'ref' => NULL,
  'rows' => 1,
  'extra' => 'Using where; Using filesort',
) ]
[ sql ] [ SQL ] SHOW COLUMNS FROM `cmf_option` [ RunTime:0.001081s ]
[ sql ] [ SQL ] SELECT `option_value` FROM `cmf_option` WHERE  ( option_name='site_info' ) LIMIT 1 [ RunTime:0.000543s ]
[ sql ] [ EXPLAIN : array (
  'id' => 1,
  'select_type' => 'SIMPLE',
  'table' => 'cmf_option',
  'type' => 'const',
  'possible_keys' => 'option_name',
  'key' => 'option_name',
  'key_len' => '258',
  'ref' => 'const',
  'rows' => 1,
  'extra' => NULL,
) ]
[ sql ] [ SQL ] SHOW COLUMNS FROM `cmf_plugin` [ RunTime:0.001386s ]
[ sql ] [ SQL ] SELECT `config` FROM `cmf_plugin` WHERE  `name` = 'Qiniu' LIMIT 1 [ RunTime:0.000518s ]
[ sql ] [ EXPLAIN : array (
  'id' => 1,
  'select_type' => 'SIMPLE',
  'table' => 'cmf_plugin',
  'type' => 'ALL',
  'possible_keys' => NULL,
  'key' => NULL,
  'key_len' => NULL,
  'ref' => NULL,
  'rows' => 1,
  'extra' => 'Using where',
) ]
[ sql ] [ SQL ] SELECT `option_value` FROM `cmf_option` WHERE  ( option_name='configpri' ) LIMIT 1 [ RunTime:0.000516s ]
[ sql ] [ EXPLAIN : array (
  'id' => 1,
  'select_type' => 'SIMPLE',
  'table' => 'cmf_option',
  'type' => 'const',
  'possible_keys' => 'option_name',
  'key' => 'option_name',
  'key_len' => '258',
  'ref' => 'const',
  'rows' => 1,
  'extra' => NULL,
) ]
[ warn ] SQL:SELECT `hook`,`plugin` FROM `cmf_hook_plugin` WHERE  `status` = :ThinkBind_1_  AND `hook` IN (:ThinkBind_2_,:ThinkBind_3_,:ThinkBind_4_,:ThinkBind_5_,:ThinkBind_6_,:ThinkBind_7_) ORDER BY `list_order` ASC [Using where; Using filesort]
[ warn ] SQL:SELECT `hook`,`plugin` FROM `cmf_hook_plugin` WHERE  `status` = :ThinkBind_1_  AND `hook` IN (:ThinkBind_2_,:ThinkBind_3_,:ThinkBind_4_,:ThinkBind_5_,:ThinkBind_6_,:ThinkBind_7_) ORDER BY `list_order` ASC [Using where; Using filesort]
---------------------------------------------------------------

[2021-08-29T05:08:15+08:00] 47.102.115.133 GET test03.zwrjkf.cn/admin/index/index.html
[运行时间：0.042809s] [吞吐率：23.36req/s] [内存消耗：4,281.72kb] [文件加载：105]
[ info ] [ LANG ] /www/wwwroot/test01.zwrjkf.com/dp_service/vendor/thinkphp/lang/zh-cn.php
[ info ] [ DB ] INIT mysql
[ info ] [ LANG ] /www/wwwroot/test01.zwrjkf.com/dp_service/vendor/thinkcmf/cmf/src/behavior/../lang/zh-cn.php
[ info ] [ LANG ] /www/wwwroot/test01.zwrjkf.com/dp_service/app/admin/lang/zh-cn/common.php
[ info ] [ LANG ] /www/wwwroot/test01.zwrjkf.com/dp_service/app/portal/lang/zh-cn/common.php
[ info ] [ LANG ] /www/wwwroot/test01.zwrjkf.com/dp_service/app/admin//lang/zh-cn.php
[ info ] [ ROUTE ] array (
)
[ info ] [ HEADER ] array (
  'accept-encoding' => 'gzip',
  'connection' => 'Keep-Alive',
  'host' => 'test03.zwrjkf.cn',
  'user-agent' => 'Mozilla/5.0 (X11; Ubuntu; Linux x86_64; rv:36.0) Gecko/20100101 Firefox/36.0',
  'content-length' => '',
  'content-type' => '',
)
[ info ] [ PARAM ] array (
)
[ info ] [ LANG ] /www/wwwroot/test01.zwrjkf.com/dp_service/app/admin/lang/zh-cn/admin_menu.php
[ info ] [ LANG ] /www/wwwroot/test01.zwrjkf.com/dp_service/app/admin/lang/zh-cn/admin.php
[ info ] [ LANG ] /www/wwwroot/test01.zwrjkf.com/dp_service/app/user/lang/zh-cn/admin_menu.php
[ info ] [ LANG ] /www/wwwroot/test01.zwrjkf.com/dp_service/data/lang//admin_menu.php
[ sql ] [ DB ] CONNECT:[ UseTime:0.001017s ] mysql:host=47.104.242.77;port=3306;dbname=dp2.0;charset=utf8mb4
[ sql ] [ SQL ] SHOW COLUMNS FROM `cmf_hook` [ RunTime:0.001273s ]
[ sql ] [ SQL ] SELECT `hook` FROM `cmf_hook` WHERE  `type` = 1 OR (  `type` = 3  AND ( `app` = '' or `app` = 'cmf' ) ) [ RunTime:0.000621s ]
[ sql ] [ EXPLAIN : array (
  'id' => 1,
  'select_type' => 'SIMPLE',
  'table' => 'cmf_hook',
  'type' => 'ALL',
  'possible_keys' => NULL,
  'key' => NULL,
  'key_len' => NULL,
  'ref' => NULL,
  'rows' => 30,
  'extra' => 'Using where',
) ]
[ sql ] [ SQL ] SHOW COLUMNS FROM `cmf_hook_plugin` [ RunTime:0.001147s ]
[ sql ] [ SQL ] SELECT `hook`,`plugin` FROM `cmf_hook_plugin` WHERE  `status` = 1  AND `hook` IN ('app_dispatch','before_content','log_write_done','switch_theme','switch_admin_theme','captcha_image') ORDER BY `list_order` ASC [ RunTime:0.000612s ]
[ sql ] [ EXPLAIN : array (
  'id' => 1,
  'select_type' => 'SIMPLE',
  'table' => 'cmf_hook_plugin',
  'type' => 'ALL',
  'possible_keys' => NULL,
  'key' => NULL,
  'key_len' => NULL,
  'ref' => NULL,
  'rows' => 1,
  'extra' => 'Using where; Using filesort',
) ]
[ sql ] [ SQL ] SELECT `hook` FROM `cmf_hook` WHERE  `type` = 1 OR (  `type` = 3  AND ( `app` = '' or `app` = 'cmf' ) ) [ RunTime:0.000648s ]
[ sql ] [ EXPLAIN : array (
  'id' => 1,
  'select_type' => 'SIMPLE',
  'table' => 'cmf_hook',
  'type' => 'ALL',
  'possible_keys' => NULL,
  'key' => NULL,
  'key_len' => NULL,
  'ref' => NULL,
  'rows' => 30,
  'extra' => 'Using where',
) ]
[ sql ] [ SQL ] SELECT `hook`,`plugin` FROM `cmf_hook_plugin` WHERE  `status` = 1  AND `hook` IN ('app_dispatch','before_content','log_write_done','switch_theme','switch_admin_theme','captcha_image') ORDER BY `list_order` ASC [ RunTime:0.000586s ]
[ sql ] [ EXPLAIN : array (
  'id' => 1,
  'select_type' => 'SIMPLE',
  'table' => 'cmf_hook_plugin',
  'type' => 'ALL',
  'possible_keys' => NULL,
  'key' => NULL,
  'key_len' => NULL,
  'ref' => NULL,
  'rows' => 1,
  'extra' => 'Using where; Using filesort',
) ]
[ warn ] SQL:SELECT `hook`,`plugin` FROM `cmf_hook_plugin` WHERE  `status` = :ThinkBind_1_  AND `hook` IN (:ThinkBind_2_,:ThinkBind_3_,:ThinkBind_4_,:ThinkBind_5_,:ThinkBind_6_,:ThinkBind_7_) ORDER BY `list_order` ASC [Using where; Using filesort]
[ warn ] SQL:SELECT `hook`,`plugin` FROM `cmf_hook_plugin` WHERE  `status` = :ThinkBind_1_  AND `hook` IN (:ThinkBind_2_,:ThinkBind_3_,:ThinkBind_4_,:ThinkBind_5_,:ThinkBind_6_,:ThinkBind_7_) ORDER BY `list_order` ASC [Using where; Using filesort]
---------------------------------------------------------------

[2021-08-29T05:08:15+08:00] 47.102.115.133 GET test03.zwrjkf.cn/admin/public/login.html
[运行时间：0.038331s] [吞吐率：26.09req/s] [内存消耗：4,152.20kb] [文件加载：97]
[ info ] [ LANG ] /www/wwwroot/test01.zwrjkf.com/dp_service/vendor/thinkphp/lang/zh-cn.php
[ info ] [ DB ] INIT mysql
[ info ] [ LANG ] /www/wwwroot/test01.zwrjkf.com/dp_service/vendor/thinkcmf/cmf/src/behavior/../lang/zh-cn.php
[ info ] [ LANG ] /www/wwwroot/test01.zwrjkf.com/dp_service/app/admin/lang/zh-cn/common.php
[ info ] [ LANG ] /www/wwwroot/test01.zwrjkf.com/dp_service/app/portal/lang/zh-cn/common.php
[ info ] [ LANG ] /www/wwwroot/test01.zwrjkf.com/dp_service/app/admin//lang/zh-cn.php
[ info ] [ ROUTE ] array (
)
[ info ] [ HEADER ] array (
  'accept-encoding' => 'gzip',
  'connection' => 'Keep-Alive',
  'host' => 'test03.zwrjkf.cn',
  'user-agent' => 'Mozilla/5.0 (X11; Ubuntu; Linux x86_64; rv:36.0) Gecko/20100101 Firefox/36.0',
  'content-length' => '',
  'content-type' => '',
)
[ info ] [ PARAM ] array (
)
[ sql ] [ DB ] CONNECT:[ UseTime:0.000919s ] mysql:host=47.104.242.77;port=3306;dbname=dp2.0;charset=utf8mb4
[ sql ] [ SQL ] SHOW COLUMNS FROM `cmf_hook` [ RunTime:0.001374s ]
[ sql ] [ SQL ] SELECT `hook` FROM `cmf_hook` WHERE  `type` = 1 OR (  `type` = 3  AND ( `app` = '' or `app` = 'cmf' ) ) [ RunTime:0.000988s ]
[ sql ] [ EXPLAIN : array (
  'id' => 1,
  'select_type' => 'SIMPLE',
  'table' => 'cmf_hook',
  'type' => 'ALL',
  'possible_keys' => NULL,
  'key' => NULL,
  'key_len' => NULL,
  'ref' => NULL,
  'rows' => 30,
  'extra' => 'Using where',
) ]
[ sql ] [ SQL ] SHOW COLUMNS FROM `cmf_hook_plugin` [ RunTime:0.001123s ]
[ sql ] [ SQL ] SELECT `hook`,`plugin` FROM `cmf_hook_plugin` WHERE  `status` = 1  AND `hook` IN ('app_dispatch','before_content','log_write_done','switch_theme','switch_admin_theme','captcha_image') ORDER BY `list_order` ASC [ RunTime:0.000570s ]
[ sql ] [ EXPLAIN : array (
  'id' => 1,
  'select_type' => 'SIMPLE',
  'table' => 'cmf_hook_plugin',
  'type' => 'ALL',
  'possible_keys' => NULL,
  'key' => NULL,
  'key_len' => NULL,
  'ref' => NULL,
  'rows' => 1,
  'extra' => 'Using where; Using filesort',
) ]
[ sql ] [ SQL ] SELECT `hook` FROM `cmf_hook` WHERE  `type` = 1 OR (  `type` = 3  AND ( `app` = '' or `app` = 'cmf' ) ) [ RunTime:0.000580s ]
[ sql ] [ EXPLAIN : array (
  'id' => 1,
  'select_type' => 'SIMPLE',
  'table' => 'cmf_hook',
  'type' => 'ALL',
  'possible_keys' => NULL,
  'key' => NULL,
  'key_len' => NULL,
  'ref' => NULL,
  'rows' => 30,
  'extra' => 'Using where',
) ]
[ sql ] [ SQL ] SELECT `hook`,`plugin` FROM `cmf_hook_plugin` WHERE  `status` = 1  AND `hook` IN ('app_dispatch','before_content','log_write_done','switch_theme','switch_admin_theme','captcha_image') ORDER BY `list_order` ASC [ RunTime:0.000594s ]
[ sql ] [ EXPLAIN : array (
  'id' => 1,
  'select_type' => 'SIMPLE',
  'table' => 'cmf_hook_plugin',
  'type' => 'ALL',
  'possible_keys' => NULL,
  'key' => NULL,
  'key_len' => NULL,
  'ref' => NULL,
  'rows' => 1,
  'extra' => 'Using where; Using filesort',
) ]
[ warn ] SQL:SELECT `hook`,`plugin` FROM `cmf_hook_plugin` WHERE  `status` = :ThinkBind_1_  AND `hook` IN (:ThinkBind_2_,:ThinkBind_3_,:ThinkBind_4_,:ThinkBind_5_,:ThinkBind_6_,:ThinkBind_7_) ORDER BY `list_order` ASC [Using where; Using filesort]
[ warn ] SQL:SELECT `hook`,`plugin` FROM `cmf_hook_plugin` WHERE  `status` = :ThinkBind_1_  AND `hook` IN (:ThinkBind_2_,:ThinkBind_3_,:ThinkBind_4_,:ThinkBind_5_,:ThinkBind_6_,:ThinkBind_7_) ORDER BY `list_order` ASC [Using where; Using filesort]
---------------------------------------------------------------

[2021-08-29T05:08:15+08:00] 47.102.115.133 GET test03.zwrjkf.cn/
[运行时间：0.047937s] [吞吐率：20.86req/s] [内存消耗：4,474.42kb] [文件加载：112]
[ info ] [ LANG ] /www/wwwroot/test01.zwrjkf.com/dp_service/vendor/thinkphp/lang/zh-cn.php
[ info ] [ DB ] INIT mysql
[ info ] [ LANG ] /www/wwwroot/test01.zwrjkf.com/dp_service/vendor/thinkcmf/cmf/src/behavior/../lang/zh-cn.php
[ info ] [ LANG ] /www/wwwroot/test01.zwrjkf.com/dp_service/app/admin/lang/zh-cn/common.php
[ info ] [ LANG ] /www/wwwroot/test01.zwrjkf.com/dp_service/app/portal/lang/zh-cn/common.php
[ info ] [ LANG ] /www/wwwroot/test01.zwrjkf.com/dp_service/app/portal//lang/zh-cn.php
[ info ] [ ROUTE ] array (
)
[ info ] [ HEADER ] array (
  'accept-encoding' => 'gzip',
  'connection' => 'Keep-Alive',
  'host' => 'test03.zwrjkf.cn',
  'user-agent' => 'Mozilla/5.0 (X11; Ubuntu; Linux x86_64; rv:36.0) Gecko/20100101 Firefox/36.0',
  'content-length' => '',
  'content-type' => '',
)
[ info ] [ PARAM ] array (
)
[ info ] [ LANG ] /www/wwwroot/test01.zwrjkf.com/dp_service/app/portal/lang/zh-cn/home.php
[ sql ] [ DB ] CONNECT:[ UseTime:0.000919s ] mysql:host=47.104.242.77;port=3306;dbname=dp2.0;charset=utf8mb4
[ sql ] [ SQL ] SHOW COLUMNS FROM `cmf_hook` [ RunTime:0.001298s ]
[ sql ] [ SQL ] SELECT `hook` FROM `cmf_hook` WHERE  `type` = 1 OR (  `type` = 3  AND ( `app` = '' or `app` = 'cmf' ) ) [ RunTime:0.000747s ]
[ sql ] [ EXPLAIN : array (
  'id' => 1,
  'select_type' => 'SIMPLE',
  'table' => 'cmf_hook',
  'type' => 'ALL',
  'possible_keys' => NULL,
  'key' => NULL,
  'key_len' => NULL,
  'ref' => NULL,
  'rows' => 30,
  'extra' => 'Using where',
) ]
[ sql ] [ SQL ] SHOW COLUMNS FROM `cmf_hook_plugin` [ RunTime:0.001095s ]
[ sql ] [ SQL ] SELECT `hook`,`plugin` FROM `cmf_hook_plugin` WHERE  `status` = 1  AND `hook` IN ('app_dispatch','before_content','log_write_done','switch_theme','switch_admin_theme','captcha_image') ORDER BY `list_order` ASC [ RunTime:0.000612s ]
[ sql ] [ EXPLAIN : array (
  'id' => 1,
  'select_type' => 'SIMPLE',
  'table' => 'cmf_hook_plugin',
  'type' => 'ALL',
  'possible_keys' => NULL,
  'key' => NULL,
  'key_len' => NULL,
  'ref' => NULL,
  'rows' => 1,
  'extra' => 'Using where; Using filesort',
) ]
[ sql ] [ SQL ] SELECT `hook` FROM `cmf_hook` WHERE  `type` = 1 OR (  `type` = 3  AND ( `app` = '' or `app` = 'cmf' ) ) [ RunTime:0.000602s ]
[ sql ] [ EXPLAIN : array (
  'id' => 1,
  'select_type' => 'SIMPLE',
  'table' => 'cmf_hook',
  'type' => 'ALL',
  'possible_keys' => NULL,
  'key' => NULL,
  'key_len' => NULL,
  'ref' => NULL,
  'rows' => 30,
  'extra' => 'Using where',
) ]
[ sql ] [ SQL ] SELECT `hook`,`plugin` FROM `cmf_hook_plugin` WHERE  `status` = 1  AND `hook` IN ('app_dispatch','before_content','log_write_done','switch_theme','switch_admin_theme','captcha_image') ORDER BY `list_order` ASC [ RunTime:0.000541s ]
[ sql ] [ EXPLAIN : array (
  'id' => 1,
  'select_type' => 'SIMPLE',
  'table' => 'cmf_hook_plugin',
  'type' => 'ALL',
  'possible_keys' => NULL,
  'key' => NULL,
  'key_len' => NULL,
  'ref' => NULL,
  'rows' => 1,
  'extra' => 'Using where; Using filesort',
) ]
[ sql ] [ SQL ] SHOW COLUMNS FROM `cmf_option` [ RunTime:0.001092s ]
[ sql ] [ SQL ] SELECT `option_value` FROM `cmf_option` WHERE  ( option_name='site_info' ) LIMIT 1 [ RunTime:0.000532s ]
[ sql ] [ EXPLAIN : array (
  'id' => 1,
  'select_type' => 'SIMPLE',
  'table' => 'cmf_option',
  'type' => 'const',
  'possible_keys' => 'option_name',
  'key' => 'option_name',
  'key_len' => '258',
  'ref' => 'const',
  'rows' => 1,
  'extra' => NULL,
) ]
[ sql ] [ SQL ] SHOW COLUMNS FROM `cmf_plugin` [ RunTime:0.001087s ]
[ sql ] [ SQL ] SELECT `config` FROM `cmf_plugin` WHERE  `name` = 'Qiniu' LIMIT 1 [ RunTime:0.000516s ]
[ sql ] [ EXPLAIN : array (
  'id' => 1,
  'select_type' => 'SIMPLE',
  'table' => 'cmf_plugin',
  'type' => 'ALL',
  'possible_keys' => NULL,
  'key' => NULL,
  'key_len' => NULL,
  'ref' => NULL,
  'rows' => 1,
  'extra' => 'Using where',
) ]
[ sql ] [ SQL ] SELECT `option_value` FROM `cmf_option` WHERE  ( option_name='configpri' ) LIMIT 1 [ RunTime:0.000482s ]
[ sql ] [ EXPLAIN : array (
  'id' => 1,
  'select_type' => 'SIMPLE',
  'table' => 'cmf_option',
  'type' => 'const',
  'possible_keys' => 'option_name',
  'key' => 'option_name',
  'key_len' => '258',
  'ref' => 'const',
  'rows' => 1,
  'extra' => NULL,
) ]
[ warn ] SQL:SELECT `hook`,`plugin` FROM `cmf_hook_plugin` WHERE  `status` = :ThinkBind_1_  AND `hook` IN (:ThinkBind_2_,:ThinkBind_3_,:ThinkBind_4_,:ThinkBind_5_,:ThinkBind_6_,:ThinkBind_7_) ORDER BY `list_order` ASC [Using where; Using filesort]
[ warn ] SQL:SELECT `hook`,`plugin` FROM `cmf_hook_plugin` WHERE  `status` = :ThinkBind_1_  AND `hook` IN (:ThinkBind_2_,:ThinkBind_3_,:ThinkBind_4_,:ThinkBind_5_,:ThinkBind_6_,:ThinkBind_7_) ORDER BY `list_order` ASC [Using where; Using filesort]
---------------------------------------------------------------

[2021-08-29T05:08:16+08:00] 47.102.115.133 GET test03.zwrjkf.cn/admin/index/index.html
[运行时间：0.043594s] [吞吐率：22.94req/s] [内存消耗：4,281.72kb] [文件加载：105]
[ info ] [ LANG ] /www/wwwroot/test01.zwrjkf.com/dp_service/vendor/thinkphp/lang/zh-cn.php
[ info ] [ DB ] INIT mysql
[ info ] [ LANG ] /www/wwwroot/test01.zwrjkf.com/dp_service/vendor/thinkcmf/cmf/src/behavior/../lang/zh-cn.php
[ info ] [ LANG ] /www/wwwroot/test01.zwrjkf.com/dp_service/app/admin/lang/zh-cn/common.php
[ info ] [ LANG ] /www/wwwroot/test01.zwrjkf.com/dp_service/app/portal/lang/zh-cn/common.php
[ info ] [ LANG ] /www/wwwroot/test01.zwrjkf.com/dp_service/app/admin//lang/zh-cn.php
[ info ] [ ROUTE ] array (
)
[ info ] [ HEADER ] array (
  'accept-encoding' => 'gzip',
  'connection' => 'Keep-Alive',
  'host' => 'test03.zwrjkf.cn',
  'user-agent' => 'Mozilla/5.0 (X11; Ubuntu; Linux x86_64; rv:36.0) Gecko/20100101 Firefox/36.0',
  'content-length' => '',
  'content-type' => '',
)
[ info ] [ PARAM ] array (
)
[ info ] [ LANG ] /www/wwwroot/test01.zwrjkf.com/dp_service/app/admin/lang/zh-cn/admin_menu.php
[ info ] [ LANG ] /www/wwwroot/test01.zwrjkf.com/dp_service/app/admin/lang/zh-cn/admin.php
[ info ] [ LANG ] /www/wwwroot/test01.zwrjkf.com/dp_service/app/user/lang/zh-cn/admin_menu.php
[ info ] [ LANG ] /www/wwwroot/test01.zwrjkf.com/dp_service/data/lang//admin_menu.php
[ sql ] [ DB ] CONNECT:[ UseTime:0.000862s ] mysql:host=47.104.242.77;port=3306;dbname=dp2.0;charset=utf8mb4
[ sql ] [ SQL ] SHOW COLUMNS FROM `cmf_hook` [ RunTime:0.001252s ]
[ sql ] [ SQL ] SELECT `hook` FROM `cmf_hook` WHERE  `type` = 1 OR (  `type` = 3  AND ( `app` = '' or `app` = 'cmf' ) ) [ RunTime:0.000657s ]
[ sql ] [ EXPLAIN : array (
  'id' => 1,
  'select_type' => 'SIMPLE',
  'table' => 'cmf_hook',
  'type' => 'ALL',
  'possible_keys' => NULL,
  'key' => NULL,
  'key_len' => NULL,
  'ref' => NULL,
  'rows' => 30,
  'extra' => 'Using where',
) ]
[ sql ] [ SQL ] SHOW COLUMNS FROM `cmf_hook_plugin` [ RunTime:0.001058s ]
[ sql ] [ SQL ] SELECT `hook`,`plugin` FROM `cmf_hook_plugin` WHERE  `status` = 1  AND `hook` IN ('app_dispatch','before_content','log_write_done','switch_theme','switch_admin_theme','captcha_image') ORDER BY `list_order` ASC [ RunTime:0.000547s ]
[ sql ] [ EXPLAIN : array (
  'id' => 1,
  'select_type' => 'SIMPLE',
  'table' => 'cmf_hook_plugin',
  'type' => 'ALL',
  'possible_keys' => NULL,
  'key' => NULL,
  'key_len' => NULL,
  'ref' => NULL,
  'rows' => 1,
  'extra' => 'Using where; Using filesort',
) ]
[ sql ] [ SQL ] SELECT `hook` FROM `cmf_hook` WHERE  `type` = 1 OR (  `type` = 3  AND ( `app` = '' or `app` = 'cmf' ) ) [ RunTime:0.000527s ]
[ sql ] [ EXPLAIN : array (
  'id' => 1,
  'select_type' => 'SIMPLE',
  'table' => 'cmf_hook',
  'type' => 'ALL',
  'possible_keys' => NULL,
  'key' => NULL,
  'key_len' => NULL,
  'ref' => NULL,
  'rows' => 30,
  'extra' => 'Using where',
) ]
[ sql ] [ SQL ] SELECT `hook`,`plugin` FROM `cmf_hook_plugin` WHERE  `status` = 1  AND `hook` IN ('app_dispatch','before_content','log_write_done','switch_theme','switch_admin_theme','captcha_image') ORDER BY `list_order` ASC [ RunTime:0.000517s ]
[ sql ] [ EXPLAIN : array (
  'id' => 1,
  'select_type' => 'SIMPLE',
  'table' => 'cmf_hook_plugin',
  'type' => 'ALL',
  'possible_keys' => NULL,
  'key' => NULL,
  'key_len' => NULL,
  'ref' => NULL,
  'rows' => 1,
  'extra' => 'Using where; Using filesort',
) ]
[ warn ] SQL:SELECT `hook`,`plugin` FROM `cmf_hook_plugin` WHERE  `status` = :ThinkBind_1_  AND `hook` IN (:ThinkBind_2_,:ThinkBind_3_,:ThinkBind_4_,:ThinkBind_5_,:ThinkBind_6_,:ThinkBind_7_) ORDER BY `list_order` ASC [Using where; Using filesort]
[ warn ] SQL:SELECT `hook`,`plugin` FROM `cmf_hook_plugin` WHERE  `status` = :ThinkBind_1_  AND `hook` IN (:ThinkBind_2_,:ThinkBind_3_,:ThinkBind_4_,:ThinkBind_5_,:ThinkBind_6_,:ThinkBind_7_) ORDER BY `list_order` ASC [Using where; Using filesort]
---------------------------------------------------------------

[2021-08-29T05:08:16+08:00] 47.102.115.133 GET test03.zwrjkf.cn/admin/public/login.html
[运行时间：0.038364s] [吞吐率：26.07req/s] [内存消耗：4,152.20kb] [文件加载：97]
[ info ] [ LANG ] /www/wwwroot/test01.zwrjkf.com/dp_service/vendor/thinkphp/lang/zh-cn.php
[ info ] [ DB ] INIT mysql
[ info ] [ LANG ] /www/wwwroot/test01.zwrjkf.com/dp_service/vendor/thinkcmf/cmf/src/behavior/../lang/zh-cn.php
[ info ] [ LANG ] /www/wwwroot/test01.zwrjkf.com/dp_service/app/admin/lang/zh-cn/common.php
[ info ] [ LANG ] /www/wwwroot/test01.zwrjkf.com/dp_service/app/portal/lang/zh-cn/common.php
[ info ] [ LANG ] /www/wwwroot/test01.zwrjkf.com/dp_service/app/admin//lang/zh-cn.php
[ info ] [ ROUTE ] array (
)
[ info ] [ HEADER ] array (
  'accept-encoding' => 'gzip',
  'connection' => 'Keep-Alive',
  'host' => 'test03.zwrjkf.cn',
  'user-agent' => 'Mozilla/5.0 (X11; Ubuntu; Linux x86_64; rv:36.0) Gecko/20100101 Firefox/36.0',
  'content-length' => '',
  'content-type' => '',
)
[ info ] [ PARAM ] array (
)
[ sql ] [ DB ] CONNECT:[ UseTime:0.000929s ] mysql:host=47.104.242.77;port=3306;dbname=dp2.0;charset=utf8mb4
[ sql ] [ SQL ] SHOW COLUMNS FROM `cmf_hook` [ RunTime:0.001264s ]
[ sql ] [ SQL ] SELECT `hook` FROM `cmf_hook` WHERE  `type` = 1 OR (  `type` = 3  AND ( `app` = '' or `app` = 'cmf' ) ) [ RunTime:0.000676s ]
[ sql ] [ EXPLAIN : array (
  'id' => 1,
  'select_type' => 'SIMPLE',
  'table' => 'cmf_hook',
  'type' => 'ALL',
  'possible_keys' => NULL,
  'key' => NULL,
  'key_len' => NULL,
  'ref' => NULL,
  'rows' => 30,
  'extra' => 'Using where',
) ]
[ sql ] [ SQL ] SHOW COLUMNS FROM `cmf_hook_plugin` [ RunTime:0.001096s ]
[ sql ] [ SQL ] SELECT `hook`,`plugin` FROM `cmf_hook_plugin` WHERE  `status` = 1  AND `hook` IN ('app_dispatch','before_content','log_write_done','switch_theme','switch_admin_theme','captcha_image') ORDER BY `list_order` ASC [ RunTime:0.000593s ]
[ sql ] [ EXPLAIN : array (
  'id' => 1,
  'select_type' => 'SIMPLE',
  'table' => 'cmf_hook_plugin',
  'type' => 'ALL',
  'possible_keys' => NULL,
  'key' => NULL,
  'key_len' => NULL,
  'ref' => NULL,
  'rows' => 1,
  'extra' => 'Using where; Using filesort',
) ]
[ sql ] [ SQL ] SELECT `hook` FROM `cmf_hook` WHERE  `type` = 1 OR (  `type` = 3  AND ( `app` = '' or `app` = 'cmf' ) ) [ RunTime:0.000544s ]
[ sql ] [ EXPLAIN : array (
  'id' => 1,
  'select_type' => 'SIMPLE',
  'table' => 'cmf_hook',
  'type' => 'ALL',
  'possible_keys' => NULL,
  'key' => NULL,
  'key_len' => NULL,
  'ref' => NULL,
  'rows' => 30,
  'extra' => 'Using where',
) ]
[ sql ] [ SQL ] SELECT `hook`,`plugin` FROM `cmf_hook_plugin` WHERE  `status` = 1  AND `hook` IN ('app_dispatch','before_content','log_write_done','switch_theme','switch_admin_theme','captcha_image') ORDER BY `list_order` ASC [ RunTime:0.000514s ]
[ sql ] [ EXPLAIN : array (
  'id' => 1,
  'select_type' => 'SIMPLE',
  'table' => 'cmf_hook_plugin',
  'type' => 'ALL',
  'possible_keys' => NULL,
  'key' => NULL,
  'key_len' => NULL,
  'ref' => NULL,
  'rows' => 1,
  'extra' => 'Using where; Using filesort',
) ]
[ warn ] SQL:SELECT `hook`,`plugin` FROM `cmf_hook_plugin` WHERE  `status` = :ThinkBind_1_  AND `hook` IN (:ThinkBind_2_,:ThinkBind_3_,:ThinkBind_4_,:ThinkBind_5_,:ThinkBind_6_,:ThinkBind_7_) ORDER BY `list_order` ASC [Using where; Using filesort]
[ warn ] SQL:SELECT `hook`,`plugin` FROM `cmf_hook_plugin` WHERE  `status` = :ThinkBind_1_  AND `hook` IN (:ThinkBind_2_,:ThinkBind_3_,:ThinkBind_4_,:ThinkBind_5_,:ThinkBind_6_,:ThinkBind_7_) ORDER BY `list_order` ASC [Using where; Using filesort]
---------------------------------------------------------------

[2021-08-29T05:08:16+08:00] 47.102.115.133 GET test03.zwrjkf.cn/
[运行时间：0.047864s] [吞吐率：20.89req/s] [内存消耗：4,474.42kb] [文件加载：112]
[ info ] [ LANG ] /www/wwwroot/test01.zwrjkf.com/dp_service/vendor/thinkphp/lang/zh-cn.php
[ info ] [ DB ] INIT mysql
[ info ] [ LANG ] /www/wwwroot/test01.zwrjkf.com/dp_service/vendor/thinkcmf/cmf/src/behavior/../lang/zh-cn.php
[ info ] [ LANG ] /www/wwwroot/test01.zwrjkf.com/dp_service/app/admin/lang/zh-cn/common.php
[ info ] [ LANG ] /www/wwwroot/test01.zwrjkf.com/dp_service/app/portal/lang/zh-cn/common.php
[ info ] [ LANG ] /www/wwwroot/test01.zwrjkf.com/dp_service/app/portal//lang/zh-cn.php
[ info ] [ ROUTE ] array (
)
[ info ] [ HEADER ] array (
  'accept-encoding' => 'gzip',
  'connection' => 'Keep-Alive',
  'host' => 'test03.zwrjkf.cn',
  'user-agent' => 'Mozilla/5.0 (X11; Ubuntu; Linux x86_64; rv:36.0) Gecko/20100101 Firefox/36.0',
  'content-length' => '',
  'content-type' => '',
)
[ info ] [ PARAM ] array (
)
[ info ] [ LANG ] /www/wwwroot/test01.zwrjkf.com/dp_service/app/portal/lang/zh-cn/home.php
[ sql ] [ DB ] CONNECT:[ UseTime:0.000842s ] mysql:host=47.104.242.77;port=3306;dbname=dp2.0;charset=utf8mb4
[ sql ] [ SQL ] SHOW COLUMNS FROM `cmf_hook` [ RunTime:0.001264s ]
[ sql ] [ SQL ] SELECT `hook` FROM `cmf_hook` WHERE  `type` = 1 OR (  `type` = 3  AND ( `app` = '' or `app` = 'cmf' ) ) [ RunTime:0.000639s ]
[ sql ] [ EXPLAIN : array (
  'id' => 1,
  'select_type' => 'SIMPLE',
  'table' => 'cmf_hook',
  'type' => 'ALL',
  'possible_keys' => NULL,
  'key' => NULL,
  'key_len' => NULL,
  'ref' => NULL,
  'rows' => 30,
  'extra' => 'Using where',
) ]
[ sql ] [ SQL ] SHOW COLUMNS FROM `cmf_hook_plugin` [ RunTime:0.001103s ]
[ sql ] [ SQL ] SELECT `hook`,`plugin` FROM `cmf_hook_plugin` WHERE  `status` = 1  AND `hook` IN ('app_dispatch','before_content','log_write_done','switch_theme','switch_admin_theme','captcha_image') ORDER BY `list_order` ASC [ RunTime:0.000588s ]
[ sql ] [ EXPLAIN : array (
  'id' => 1,
  'select_type' => 'SIMPLE',
  'table' => 'cmf_hook_plugin',
  'type' => 'ALL',
  'possible_keys' => NULL,
  'key' => NULL,
  'key_len' => NULL,
  'ref' => NULL,
  'rows' => 1,
  'extra' => 'Using where; Using filesort',
) ]
[ sql ] [ SQL ] SELECT `hook` FROM `cmf_hook` WHERE  `type` = 1 OR (  `type` = 3  AND ( `app` = '' or `app` = 'cmf' ) ) [ RunTime:0.000642s ]
[ sql ] [ EXPLAIN : array (
  'id' => 1,
  'select_type' => 'SIMPLE',
  'table' => 'cmf_hook',
  'type' => 'ALL',
  'possible_keys' => NULL,
  'key' => NULL,
  'key_len' => NULL,
  'ref' => NULL,
  'rows' => 30,
  'extra' => 'Using where',
) ]
[ sql ] [ SQL ] SELECT `hook`,`plugin` FROM `cmf_hook_plugin` WHERE  `status` = 1  AND `hook` IN ('app_dispatch','before_content','log_write_done','switch_theme','switch_admin_theme','captcha_image') ORDER BY `list_order` ASC [ RunTime:0.000531s ]
[ sql ] [ EXPLAIN : array (
  'id' => 1,
  'select_type' => 'SIMPLE',
  'table' => 'cmf_hook_plugin',
  'type' => 'ALL',
  'possible_keys' => NULL,
  'key' => NULL,
  'key_len' => NULL,
  'ref' => NULL,
  'rows' => 1,
  'extra' => 'Using where; Using filesort',
) ]
[ sql ] [ SQL ] SHOW COLUMNS FROM `cmf_option` [ RunTime:0.001094s ]
[ sql ] [ SQL ] SELECT `option_value` FROM `cmf_option` WHERE  ( option_name='site_info' ) LIMIT 1 [ RunTime:0.000564s ]
[ sql ] [ EXPLAIN : array (
  'id' => 1,
  'select_type' => 'SIMPLE',
  'table' => 'cmf_option',
  'type' => 'const',
  'possible_keys' => 'option_name',
  'key' => 'option_name',
  'key_len' => '258',
  'ref' => 'const',
  'rows' => 1,
  'extra' => NULL,
) ]
[ sql ] [ SQL ] SHOW COLUMNS FROM `cmf_plugin` [ RunTime:0.001144s ]
[ sql ] [ SQL ] SELECT `config` FROM `cmf_plugin` WHERE  `name` = 'Qiniu' LIMIT 1 [ RunTime:0.000569s ]
[ sql ] [ EXPLAIN : array (
  'id' => 1,
  'select_type' => 'SIMPLE',
  'table' => 'cmf_plugin',
  'type' => 'ALL',
  'possible_keys' => NULL,
  'key' => NULL,
  'key_len' => NULL,
  'ref' => NULL,
  'rows' => 1,
  'extra' => 'Using where',
) ]
[ sql ] [ SQL ] SELECT `option_value` FROM `cmf_option` WHERE  ( option_name='configpri' ) LIMIT 1 [ RunTime:0.000478s ]
[ sql ] [ EXPLAIN : array (
  'id' => 1,
  'select_type' => 'SIMPLE',
  'table' => 'cmf_option',
  'type' => 'const',
  'possible_keys' => 'option_name',
  'key' => 'option_name',
  'key_len' => '258',
  'ref' => 'const',
  'rows' => 1,
  'extra' => NULL,
) ]
[ warn ] SQL:SELECT `hook`,`plugin` FROM `cmf_hook_plugin` WHERE  `status` = :ThinkBind_1_  AND `hook` IN (:ThinkBind_2_,:ThinkBind_3_,:ThinkBind_4_,:ThinkBind_5_,:ThinkBind_6_,:ThinkBind_7_) ORDER BY `list_order` ASC [Using where; Using filesort]
[ warn ] SQL:SELECT `hook`,`plugin` FROM `cmf_hook_plugin` WHERE  `status` = :ThinkBind_1_  AND `hook` IN (:ThinkBind_2_,:ThinkBind_3_,:ThinkBind_4_,:ThinkBind_5_,:ThinkBind_6_,:ThinkBind_7_) ORDER BY `list_order` ASC [Using where; Using filesort]
---------------------------------------------------------------

[2021-08-29T05:08:16+08:00] 47.102.115.133 GET test03.zwrjkf.cn/admin/index/index.html
[运行时间：0.043442s] [吞吐率：23.02req/s] [内存消耗：4,281.72kb] [文件加载：105]
[ info ] [ LANG ] /www/wwwroot/test01.zwrjkf.com/dp_service/vendor/thinkphp/lang/zh-cn.php
[ info ] [ DB ] INIT mysql
[ info ] [ LANG ] /www/wwwroot/test01.zwrjkf.com/dp_service/vendor/thinkcmf/cmf/src/behavior/../lang/zh-cn.php
[ info ] [ LANG ] /www/wwwroot/test01.zwrjkf.com/dp_service/app/admin/lang/zh-cn/common.php
[ info ] [ LANG ] /www/wwwroot/test01.zwrjkf.com/dp_service/app/portal/lang/zh-cn/common.php
[ info ] [ LANG ] /www/wwwroot/test01.zwrjkf.com/dp_service/app/admin//lang/zh-cn.php
[ info ] [ ROUTE ] array (
)
[ info ] [ HEADER ] array (
  'accept-encoding' => 'gzip',
  'connection' => 'Keep-Alive',
  'host' => 'test03.zwrjkf.cn',
  'user-agent' => 'Mozilla/5.0 (X11; Ubuntu; Linux x86_64; rv:36.0) Gecko/20100101 Firefox/36.0',
  'content-length' => '',
  'content-type' => '',
)
[ info ] [ PARAM ] array (
)
[ info ] [ LANG ] /www/wwwroot/test01.zwrjkf.com/dp_service/app/admin/lang/zh-cn/admin_menu.php
[ info ] [ LANG ] /www/wwwroot/test01.zwrjkf.com/dp_service/app/admin/lang/zh-cn/admin.php
[ info ] [ LANG ] /www/wwwroot/test01.zwrjkf.com/dp_service/app/user/lang/zh-cn/admin_menu.php
[ info ] [ LANG ] /www/wwwroot/test01.zwrjkf.com/dp_service/data/lang//admin_menu.php
[ sql ] [ DB ] CONNECT:[ UseTime:0.000862s ] mysql:host=47.104.242.77;port=3306;dbname=dp2.0;charset=utf8mb4
[ sql ] [ SQL ] SHOW COLUMNS FROM `cmf_hook` [ RunTime:0.001304s ]
[ sql ] [ SQL ] SELECT `hook` FROM `cmf_hook` WHERE  `type` = 1 OR (  `type` = 3  AND ( `app` = '' or `app` = 'cmf' ) ) [ RunTime:0.000669s ]
[ sql ] [ EXPLAIN : array (
  'id' => 1,
  'select_type' => 'SIMPLE',
  'table' => 'cmf_hook',
  'type' => 'ALL',
  'possible_keys' => NULL,
  'key' => NULL,
  'key_len' => NULL,
  'ref' => NULL,
  'rows' => 30,
  'extra' => 'Using where',
) ]
[ sql ] [ SQL ] SHOW COLUMNS FROM `cmf_hook_plugin` [ RunTime:0.001077s ]
[ sql ] [ SQL ] SELECT `hook`,`plugin` FROM `cmf_hook_plugin` WHERE  `status` = 1  AND `hook` IN ('app_dispatch','before_content','log_write_done','switch_theme','switch_admin_theme','captcha_image') ORDER BY `list_order` ASC [ RunTime:0.000553s ]
[ sql ] [ EXPLAIN : array (
  'id' => 1,
  'select_type' => 'SIMPLE',
  'table' => 'cmf_hook_plugin',
  'type' => 'ALL',
  'possible_keys' => NULL,
  'key' => NULL,
  'key_len' => NULL,
  'ref' => NULL,
  'rows' => 1,
  'extra' => 'Using where; Using filesort',
) ]
[ sql ] [ SQL ] SELECT `hook` FROM `cmf_hook` WHERE  `type` = 1 OR (  `type` = 3  AND ( `app` = '' or `app` = 'cmf' ) ) [ RunTime:0.000589s ]
[ sql ] [ EXPLAIN : array (
  'id' => 1,
  'select_type' => 'SIMPLE',
  'table' => 'cmf_hook',
  'type' => 'ALL',
  'possible_keys' => NULL,
  'key' => NULL,
  'key_len' => NULL,
  'ref' => NULL,
  'rows' => 30,
  'extra' => 'Using where',
) ]
[ sql ] [ SQL ] SELECT `hook`,`plugin` FROM `cmf_hook_plugin` WHERE  `status` = 1  AND `hook` IN ('app_dispatch','before_content','log_write_done','switch_theme','switch_admin_theme','captcha_image') ORDER BY `list_order` ASC [ RunTime:0.000553s ]
[ sql ] [ EXPLAIN : array (
  'id' => 1,
  'select_type' => 'SIMPLE',
  'table' => 'cmf_hook_plugin',
  'type' => 'ALL',
  'possible_keys' => NULL,
  'key' => NULL,
  'key_len' => NULL,
  'ref' => NULL,
  'rows' => 1,
  'extra' => 'Using where; Using filesort',
) ]
[ warn ] SQL:SELECT `hook`,`plugin` FROM `cmf_hook_plugin` WHERE  `status` = :ThinkBind_1_  AND `hook` IN (:ThinkBind_2_,:ThinkBind_3_,:ThinkBind_4_,:ThinkBind_5_,:ThinkBind_6_,:ThinkBind_7_) ORDER BY `list_order` ASC [Using where; Using filesort]
[ warn ] SQL:SELECT `hook`,`plugin` FROM `cmf_hook_plugin` WHERE  `status` = :ThinkBind_1_  AND `hook` IN (:ThinkBind_2_,:ThinkBind_3_,:ThinkBind_4_,:ThinkBind_5_,:ThinkBind_6_,:ThinkBind_7_) ORDER BY `list_order` ASC [Using where; Using filesort]
---------------------------------------------------------------

[2021-08-29T05:08:16+08:00] 47.102.115.133 GET test03.zwrjkf.cn/admin/public/login.html
[运行时间：0.039849s] [吞吐率：25.09req/s] [内存消耗：4,152.20kb] [文件加载：97]
[ info ] [ LANG ] /www/wwwroot/test01.zwrjkf.com/dp_service/vendor/thinkphp/lang/zh-cn.php
[ info ] [ DB ] INIT mysql
[ info ] [ LANG ] /www/wwwroot/test01.zwrjkf.com/dp_service/vendor/thinkcmf/cmf/src/behavior/../lang/zh-cn.php
[ info ] [ LANG ] /www/wwwroot/test01.zwrjkf.com/dp_service/app/admin/lang/zh-cn/common.php
[ info ] [ LANG ] /www/wwwroot/test01.zwrjkf.com/dp_service/app/portal/lang/zh-cn/common.php
[ info ] [ LANG ] /www/wwwroot/test01.zwrjkf.com/dp_service/app/admin//lang/zh-cn.php
[ info ] [ ROUTE ] array (
)
[ info ] [ HEADER ] array (
  'accept-encoding' => 'gzip',
  'connection' => 'Keep-Alive',
  'host' => 'test03.zwrjkf.cn',
  'user-agent' => 'Mozilla/5.0 (X11; Ubuntu; Linux x86_64; rv:36.0) Gecko/20100101 Firefox/36.0',
  'content-length' => '',
  'content-type' => '',
)
[ info ] [ PARAM ] array (
)
[ sql ] [ DB ] CONNECT:[ UseTime:0.000844s ] mysql:host=47.104.242.77;port=3306;dbname=dp2.0;charset=utf8mb4
[ sql ] [ SQL ] SHOW COLUMNS FROM `cmf_hook` [ RunTime:0.001230s ]
[ sql ] [ SQL ] SELECT `hook` FROM `cmf_hook` WHERE  `type` = 1 OR (  `type` = 3  AND ( `app` = '' or `app` = 'cmf' ) ) [ RunTime:0.000624s ]
[ sql ] [ EXPLAIN : array (
  'id' => 1,
  'select_type' => 'SIMPLE',
  'table' => 'cmf_hook',
  'type' => 'ALL',
  'possible_keys' => NULL,
  'key' => NULL,
  'key_len' => NULL,
  'ref' => NULL,
  'rows' => 30,
  'extra' => 'Using where',
) ]
[ sql ] [ SQL ] SHOW COLUMNS FROM `cmf_hook_plugin` [ RunTime:0.001100s ]
[ sql ] [ SQL ] SELECT `hook`,`plugin` FROM `cmf_hook_plugin` WHERE  `status` = 1  AND `hook` IN ('app_dispatch','before_content','log_write_done','switch_theme','switch_admin_theme','captcha_image') ORDER BY `list_order` ASC [ RunTime:0.000598s ]
[ sql ] [ EXPLAIN : array (
  'id' => 1,
  'select_type' => 'SIMPLE',
  'table' => 'cmf_hook_plugin',
  'type' => 'ALL',
  'possible_keys' => NULL,
  'key' => NULL,
  'key_len' => NULL,
  'ref' => NULL,
  'rows' => 1,
  'extra' => 'Using where; Using filesort',
) ]
[ sql ] [ SQL ] SELECT `hook` FROM `cmf_hook` WHERE  `type` = 1 OR (  `type` = 3  AND ( `app` = '' or `app` = 'cmf' ) ) [ RunTime:0.000574s ]
[ sql ] [ EXPLAIN : array (
  'id' => 1,
  'select_type' => 'SIMPLE',
  'table' => 'cmf_hook',
  'type' => 'ALL',
  'possible_keys' => NULL,
  'key' => NULL,
  'key_len' => NULL,
  'ref' => NULL,
  'rows' => 30,
  'extra' => 'Using where',
) ]
[ sql ] [ SQL ] SELECT `hook`,`plugin` FROM `cmf_hook_plugin` WHERE  `status` = 1  AND `hook` IN ('app_dispatch','before_content','log_write_done','switch_theme','switch_admin_theme','captcha_image') ORDER BY `list_order` ASC [ RunTime:0.000637s ]
[ sql ] [ EXPLAIN : array (
  'id' => 1,
  'select_type' => 'SIMPLE',
  'table' => 'cmf_hook_plugin',
  'type' => 'ALL',
  'possible_keys' => NULL,
  'key' => NULL,
  'key_len' => NULL,
  'ref' => NULL,
  'rows' => 1,
  'extra' => 'Using where; Using filesort',
) ]
[ warn ] SQL:SELECT `hook`,`plugin` FROM `cmf_hook_plugin` WHERE  `status` = :ThinkBind_1_  AND `hook` IN (:ThinkBind_2_,:ThinkBind_3_,:ThinkBind_4_,:ThinkBind_5_,:ThinkBind_6_,:ThinkBind_7_) ORDER BY `list_order` ASC [Using where; Using filesort]
[ warn ] SQL:SELECT `hook`,`plugin` FROM `cmf_hook_plugin` WHERE  `status` = :ThinkBind_1_  AND `hook` IN (:ThinkBind_2_,:ThinkBind_3_,:ThinkBind_4_,:ThinkBind_5_,:ThinkBind_6_,:ThinkBind_7_) ORDER BY `list_order` ASC [Using where; Using filesort]
---------------------------------------------------------------

[2021-08-29T05:08:16+08:00] 47.102.115.133 GET test03.zwrjkf.cn/
[运行时间：0.048221s] [吞吐率：20.74req/s] [内存消耗：4,474.42kb] [文件加载：112]
[ info ] [ LANG ] /www/wwwroot/test01.zwrjkf.com/dp_service/vendor/thinkphp/lang/zh-cn.php
[ info ] [ DB ] INIT mysql
[ info ] [ LANG ] /www/wwwroot/test01.zwrjkf.com/dp_service/vendor/thinkcmf/cmf/src/behavior/../lang/zh-cn.php
[ info ] [ LANG ] /www/wwwroot/test01.zwrjkf.com/dp_service/app/admin/lang/zh-cn/common.php
[ info ] [ LANG ] /www/wwwroot/test01.zwrjkf.com/dp_service/app/portal/lang/zh-cn/common.php
[ info ] [ LANG ] /www/wwwroot/test01.zwrjkf.com/dp_service/app/portal//lang/zh-cn.php
[ info ] [ ROUTE ] array (
)
[ info ] [ HEADER ] array (
  'accept-encoding' => 'gzip',
  'connection' => 'Keep-Alive',
  'host' => 'test03.zwrjkf.cn',
  'user-agent' => 'Mozilla/5.0 (X11; Ubuntu; Linux x86_64; rv:36.0) Gecko/20100101 Firefox/36.0',
  'content-length' => '',
  'content-type' => '',
)
[ info ] [ PARAM ] array (
)
[ info ] [ LANG ] /www/wwwroot/test01.zwrjkf.com/dp_service/app/portal/lang/zh-cn/home.php
[ sql ] [ DB ] CONNECT:[ UseTime:0.000940s ] mysql:host=47.104.242.77;port=3306;dbname=dp2.0;charset=utf8mb4
[ sql ] [ SQL ] SHOW COLUMNS FROM `cmf_hook` [ RunTime:0.001304s ]
[ sql ] [ SQL ] SELECT `hook` FROM `cmf_hook` WHERE  `type` = 1 OR (  `type` = 3  AND ( `app` = '' or `app` = 'cmf' ) ) [ RunTime:0.000626s ]
[ sql ] [ EXPLAIN : array (
  'id' => 1,
  'select_type' => 'SIMPLE',
  'table' => 'cmf_hook',
  'type' => 'ALL',
  'possible_keys' => NULL,
  'key' => NULL,
  'key_len' => NULL,
  'ref' => NULL,
  'rows' => 30,
  'extra' => 'Using where',
) ]
[ sql ] [ SQL ] SHOW COLUMNS FROM `cmf_hook_plugin` [ RunTime:0.001072s ]
[ sql ] [ SQL ] SELECT `hook`,`plugin` FROM `cmf_hook_plugin` WHERE  `status` = 1  AND `hook` IN ('app_dispatch','before_content','log_write_done','switch_theme','switch_admin_theme','captcha_image') ORDER BY `list_order` ASC [ RunTime:0.000595s ]
[ sql ] [ EXPLAIN : array (
  'id' => 1,
  'select_type' => 'SIMPLE',
  'table' => 'cmf_hook_plugin',
  'type' => 'ALL',
  'possible_keys' => NULL,
  'key' => NULL,
  'key_len' => NULL,
  'ref' => NULL,
  'rows' => 1,
  'extra' => 'Using where; Using filesort',
) ]
[ sql ] [ SQL ] SELECT `hook` FROM `cmf_hook` WHERE  `type` = 1 OR (  `type` = 3  AND ( `app` = '' or `app` = 'cmf' ) ) [ RunTime:0.000562s ]
[ sql ] [ EXPLAIN : array (
  'id' => 1,
  'select_type' => 'SIMPLE',
  'table' => 'cmf_hook',
  'type' => 'ALL',
  'possible_keys' => NULL,
  'key' => NULL,
  'key_len' => NULL,
  'ref' => NULL,
  'rows' => 30,
  'extra' => 'Using where',
) ]
[ sql ] [ SQL ] SELECT `hook`,`plugin` FROM `cmf_hook_plugin` WHERE  `status` = 1  AND `hook` IN ('app_dispatch','before_content','log_write_done','switch_theme','switch_admin_theme','captcha_image') ORDER BY `list_order` ASC [ RunTime:0.000578s ]
[ sql ] [ EXPLAIN : array (
  'id' => 1,
  'select_type' => 'SIMPLE',
  'table' => 'cmf_hook_plugin',
  'type' => 'ALL',
  'possible_keys' => NULL,
  'key' => NULL,
  'key_len' => NULL,
  'ref' => NULL,
  'rows' => 1,
  'extra' => 'Using where; Using filesort',
) ]
[ sql ] [ SQL ] SHOW COLUMNS FROM `cmf_option` [ RunTime:0.001223s ]
[ sql ] [ SQL ] SELECT `option_value` FROM `cmf_option` WHERE  ( option_name='site_info' ) LIMIT 1 [ RunTime:0.000553s ]
[ sql ] [ EXPLAIN : array (
  'id' => 1,
  'select_type' => 'SIMPLE',
  'table' => 'cmf_option',
  'type' => 'const',
  'possible_keys' => 'option_name',
  'key' => 'option_name',
  'key_len' => '258',
  'ref' => 'const',
  'rows' => 1,
  'extra' => NULL,
) ]
[ sql ] [ SQL ] SHOW COLUMNS FROM `cmf_plugin` [ RunTime:0.001097s ]
[ sql ] [ SQL ] SELECT `config` FROM `cmf_plugin` WHERE  `name` = 'Qiniu' LIMIT 1 [ RunTime:0.000519s ]
[ sql ] [ EXPLAIN : array (
  'id' => 1,
  'select_type' => 'SIMPLE',
  'table' => 'cmf_plugin',
  'type' => 'ALL',
  'possible_keys' => NULL,
  'key' => NULL,
  'key_len' => NULL,
  'ref' => NULL,
  'rows' => 1,
  'extra' => 'Using where',
) ]
[ sql ] [ SQL ] SELECT `option_value` FROM `cmf_option` WHERE  ( option_name='configpri' ) LIMIT 1 [ RunTime:0.000507s ]
[ sql ] [ EXPLAIN : array (
  'id' => 1,
  'select_type' => 'SIMPLE',
  'table' => 'cmf_option',
  'type' => 'const',
  'possible_keys' => 'option_name',
  'key' => 'option_name',
  'key_len' => '258',
  'ref' => 'const',
  'rows' => 1,
  'extra' => NULL,
) ]
[ warn ] SQL:SELECT `hook`,`plugin` FROM `cmf_hook_plugin` WHERE  `status` = :ThinkBind_1_  AND `hook` IN (:ThinkBind_2_,:ThinkBind_3_,:ThinkBind_4_,:ThinkBind_5_,:ThinkBind_6_,:ThinkBind_7_) ORDER BY `list_order` ASC [Using where; Using filesort]
[ warn ] SQL:SELECT `hook`,`plugin` FROM `cmf_hook_plugin` WHERE  `status` = :ThinkBind_1_  AND `hook` IN (:ThinkBind_2_,:ThinkBind_3_,:ThinkBind_4_,:ThinkBind_5_,:ThinkBind_6_,:ThinkBind_7_) ORDER BY `list_order` ASC [Using where; Using filesort]
---------------------------------------------------------------

[2021-08-29T05:08:16+08:00] 47.102.115.133 GET test03.zwrjkf.cn/admin/index/index.html
[运行时间：0.039151s] [吞吐率：25.54req/s] [内存消耗：4,281.72kb] [文件加载：105]
[ info ] [ LANG ] /www/wwwroot/test01.zwrjkf.com/dp_service/vendor/thinkphp/lang/zh-cn.php
[ info ] [ DB ] INIT mysql
[ info ] [ LANG ] /www/wwwroot/test01.zwrjkf.com/dp_service/vendor/thinkcmf/cmf/src/behavior/../lang/zh-cn.php
[ info ] [ LANG ] /www/wwwroot/test01.zwrjkf.com/dp_service/app/admin/lang/zh-cn/common.php
[ info ] [ LANG ] /www/wwwroot/test01.zwrjkf.com/dp_service/app/portal/lang/zh-cn/common.php
[ info ] [ LANG ] /www/wwwroot/test01.zwrjkf.com/dp_service/app/admin//lang/zh-cn.php
[ info ] [ ROUTE ] array (
)
[ info ] [ HEADER ] array (
  'accept-encoding' => 'gzip',
  'connection' => 'Keep-Alive',
  'host' => 'test03.zwrjkf.cn',
  'user-agent' => 'Mozilla/5.0 (X11; Ubuntu; Linux x86_64; rv:36.0) Gecko/20100101 Firefox/36.0',
  'content-length' => '',
  'content-type' => '',
)
[ info ] [ PARAM ] array (
)
[ info ] [ LANG ] /www/wwwroot/test01.zwrjkf.com/dp_service/app/admin/lang/zh-cn/admin_menu.php
[ info ] [ LANG ] /www/wwwroot/test01.zwrjkf.com/dp_service/app/admin/lang/zh-cn/admin.php
[ info ] [ LANG ] /www/wwwroot/test01.zwrjkf.com/dp_service/app/user/lang/zh-cn/admin_menu.php
[ info ] [ LANG ] /www/wwwroot/test01.zwrjkf.com/dp_service/data/lang//admin_menu.php
[ sql ] [ DB ] CONNECT:[ UseTime:0.000890s ] mysql:host=47.104.242.77;port=3306;dbname=dp2.0;charset=utf8mb4
[ sql ] [ SQL ] SHOW COLUMNS FROM `cmf_hook` [ RunTime:0.001302s ]
[ sql ] [ SQL ] SELECT `hook` FROM `cmf_hook` WHERE  `type` = 1 OR (  `type` = 3  AND ( `app` = '' or `app` = 'cmf' ) ) [ RunTime:0.000701s ]
[ sql ] [ EXPLAIN : array (
  'id' => 1,
  'select_type' => 'SIMPLE',
  'table' => 'cmf_hook',
  'type' => 'ALL',
  'possible_keys' => NULL,
  'key' => NULL,
  'key_len' => NULL,
  'ref' => NULL,
  'rows' => 30,
  'extra' => 'Using where',
) ]
[ sql ] [ SQL ] SHOW COLUMNS FROM `cmf_hook_plugin` [ RunTime:0.001095s ]
[ sql ] [ SQL ] SELECT `hook`,`plugin` FROM `cmf_hook_plugin` WHERE  `status` = 1  AND `hook` IN ('app_dispatch','before_content','log_write_done','switch_theme','switch_admin_theme','captcha_image') ORDER BY `list_order` ASC [ RunTime:0.000619s ]
[ sql ] [ EXPLAIN : array (
  'id' => 1,
  'select_type' => 'SIMPLE',
  'table' => 'cmf_hook_plugin',
  'type' => 'ALL',
  'possible_keys' => NULL,
  'key' => NULL,
  'key_len' => NULL,
  'ref' => NULL,
  'rows' => 1,
  'extra' => 'Using where; Using filesort',
) ]
[ sql ] [ SQL ] SELECT `hook` FROM `cmf_hook` WHERE  `type` = 1 OR (  `type` = 3  AND ( `app` = '' or `app` = 'cmf' ) ) [ RunTime:0.000624s ]
[ sql ] [ EXPLAIN : array (
  'id' => 1,
  'select_type' => 'SIMPLE',
  'table' => 'cmf_hook',
  'type' => 'ALL',
  'possible_keys' => NULL,
  'key' => NULL,
  'key_len' => NULL,
  'ref' => NULL,
  'rows' => 30,
  'extra' => 'Using where',
) ]
[ sql ] [ SQL ] SELECT `hook`,`plugin` FROM `cmf_hook_plugin` WHERE  `status` = 1  AND `hook` IN ('app_dispatch','before_content','log_write_done','switch_theme','switch_admin_theme','captcha_image') ORDER BY `list_order` ASC [ RunTime:0.000611s ]
[ sql ] [ EXPLAIN : array (
  'id' => 1,
  'select_type' => 'SIMPLE',
  'table' => 'cmf_hook_plugin',
  'type' => 'ALL',
  'possible_keys' => NULL,
  'key' => NULL,
  'key_len' => NULL,
  'ref' => NULL,
  'rows' => 1,
  'extra' => 'Using where; Using filesort',
) ]
[ warn ] SQL:SELECT `hook`,`plugin` FROM `cmf_hook_plugin` WHERE  `status` = :ThinkBind_1_  AND `hook` IN (:ThinkBind_2_,:ThinkBind_3_,:ThinkBind_4_,:ThinkBind_5_,:ThinkBind_6_,:ThinkBind_7_) ORDER BY `list_order` ASC [Using where; Using filesort]
[ warn ] SQL:SELECT `hook`,`plugin` FROM `cmf_hook_plugin` WHERE  `status` = :ThinkBind_1_  AND `hook` IN (:ThinkBind_2_,:ThinkBind_3_,:ThinkBind_4_,:ThinkBind_5_,:ThinkBind_6_,:ThinkBind_7_) ORDER BY `list_order` ASC [Using where; Using filesort]
---------------------------------------------------------------

[2021-08-29T05:08:16+08:00] 47.102.115.133 GET test03.zwrjkf.cn/admin/public/login.html
[运行时间：0.038323s] [吞吐率：26.09req/s] [内存消耗：4,152.20kb] [文件加载：97]
[ info ] [ LANG ] /www/wwwroot/test01.zwrjkf.com/dp_service/vendor/thinkphp/lang/zh-cn.php
[ info ] [ DB ] INIT mysql
[ info ] [ LANG ] /www/wwwroot/test01.zwrjkf.com/dp_service/vendor/thinkcmf/cmf/src/behavior/../lang/zh-cn.php
[ info ] [ LANG ] /www/wwwroot/test01.zwrjkf.com/dp_service/app/admin/lang/zh-cn/common.php
[ info ] [ LANG ] /www/wwwroot/test01.zwrjkf.com/dp_service/app/portal/lang/zh-cn/common.php
[ info ] [ LANG ] /www/wwwroot/test01.zwrjkf.com/dp_service/app/admin//lang/zh-cn.php
[ info ] [ ROUTE ] array (
)
[ info ] [ HEADER ] array (
  'accept-encoding' => 'gzip',
  'connection' => 'Keep-Alive',
  'host' => 'test03.zwrjkf.cn',
  'user-agent' => 'Mozilla/5.0 (X11; Ubuntu; Linux x86_64; rv:36.0) Gecko/20100101 Firefox/36.0',
  'content-length' => '',
  'content-type' => '',
)
[ info ] [ PARAM ] array (
)
[ sql ] [ DB ] CONNECT:[ UseTime:0.000873s ] mysql:host=47.104.242.77;port=3306;dbname=dp2.0;charset=utf8mb4
[ sql ] [ SQL ] SHOW COLUMNS FROM `cmf_hook` [ RunTime:0.001130s ]
[ sql ] [ SQL ] SELECT `hook` FROM `cmf_hook` WHERE  `type` = 1 OR (  `type` = 3  AND ( `app` = '' or `app` = 'cmf' ) ) [ RunTime:0.000611s ]
[ sql ] [ EXPLAIN : array (
  'id' => 1,
  'select_type' => 'SIMPLE',
  'table' => 'cmf_hook',
  'type' => 'ALL',
  'possible_keys' => NULL,
  'key' => NULL,
  'key_len' => NULL,
  'ref' => NULL,
  'rows' => 30,
  'extra' => 'Using where',
) ]
[ sql ] [ SQL ] SHOW COLUMNS FROM `cmf_hook_plugin` [ RunTime:0.001326s ]
[ sql ] [ SQL ] SELECT `hook`,`plugin` FROM `cmf_hook_plugin` WHERE  `status` = 1  AND `hook` IN ('app_dispatch','before_content','log_write_done','switch_theme','switch_admin_theme','captcha_image') ORDER BY `list_order` ASC [ RunTime:0.000643s ]
[ sql ] [ EXPLAIN : array (
  'id' => 1,
  'select_type' => 'SIMPLE',
  'table' => 'cmf_hook_plugin',
  'type' => 'ALL',
  'possible_keys' => NULL,
  'key' => NULL,
  'key_len' => NULL,
  'ref' => NULL,
  'rows' => 1,
  'extra' => 'Using where; Using filesort',
) ]
[ sql ] [ SQL ] SELECT `hook` FROM `cmf_hook` WHERE  `type` = 1 OR (  `type` = 3  AND ( `app` = '' or `app` = 'cmf' ) ) [ RunTime:0.000660s ]
[ sql ] [ EXPLAIN : array (
  'id' => 1,
  'select_type' => 'SIMPLE',
  'table' => 'cmf_hook',
  'type' => 'ALL',
  'possible_keys' => NULL,
  'key' => NULL,
  'key_len' => NULL,
  'ref' => NULL,
  'rows' => 30,
  'extra' => 'Using where',
) ]
[ sql ] [ SQL ] SELECT `hook`,`plugin` FROM `cmf_hook_plugin` WHERE  `status` = 1  AND `hook` IN ('app_dispatch','before_content','log_write_done','switch_theme','switch_admin_theme','captcha_image') ORDER BY `list_order` ASC [ RunTime:0.000780s ]
[ sql ] [ EXPLAIN : array (
  'id' => 1,
  'select_type' => 'SIMPLE',
  'table' => 'cmf_hook_plugin',
  'type' => 'ALL',
  'possible_keys' => NULL,
  'key' => NULL,
  'key_len' => NULL,
  'ref' => NULL,
  'rows' => 1,
  'extra' => 'Using where; Using filesort',
) ]
[ warn ] SQL:SELECT `hook`,`plugin` FROM `cmf_hook_plugin` WHERE  `status` = :ThinkBind_1_  AND `hook` IN (:ThinkBind_2_,:ThinkBind_3_,:ThinkBind_4_,:ThinkBind_5_,:ThinkBind_6_,:ThinkBind_7_) ORDER BY `list_order` ASC [Using where; Using filesort]
[ warn ] SQL:SELECT `hook`,`plugin` FROM `cmf_hook_plugin` WHERE  `status` = :ThinkBind_1_  AND `hook` IN (:ThinkBind_2_,:ThinkBind_3_,:ThinkBind_4_,:ThinkBind_5_,:ThinkBind_6_,:ThinkBind_7_) ORDER BY `list_order` ASC [Using where; Using filesort]
---------------------------------------------------------------

[2021-08-29T05:08:16+08:00] 47.102.115.133 GET test03.zwrjkf.cn/
[运行时间：0.047046s] [吞吐率：21.26req/s] [内存消耗：4,474.42kb] [文件加载：112]
[ info ] [ LANG ] /www/wwwroot/test01.zwrjkf.com/dp_service/vendor/thinkphp/lang/zh-cn.php
[ info ] [ DB ] INIT mysql
[ info ] [ LANG ] /www/wwwroot/test01.zwrjkf.com/dp_service/vendor/thinkcmf/cmf/src/behavior/../lang/zh-cn.php
[ info ] [ LANG ] /www/wwwroot/test01.zwrjkf.com/dp_service/app/admin/lang/zh-cn/common.php
[ info ] [ LANG ] /www/wwwroot/test01.zwrjkf.com/dp_service/app/portal/lang/zh-cn/common.php
[ info ] [ LANG ] /www/wwwroot/test01.zwrjkf.com/dp_service/app/portal//lang/zh-cn.php
[ info ] [ ROUTE ] array (
)
[ info ] [ HEADER ] array (
  'accept-encoding' => 'gzip',
  'connection' => 'Keep-Alive',
  'host' => 'test03.zwrjkf.cn',
  'user-agent' => 'Mozilla/5.0 (X11; Ubuntu; Linux x86_64; rv:36.0) Gecko/20100101 Firefox/36.0',
  'content-length' => '',
  'content-type' => '',
)
[ info ] [ PARAM ] array (
)
[ info ] [ LANG ] /www/wwwroot/test01.zwrjkf.com/dp_service/app/portal/lang/zh-cn/home.php
[ sql ] [ DB ] CONNECT:[ UseTime:0.000887s ] mysql:host=47.104.242.77;port=3306;dbname=dp2.0;charset=utf8mb4
[ sql ] [ SQL ] SHOW COLUMNS FROM `cmf_hook` [ RunTime:0.001380s ]
[ sql ] [ SQL ] SELECT `hook` FROM `cmf_hook` WHERE  `type` = 1 OR (  `type` = 3  AND ( `app` = '' or `app` = 'cmf' ) ) [ RunTime:0.000712s ]
[ sql ] [ EXPLAIN : array (
  'id' => 1,
  'select_type' => 'SIMPLE',
  'table' => 'cmf_hook',
  'type' => 'ALL',
  'possible_keys' => NULL,
  'key' => NULL,
  'key_len' => NULL,
  'ref' => NULL,
  'rows' => 30,
  'extra' => 'Using where',
) ]
[ sql ] [ SQL ] SHOW COLUMNS FROM `cmf_hook_plugin` [ RunTime:0.001302s ]
[ sql ] [ SQL ] SELECT `hook`,`plugin` FROM `cmf_hook_plugin` WHERE  `status` = 1  AND `hook` IN ('app_dispatch','before_content','log_write_done','switch_theme','switch_admin_theme','captcha_image') ORDER BY `list_order` ASC [ RunTime:0.000595s ]
[ sql ] [ EXPLAIN : array (
  'id' => 1,
  'select_type' => 'SIMPLE',
  'table' => 'cmf_hook_plugin',
  'type' => 'ALL',
  'possible_keys' => NULL,
  'key' => NULL,
  'key_len' => NULL,
  'ref' => NULL,
  'rows' => 1,
  'extra' => 'Using where; Using filesort',
) ]
[ sql ] [ SQL ] SELECT `hook` FROM `cmf_hook` WHERE  `type` = 1 OR (  `type` = 3  AND ( `app` = '' or `app` = 'cmf' ) ) [ RunTime:0.000568s ]
[ sql ] [ EXPLAIN : array (
  'id' => 1,
  'select_type' => 'SIMPLE',
  'table' => 'cmf_hook',
  'type' => 'ALL',
  'possible_keys' => NULL,
  'key' => NULL,
  'key_len' => NULL,
  'ref' => NULL,
  'rows' => 30,
  'extra' => 'Using where',
) ]
[ sql ] [ SQL ] SELECT `hook`,`plugin` FROM `cmf_hook_plugin` WHERE  `status` = 1  AND `hook` IN ('app_dispatch','before_content','log_write_done','switch_theme','switch_admin_theme','captcha_image') ORDER BY `list_order` ASC [ RunTime:0.000559s ]
[ sql ] [ EXPLAIN : array (
  'id' => 1,
  'select_type' => 'SIMPLE',
  'table' => 'cmf_hook_plugin',
  'type' => 'ALL',
  'possible_keys' => NULL,
  'key' => NULL,
  'key_len' => NULL,
  'ref' => NULL,
  'rows' => 1,
  'extra' => 'Using where; Using filesort',
) ]
[ sql ] [ SQL ] SHOW COLUMNS FROM `cmf_option` [ RunTime:0.001105s ]
[ sql ] [ SQL ] SELECT `option_value` FROM `cmf_option` WHERE  ( option_name='site_info' ) LIMIT 1 [ RunTime:0.000521s ]
[ sql ] [ EXPLAIN : array (
  'id' => 1,
  'select_type' => 'SIMPLE',
  'table' => 'cmf_option',
  'type' => 'const',
  'possible_keys' => 'option_name',
  'key' => 'option_name',
  'key_len' => '258',
  'ref' => 'const',
  'rows' => 1,
  'extra' => NULL,
) ]
[ sql ] [ SQL ] SHOW COLUMNS FROM `cmf_plugin` [ RunTime:0.001145s ]
[ sql ] [ SQL ] SELECT `config` FROM `cmf_plugin` WHERE  `name` = 'Qiniu' LIMIT 1 [ RunTime:0.000505s ]
[ sql ] [ EXPLAIN : array (
  'id' => 1,
  'select_type' => 'SIMPLE',
  'table' => 'cmf_plugin',
  'type' => 'ALL',
  'possible_keys' => NULL,
  'key' => NULL,
  'key_len' => NULL,
  'ref' => NULL,
  'rows' => 1,
  'extra' => 'Using where',
) ]
[ sql ] [ SQL ] SELECT `option_value` FROM `cmf_option` WHERE  ( option_name='configpri' ) LIMIT 1 [ RunTime:0.000486s ]
[ sql ] [ EXPLAIN : array (
  'id' => 1,
  'select_type' => 'SIMPLE',
  'table' => 'cmf_option',
  'type' => 'const',
  'possible_keys' => 'option_name',
  'key' => 'option_name',
  'key_len' => '258',
  'ref' => 'const',
  'rows' => 1,
  'extra' => NULL,
) ]
[ warn ] SQL:SELECT `hook`,`plugin` FROM `cmf_hook_plugin` WHERE  `status` = :ThinkBind_1_  AND `hook` IN (:ThinkBind_2_,:ThinkBind_3_,:ThinkBind_4_,:ThinkBind_5_,:ThinkBind_6_,:ThinkBind_7_) ORDER BY `list_order` ASC [Using where; Using filesort]
[ warn ] SQL:SELECT `hook`,`plugin` FROM `cmf_hook_plugin` WHERE  `status` = :ThinkBind_1_  AND `hook` IN (:ThinkBind_2_,:ThinkBind_3_,:ThinkBind_4_,:ThinkBind_5_,:ThinkBind_6_,:ThinkBind_7_) ORDER BY `list_order` ASC [Using where; Using filesort]
---------------------------------------------------------------

[2021-08-29T05:08:16+08:00] 47.102.115.133 GET test03.zwrjkf.cn/admin/index/index.html
[运行时间：0.040617s] [吞吐率：24.62req/s] [内存消耗：4,281.72kb] [文件加载：105]
[ info ] [ LANG ] /www/wwwroot/test01.zwrjkf.com/dp_service/vendor/thinkphp/lang/zh-cn.php
[ info ] [ DB ] INIT mysql
[ info ] [ LANG ] /www/wwwroot/test01.zwrjkf.com/dp_service/vendor/thinkcmf/cmf/src/behavior/../lang/zh-cn.php
[ info ] [ LANG ] /www/wwwroot/test01.zwrjkf.com/dp_service/app/admin/lang/zh-cn/common.php
[ info ] [ LANG ] /www/wwwroot/test01.zwrjkf.com/dp_service/app/portal/lang/zh-cn/common.php
[ info ] [ LANG ] /www/wwwroot/test01.zwrjkf.com/dp_service/app/admin//lang/zh-cn.php
[ info ] [ ROUTE ] array (
)
[ info ] [ HEADER ] array (
  'accept-encoding' => 'gzip',
  'connection' => 'Keep-Alive',
  'host' => 'test03.zwrjkf.cn',
  'user-agent' => 'Mozilla/5.0 (X11; Ubuntu; Linux x86_64; rv:36.0) Gecko/20100101 Firefox/36.0',
  'content-length' => '',
  'content-type' => '',
)
[ info ] [ PARAM ] array (
)
[ info ] [ LANG ] /www/wwwroot/test01.zwrjkf.com/dp_service/app/admin/lang/zh-cn/admin_menu.php
[ info ] [ LANG ] /www/wwwroot/test01.zwrjkf.com/dp_service/app/admin/lang/zh-cn/admin.php
[ info ] [ LANG ] /www/wwwroot/test01.zwrjkf.com/dp_service/app/user/lang/zh-cn/admin_menu.php
[ info ] [ LANG ] /www/wwwroot/test01.zwrjkf.com/dp_service/data/lang//admin_menu.php
[ sql ] [ DB ] CONNECT:[ UseTime:0.000898s ] mysql:host=47.104.242.77;port=3306;dbname=dp2.0;charset=utf8mb4
[ sql ] [ SQL ] SHOW COLUMNS FROM `cmf_hook` [ RunTime:0.001304s ]
[ sql ] [ SQL ] SELECT `hook` FROM `cmf_hook` WHERE  `type` = 1 OR (  `type` = 3  AND ( `app` = '' or `app` = 'cmf' ) ) [ RunTime:0.000682s ]
[ sql ] [ EXPLAIN : array (
  'id' => 1,
  'select_type' => 'SIMPLE',
  'table' => 'cmf_hook',
  'type' => 'ALL',
  'possible_keys' => NULL,
  'key' => NULL,
  'key_len' => NULL,
  'ref' => NULL,
  'rows' => 30,
  'extra' => 'Using where',
) ]
[ sql ] [ SQL ] SHOW COLUMNS FROM `cmf_hook_plugin` [ RunTime:0.001105s ]
[ sql ] [ SQL ] SELECT `hook`,`plugin` FROM `cmf_hook_plugin` WHERE  `status` = 1  AND `hook` IN ('app_dispatch','before_content','log_write_done','switch_theme','switch_admin_theme','captcha_image') ORDER BY `list_order` ASC [ RunTime:0.000564s ]
[ sql ] [ EXPLAIN : array (
  'id' => 1,
  'select_type' => 'SIMPLE',
  'table' => 'cmf_hook_plugin',
  'type' => 'ALL',
  'possible_keys' => NULL,
  'key' => NULL,
  'key_len' => NULL,
  'ref' => NULL,
  'rows' => 1,
  'extra' => 'Using where; Using filesort',
) ]
[ sql ] [ SQL ] SELECT `hook` FROM `cmf_hook` WHERE  `type` = 1 OR (  `type` = 3  AND ( `app` = '' or `app` = 'cmf' ) ) [ RunTime:0.000614s ]
[ sql ] [ EXPLAIN : array (
  'id' => 1,
  'select_type' => 'SIMPLE',
  'table' => 'cmf_hook',
  'type' => 'ALL',
  'possible_keys' => NULL,
  'key' => NULL,
  'key_len' => NULL,
  'ref' => NULL,
  'rows' => 30,
  'extra' => 'Using where',
) ]
[ sql ] [ SQL ] SELECT `hook`,`plugin` FROM `cmf_hook_plugin` WHERE  `status` = 1  AND `hook` IN ('app_dispatch','before_content','log_write_done','switch_theme','switch_admin_theme','captcha_image') ORDER BY `list_order` ASC [ RunTime:0.000513s ]
[ sql ] [ EXPLAIN : array (
  'id' => 1,
  'select_type' => 'SIMPLE',
  'table' => 'cmf_hook_plugin',
  'type' => 'ALL',
  'possible_keys' => NULL,
  'key' => NULL,
  'key_len' => NULL,
  'ref' => NULL,
  'rows' => 1,
  'extra' => 'Using where; Using filesort',
) ]
[ warn ] SQL:SELECT `hook`,`plugin` FROM `cmf_hook_plugin` WHERE  `status` = :ThinkBind_1_  AND `hook` IN (:ThinkBind_2_,:ThinkBind_3_,:ThinkBind_4_,:ThinkBind_5_,:ThinkBind_6_,:ThinkBind_7_) ORDER BY `list_order` ASC [Using where; Using filesort]
[ warn ] SQL:SELECT `hook`,`plugin` FROM `cmf_hook_plugin` WHERE  `status` = :ThinkBind_1_  AND `hook` IN (:ThinkBind_2_,:ThinkBind_3_,:ThinkBind_4_,:ThinkBind_5_,:ThinkBind_6_,:ThinkBind_7_) ORDER BY `list_order` ASC [Using where; Using filesort]
---------------------------------------------------------------

[2021-08-29T05:08:16+08:00] 47.102.115.133 GET test03.zwrjkf.cn/admin/public/login.html
[运行时间：0.037185s] [吞吐率：26.89req/s] [内存消耗：4,152.20kb] [文件加载：97]
[ info ] [ LANG ] /www/wwwroot/test01.zwrjkf.com/dp_service/vendor/thinkphp/lang/zh-cn.php
[ info ] [ DB ] INIT mysql
[ info ] [ LANG ] /www/wwwroot/test01.zwrjkf.com/dp_service/vendor/thinkcmf/cmf/src/behavior/../lang/zh-cn.php
[ info ] [ LANG ] /www/wwwroot/test01.zwrjkf.com/dp_service/app/admin/lang/zh-cn/common.php
[ info ] [ LANG ] /www/wwwroot/test01.zwrjkf.com/dp_service/app/portal/lang/zh-cn/common.php
[ info ] [ LANG ] /www/wwwroot/test01.zwrjkf.com/dp_service/app/admin//lang/zh-cn.php
[ info ] [ ROUTE ] array (
)
[ info ] [ HEADER ] array (
  'accept-encoding' => 'gzip',
  'connection' => 'Keep-Alive',
  'host' => 'test03.zwrjkf.cn',
  'user-agent' => 'Mozilla/5.0 (X11; Ubuntu; Linux x86_64; rv:36.0) Gecko/20100101 Firefox/36.0',
  'content-length' => '',
  'content-type' => '',
)
[ info ] [ PARAM ] array (
)
[ sql ] [ DB ] CONNECT:[ UseTime:0.000817s ] mysql:host=47.104.242.77;port=3306;dbname=dp2.0;charset=utf8mb4
[ sql ] [ SQL ] SHOW COLUMNS FROM `cmf_hook` [ RunTime:0.001227s ]
[ sql ] [ SQL ] SELECT `hook` FROM `cmf_hook` WHERE  `type` = 1 OR (  `type` = 3  AND ( `app` = '' or `app` = 'cmf' ) ) [ RunTime:0.000642s ]
[ sql ] [ EXPLAIN : array (
  'id' => 1,
  'select_type' => 'SIMPLE',
  'table' => 'cmf_hook',
  'type' => 'ALL',
  'possible_keys' => NULL,
  'key' => NULL,
  'key_len' => NULL,
  'ref' => NULL,
  'rows' => 30,
  'extra' => 'Using where',
) ]
[ sql ] [ SQL ] SHOW COLUMNS FROM `cmf_hook_plugin` [ RunTime:0.001120s ]
[ sql ] [ SQL ] SELECT `hook`,`plugin` FROM `cmf_hook_plugin` WHERE  `status` = 1  AND `hook` IN ('app_dispatch','before_content','log_write_done','switch_theme','switch_admin_theme','captcha_image') ORDER BY `list_order` ASC [ RunTime:0.000623s ]
[ sql ] [ EXPLAIN : array (
  'id' => 1,
  'select_type' => 'SIMPLE',
  'table' => 'cmf_hook_plugin',
  'type' => 'ALL',
  'possible_keys' => NULL,
  'key' => NULL,
  'key_len' => NULL,
  'ref' => NULL,
  'rows' => 1,
  'extra' => 'Using where; Using filesort',
) ]
[ sql ] [ SQL ] SELECT `hook` FROM `cmf_hook` WHERE  `type` = 1 OR (  `type` = 3  AND ( `app` = '' or `app` = 'cmf' ) ) [ RunTime:0.000576s ]
[ sql ] [ EXPLAIN : array (
  'id' => 1,
  'select_type' => 'SIMPLE',
  'table' => 'cmf_hook',
  'type' => 'ALL',
  'possible_keys' => NULL,
  'key' => NULL,
  'key_len' => NULL,
  'ref' => NULL,
  'rows' => 30,
  'extra' => 'Using where',
) ]
[ sql ] [ SQL ] SELECT `hook`,`plugin` FROM `cmf_hook_plugin` WHERE  `status` = 1  AND `hook` IN ('app_dispatch','before_content','log_write_done','switch_theme','switch_admin_theme','captcha_image') ORDER BY `list_order` ASC [ RunTime:0.000617s ]
[ sql ] [ EXPLAIN : array (
  'id' => 1,
  'select_type' => 'SIMPLE',
  'table' => 'cmf_hook_plugin',
  'type' => 'ALL',
  'possible_keys' => NULL,
  'key' => NULL,
  'key_len' => NULL,
  'ref' => NULL,
  'rows' => 1,
  'extra' => 'Using where; Using filesort',
) ]
[ warn ] SQL:SELECT `hook`,`plugin` FROM `cmf_hook_plugin` WHERE  `status` = :ThinkBind_1_  AND `hook` IN (:ThinkBind_2_,:ThinkBind_3_,:ThinkBind_4_,:ThinkBind_5_,:ThinkBind_6_,:ThinkBind_7_) ORDER BY `list_order` ASC [Using where; Using filesort]
[ warn ] SQL:SELECT `hook`,`plugin` FROM `cmf_hook_plugin` WHERE  `status` = :ThinkBind_1_  AND `hook` IN (:ThinkBind_2_,:ThinkBind_3_,:ThinkBind_4_,:ThinkBind_5_,:ThinkBind_6_,:ThinkBind_7_) ORDER BY `list_order` ASC [Using where; Using filesort]
---------------------------------------------------------------

[2021-08-29T05:08:16+08:00] 47.102.115.133 GET test03.zwrjkf.cn/
[运行时间：0.047013s] [吞吐率：21.27req/s] [内存消耗：4,474.42kb] [文件加载：112]
[ info ] [ LANG ] /www/wwwroot/test01.zwrjkf.com/dp_service/vendor/thinkphp/lang/zh-cn.php
[ info ] [ DB ] INIT mysql
[ info ] [ LANG ] /www/wwwroot/test01.zwrjkf.com/dp_service/vendor/thinkcmf/cmf/src/behavior/../lang/zh-cn.php
[ info ] [ LANG ] /www/wwwroot/test01.zwrjkf.com/dp_service/app/admin/lang/zh-cn/common.php
[ info ] [ LANG ] /www/wwwroot/test01.zwrjkf.com/dp_service/app/portal/lang/zh-cn/common.php
[ info ] [ LANG ] /www/wwwroot/test01.zwrjkf.com/dp_service/app/portal//lang/zh-cn.php
[ info ] [ ROUTE ] array (
)
[ info ] [ HEADER ] array (
  'accept-encoding' => 'gzip',
  'connection' => 'Keep-Alive',
  'host' => 'test03.zwrjkf.cn',
  'user-agent' => 'Mozilla/5.0 (X11; Ubuntu; Linux x86_64; rv:36.0) Gecko/20100101 Firefox/36.0',
  'content-length' => '',
  'content-type' => '',
)
[ info ] [ PARAM ] array (
)
[ info ] [ LANG ] /www/wwwroot/test01.zwrjkf.com/dp_service/app/portal/lang/zh-cn/home.php
[ sql ] [ DB ] CONNECT:[ UseTime:0.000863s ] mysql:host=47.104.242.77;port=3306;dbname=dp2.0;charset=utf8mb4
[ sql ] [ SQL ] SHOW COLUMNS FROM `cmf_hook` [ RunTime:0.001232s ]
[ sql ] [ SQL ] SELECT `hook` FROM `cmf_hook` WHERE  `type` = 1 OR (  `type` = 3  AND ( `app` = '' or `app` = 'cmf' ) ) [ RunTime:0.000566s ]
[ sql ] [ EXPLAIN : array (
  'id' => 1,
  'select_type' => 'SIMPLE',
  'table' => 'cmf_hook',
  'type' => 'ALL',
  'possible_keys' => NULL,
  'key' => NULL,
  'key_len' => NULL,
  'ref' => NULL,
  'rows' => 30,
  'extra' => 'Using where',
) ]
[ sql ] [ SQL ] SHOW COLUMNS FROM `cmf_hook_plugin` [ RunTime:0.001064s ]
[ sql ] [ SQL ] SELECT `hook`,`plugin` FROM `cmf_hook_plugin` WHERE  `status` = 1  AND `hook` IN ('app_dispatch','before_content','log_write_done','switch_theme','switch_admin_theme','captcha_image') ORDER BY `list_order` ASC [ RunTime:0.000570s ]
[ sql ] [ EXPLAIN : array (
  'id' => 1,
  'select_type' => 'SIMPLE',
  'table' => 'cmf_hook_plugin',
  'type' => 'ALL',
  'possible_keys' => NULL,
  'key' => NULL,
  'key_len' => NULL,
  'ref' => NULL,
  'rows' => 1,
  'extra' => 'Using where; Using filesort',
) ]
[ sql ] [ SQL ] SELECT `hook` FROM `cmf_hook` WHERE  `type` = 1 OR (  `type` = 3  AND ( `app` = '' or `app` = 'cmf' ) ) [ RunTime:0.000576s ]
[ sql ] [ EXPLAIN : array (
  'id' => 1,
  'select_type' => 'SIMPLE',
  'table' => 'cmf_hook',
  'type' => 'ALL',
  'possible_keys' => NULL,
  'key' => NULL,
  'key_len' => NULL,
  'ref' => NULL,
  'rows' => 30,
  'extra' => 'Using where',
) ]
[ sql ] [ SQL ] SELECT `hook`,`plugin` FROM `cmf_hook_plugin` WHERE  `status` = 1  AND `hook` IN ('app_dispatch','before_content','log_write_done','switch_theme','switch_admin_theme','captcha_image') ORDER BY `list_order` ASC [ RunTime:0.000641s ]
[ sql ] [ EXPLAIN : array (
  'id' => 1,
  'select_type' => 'SIMPLE',
  'table' => 'cmf_hook_plugin',
  'type' => 'ALL',
  'possible_keys' => NULL,
  'key' => NULL,
  'key_len' => NULL,
  'ref' => NULL,
  'rows' => 1,
  'extra' => 'Using where; Using filesort',
) ]
[ sql ] [ SQL ] SHOW COLUMNS FROM `cmf_option` [ RunTime:0.001139s ]
[ sql ] [ SQL ] SELECT `option_value` FROM `cmf_option` WHERE  ( option_name='site_info' ) LIMIT 1 [ RunTime:0.000548s ]
[ sql ] [ EXPLAIN : array (
  'id' => 1,
  'select_type' => 'SIMPLE',
  'table' => 'cmf_option',
  'type' => 'const',
  'possible_keys' => 'option_name',
  'key' => 'option_name',
  'key_len' => '258',
  'ref' => 'const',
  'rows' => 1,
  'extra' => NULL,
) ]
[ sql ] [ SQL ] SHOW COLUMNS FROM `cmf_plugin` [ RunTime:0.001127s ]
[ sql ] [ SQL ] SELECT `config` FROM `cmf_plugin` WHERE  `name` = 'Qiniu' LIMIT 1 [ RunTime:0.000535s ]
[ sql ] [ EXPLAIN : array (
  'id' => 1,
  'select_type' => 'SIMPLE',
  'table' => 'cmf_plugin',
  'type' => 'ALL',
  'possible_keys' => NULL,
  'key' => NULL,
  'key_len' => NULL,
  'ref' => NULL,
  'rows' => 1,
  'extra' => 'Using where',
) ]
[ sql ] [ SQL ] SELECT `option_value` FROM `cmf_option` WHERE  ( option_name='configpri' ) LIMIT 1 [ RunTime:0.000525s ]
[ sql ] [ EXPLAIN : array (
  'id' => 1,
  'select_type' => 'SIMPLE',
  'table' => 'cmf_option',
  'type' => 'const',
  'possible_keys' => 'option_name',
  'key' => 'option_name',
  'key_len' => '258',
  'ref' => 'const',
  'rows' => 1,
  'extra' => NULL,
) ]
[ warn ] SQL:SELECT `hook`,`plugin` FROM `cmf_hook_plugin` WHERE  `status` = :ThinkBind_1_  AND `hook` IN (:ThinkBind_2_,:ThinkBind_3_,:ThinkBind_4_,:ThinkBind_5_,:ThinkBind_6_,:ThinkBind_7_) ORDER BY `list_order` ASC [Using where; Using filesort]
[ warn ] SQL:SELECT `hook`,`plugin` FROM `cmf_hook_plugin` WHERE  `status` = :ThinkBind_1_  AND `hook` IN (:ThinkBind_2_,:ThinkBind_3_,:ThinkBind_4_,:ThinkBind_5_,:ThinkBind_6_,:ThinkBind_7_) ORDER BY `list_order` ASC [Using where; Using filesort]
---------------------------------------------------------------

[2021-08-29T05:08:16+08:00] 47.102.115.133 GET test03.zwrjkf.cn/admin/index/index.html
[运行时间：0.042801s] [吞吐率：23.36req/s] [内存消耗：4,281.72kb] [文件加载：105]
[ info ] [ LANG ] /www/wwwroot/test01.zwrjkf.com/dp_service/vendor/thinkphp/lang/zh-cn.php
[ info ] [ DB ] INIT mysql
[ info ] [ LANG ] /www/wwwroot/test01.zwrjkf.com/dp_service/vendor/thinkcmf/cmf/src/behavior/../lang/zh-cn.php
[ info ] [ LANG ] /www/wwwroot/test01.zwrjkf.com/dp_service/app/admin/lang/zh-cn/common.php
[ info ] [ LANG ] /www/wwwroot/test01.zwrjkf.com/dp_service/app/portal/lang/zh-cn/common.php
[ info ] [ LANG ] /www/wwwroot/test01.zwrjkf.com/dp_service/app/admin//lang/zh-cn.php
[ info ] [ ROUTE ] array (
)
[ info ] [ HEADER ] array (
  'accept-encoding' => 'gzip',
  'connection' => 'Keep-Alive',
  'host' => 'test03.zwrjkf.cn',
  'user-agent' => 'Mozilla/5.0 (X11; Ubuntu; Linux x86_64; rv:36.0) Gecko/20100101 Firefox/36.0',
  'content-length' => '',
  'content-type' => '',
)
[ info ] [ PARAM ] array (
)
[ info ] [ LANG ] /www/wwwroot/test01.zwrjkf.com/dp_service/app/admin/lang/zh-cn/admin_menu.php
[ info ] [ LANG ] /www/wwwroot/test01.zwrjkf.com/dp_service/app/admin/lang/zh-cn/admin.php
[ info ] [ LANG ] /www/wwwroot/test01.zwrjkf.com/dp_service/app/user/lang/zh-cn/admin_menu.php
[ info ] [ LANG ] /www/wwwroot/test01.zwrjkf.com/dp_service/data/lang//admin_menu.php
[ sql ] [ DB ] CONNECT:[ UseTime:0.000771s ] mysql:host=47.104.242.77;port=3306;dbname=dp2.0;charset=utf8mb4
[ sql ] [ SQL ] SHOW COLUMNS FROM `cmf_hook` [ RunTime:0.001397s ]
[ sql ] [ SQL ] SELECT `hook` FROM `cmf_hook` WHERE  `type` = 1 OR (  `type` = 3  AND ( `app` = '' or `app` = 'cmf' ) ) [ RunTime:0.000808s ]
[ sql ] [ EXPLAIN : array (
  'id' => 1,
  'select_type' => 'SIMPLE',
  'table' => 'cmf_hook',
  'type' => 'ALL',
  'possible_keys' => NULL,
  'key' => NULL,
  'key_len' => NULL,
  'ref' => NULL,
  'rows' => 30,
  'extra' => 'Using where',
) ]
[ sql ] [ SQL ] SHOW COLUMNS FROM `cmf_hook_plugin` [ RunTime:0.001142s ]
[ sql ] [ SQL ] SELECT `hook`,`plugin` FROM `cmf_hook_plugin` WHERE  `status` = 1  AND `hook` IN ('app_dispatch','before_content','log_write_done','switch_theme','switch_admin_theme','captcha_image') ORDER BY `list_order` ASC [ RunTime:0.000536s ]
[ sql ] [ EXPLAIN : array (
  'id' => 1,
  'select_type' => 'SIMPLE',
  'table' => 'cmf_hook_plugin',
  'type' => 'ALL',
  'possible_keys' => NULL,
  'key' => NULL,
  'key_len' => NULL,
  'ref' => NULL,
  'rows' => 1,
  'extra' => 'Using where; Using filesort',
) ]
[ sql ] [ SQL ] SELECT `hook` FROM `cmf_hook` WHERE  `type` = 1 OR (  `type` = 3  AND ( `app` = '' or `app` = 'cmf' ) ) [ RunTime:0.000604s ]
[ sql ] [ EXPLAIN : array (
  'id' => 1,
  'select_type' => 'SIMPLE',
  'table' => 'cmf_hook',
  'type' => 'ALL',
  'possible_keys' => NULL,
  'key' => NULL,
  'key_len' => NULL,
  'ref' => NULL,
  'rows' => 30,
  'extra' => 'Using where',
) ]
[ sql ] [ SQL ] SELECT `hook`,`plugin` FROM `cmf_hook_plugin` WHERE  `status` = 1  AND `hook` IN ('app_dispatch','before_content','log_write_done','switch_theme','switch_admin_theme','captcha_image') ORDER BY `list_order` ASC [ RunTime:0.000547s ]
[ sql ] [ EXPLAIN : array (
  'id' => 1,
  'select_type' => 'SIMPLE',
  'table' => 'cmf_hook_plugin',
  'type' => 'ALL',
  'possible_keys' => NULL,
  'key' => NULL,
  'key_len' => NULL,
  'ref' => NULL,
  'rows' => 1,
  'extra' => 'Using where; Using filesort',
) ]
[ warn ] SQL:SELECT `hook`,`plugin` FROM `cmf_hook_plugin` WHERE  `status` = :ThinkBind_1_  AND `hook` IN (:ThinkBind_2_,:ThinkBind_3_,:ThinkBind_4_,:ThinkBind_5_,:ThinkBind_6_,:ThinkBind_7_) ORDER BY `list_order` ASC [Using where; Using filesort]
[ warn ] SQL:SELECT `hook`,`plugin` FROM `cmf_hook_plugin` WHERE  `status` = :ThinkBind_1_  AND `hook` IN (:ThinkBind_2_,:ThinkBind_3_,:ThinkBind_4_,:ThinkBind_5_,:ThinkBind_6_,:ThinkBind_7_) ORDER BY `list_order` ASC [Using where; Using filesort]
---------------------------------------------------------------

[2021-08-29T05:08:16+08:00] 47.102.115.133 GET test03.zwrjkf.cn/admin/public/login.html
[运行时间：0.039051s] [吞吐率：25.61req/s] [内存消耗：4,152.20kb] [文件加载：97]
[ info ] [ LANG ] /www/wwwroot/test01.zwrjkf.com/dp_service/vendor/thinkphp/lang/zh-cn.php
[ info ] [ DB ] INIT mysql
[ info ] [ LANG ] /www/wwwroot/test01.zwrjkf.com/dp_service/vendor/thinkcmf/cmf/src/behavior/../lang/zh-cn.php
[ info ] [ LANG ] /www/wwwroot/test01.zwrjkf.com/dp_service/app/admin/lang/zh-cn/common.php
[ info ] [ LANG ] /www/wwwroot/test01.zwrjkf.com/dp_service/app/portal/lang/zh-cn/common.php
[ info ] [ LANG ] /www/wwwroot/test01.zwrjkf.com/dp_service/app/admin//lang/zh-cn.php
[ info ] [ ROUTE ] array (
)
[ info ] [ HEADER ] array (
  'accept-encoding' => 'gzip',
  'connection' => 'Keep-Alive',
  'host' => 'test03.zwrjkf.cn',
  'user-agent' => 'Mozilla/5.0 (X11; Ubuntu; Linux x86_64; rv:36.0) Gecko/20100101 Firefox/36.0',
  'content-length' => '',
  'content-type' => '',
)
[ info ] [ PARAM ] array (
)
[ sql ] [ DB ] CONNECT:[ UseTime:0.000808s ] mysql:host=47.104.242.77;port=3306;dbname=dp2.0;charset=utf8mb4
[ sql ] [ SQL ] SHOW COLUMNS FROM `cmf_hook` [ RunTime:0.001279s ]
[ sql ] [ SQL ] SELECT `hook` FROM `cmf_hook` WHERE  `type` = 1 OR (  `type` = 3  AND ( `app` = '' or `app` = 'cmf' ) ) [ RunTime:0.000660s ]
[ sql ] [ EXPLAIN : array (
  'id' => 1,
  'select_type' => 'SIMPLE',
  'table' => 'cmf_hook',
  'type' => 'ALL',
  'possible_keys' => NULL,
  'key' => NULL,
  'key_len' => NULL,
  'ref' => NULL,
  'rows' => 30,
  'extra' => 'Using where',
) ]
[ sql ] [ SQL ] SHOW COLUMNS FROM `cmf_hook_plugin` [ RunTime:0.001853s ]
[ sql ] [ SQL ] SELECT `hook`,`plugin` FROM `cmf_hook_plugin` WHERE  `status` = 1  AND `hook` IN ('app_dispatch','before_content','log_write_done','switch_theme','switch_admin_theme','captcha_image') ORDER BY `list_order` ASC [ RunTime:0.000634s ]
[ sql ] [ EXPLAIN : array (
  'id' => 1,
  'select_type' => 'SIMPLE',
  'table' => 'cmf_hook_plugin',
  'type' => 'ALL',
  'possible_keys' => NULL,
  'key' => NULL,
  'key_len' => NULL,
  'ref' => NULL,
  'rows' => 1,
  'extra' => 'Using where; Using filesort',
) ]
[ sql ] [ SQL ] SELECT `hook` FROM `cmf_hook` WHERE  `type` = 1 OR (  `type` = 3  AND ( `app` = '' or `app` = 'cmf' ) ) [ RunTime:0.000615s ]
[ sql ] [ EXPLAIN : array (
  'id' => 1,
  'select_type' => 'SIMPLE',
  'table' => 'cmf_hook',
  'type' => 'ALL',
  'possible_keys' => NULL,
  'key' => NULL,
  'key_len' => NULL,
  'ref' => NULL,
  'rows' => 30,
  'extra' => 'Using where',
) ]
[ sql ] [ SQL ] SELECT `hook`,`plugin` FROM `cmf_hook_plugin` WHERE  `status` = 1  AND `hook` IN ('app_dispatch','before_content','log_write_done','switch_theme','switch_admin_theme','captcha_image') ORDER BY `list_order` ASC [ RunTime:0.000536s ]
[ sql ] [ EXPLAIN : array (
  'id' => 1,
  'select_type' => 'SIMPLE',
  'table' => 'cmf_hook_plugin',
  'type' => 'ALL',
  'possible_keys' => NULL,
  'key' => NULL,
  'key_len' => NULL,
  'ref' => NULL,
  'rows' => 1,
  'extra' => 'Using where; Using filesort',
) ]
[ warn ] SQL:SELECT `hook`,`plugin` FROM `cmf_hook_plugin` WHERE  `status` = :ThinkBind_1_  AND `hook` IN (:ThinkBind_2_,:ThinkBind_3_,:ThinkBind_4_,:ThinkBind_5_,:ThinkBind_6_,:ThinkBind_7_) ORDER BY `list_order` ASC [Using where; Using filesort]
[ warn ] SQL:SELECT `hook`,`plugin` FROM `cmf_hook_plugin` WHERE  `status` = :ThinkBind_1_  AND `hook` IN (:ThinkBind_2_,:ThinkBind_3_,:ThinkBind_4_,:ThinkBind_5_,:ThinkBind_6_,:ThinkBind_7_) ORDER BY `list_order` ASC [Using where; Using filesort]
---------------------------------------------------------------

[2021-08-29T05:08:17+08:00] 47.102.115.133 GET test03.zwrjkf.cn/
[运行时间：0.048926s] [吞吐率：20.44req/s] [内存消耗：4,474.42kb] [文件加载：112]
[ info ] [ LANG ] /www/wwwroot/test01.zwrjkf.com/dp_service/vendor/thinkphp/lang/zh-cn.php
[ info ] [ DB ] INIT mysql
[ info ] [ LANG ] /www/wwwroot/test01.zwrjkf.com/dp_service/vendor/thinkcmf/cmf/src/behavior/../lang/zh-cn.php
[ info ] [ LANG ] /www/wwwroot/test01.zwrjkf.com/dp_service/app/admin/lang/zh-cn/common.php
[ info ] [ LANG ] /www/wwwroot/test01.zwrjkf.com/dp_service/app/portal/lang/zh-cn/common.php
[ info ] [ LANG ] /www/wwwroot/test01.zwrjkf.com/dp_service/app/portal//lang/zh-cn.php
[ info ] [ ROUTE ] array (
)
[ info ] [ HEADER ] array (
  'accept-encoding' => 'gzip',
  'connection' => 'Keep-Alive',
  'host' => 'test03.zwrjkf.cn',
  'user-agent' => 'Mozilla/5.0 (X11; Ubuntu; Linux x86_64; rv:36.0) Gecko/20100101 Firefox/36.0',
  'content-length' => '',
  'content-type' => '',
)
[ info ] [ PARAM ] array (
)
[ info ] [ LANG ] /www/wwwroot/test01.zwrjkf.com/dp_service/app/portal/lang/zh-cn/home.php
[ sql ] [ DB ] CONNECT:[ UseTime:0.000849s ] mysql:host=47.104.242.77;port=3306;dbname=dp2.0;charset=utf8mb4
[ sql ] [ SQL ] SHOW COLUMNS FROM `cmf_hook` [ RunTime:0.001261s ]
[ sql ] [ SQL ] SELECT `hook` FROM `cmf_hook` WHERE  `type` = 1 OR (  `type` = 3  AND ( `app` = '' or `app` = 'cmf' ) ) [ RunTime:0.000694s ]
[ sql ] [ EXPLAIN : array (
  'id' => 1,
  'select_type' => 'SIMPLE',
  'table' => 'cmf_hook',
  'type' => 'ALL',
  'possible_keys' => NULL,
  'key' => NULL,
  'key_len' => NULL,
  'ref' => NULL,
  'rows' => 30,
  'extra' => 'Using where',
) ]
[ sql ] [ SQL ] SHOW COLUMNS FROM `cmf_hook_plugin` [ RunTime:0.001125s ]
[ sql ] [ SQL ] SELECT `hook`,`plugin` FROM `cmf_hook_plugin` WHERE  `status` = 1  AND `hook` IN ('app_dispatch','before_content','log_write_done','switch_theme','switch_admin_theme','captcha_image') ORDER BY `list_order` ASC [ RunTime:0.000610s ]
[ sql ] [ EXPLAIN : array (
  'id' => 1,
  'select_type' => 'SIMPLE',
  'table' => 'cmf_hook_plugin',
  'type' => 'ALL',
  'possible_keys' => NULL,
  'key' => NULL,
  'key_len' => NULL,
  'ref' => NULL,
  'rows' => 1,
  'extra' => 'Using where; Using filesort',
) ]
[ sql ] [ SQL ] SELECT `hook` FROM `cmf_hook` WHERE  `type` = 1 OR (  `type` = 3  AND ( `app` = '' or `app` = 'cmf' ) ) [ RunTime:0.000573s ]
[ sql ] [ EXPLAIN : array (
  'id' => 1,
  'select_type' => 'SIMPLE',
  'table' => 'cmf_hook',
  'type' => 'ALL',
  'possible_keys' => NULL,
  'key' => NULL,
  'key_len' => NULL,
  'ref' => NULL,
  'rows' => 30,
  'extra' => 'Using where',
) ]
[ sql ] [ SQL ] SELECT `hook`,`plugin` FROM `cmf_hook_plugin` WHERE  `status` = 1  AND `hook` IN ('app_dispatch','before_content','log_write_done','switch_theme','switch_admin_theme','captcha_image') ORDER BY `list_order` ASC [ RunTime:0.000563s ]
[ sql ] [ EXPLAIN : array (
  'id' => 1,
  'select_type' => 'SIMPLE',
  'table' => 'cmf_hook_plugin',
  'type' => 'ALL',
  'possible_keys' => NULL,
  'key' => NULL,
  'key_len' => NULL,
  'ref' => NULL,
  'rows' => 1,
  'extra' => 'Using where; Using filesort',
) ]
[ sql ] [ SQL ] SHOW COLUMNS FROM `cmf_option` [ RunTime:0.001059s ]
[ sql ] [ SQL ] SELECT `option_value` FROM `cmf_option` WHERE  ( option_name='site_info' ) LIMIT 1 [ RunTime:0.000545s ]
[ sql ] [ EXPLAIN : array (
  'id' => 1,
  'select_type' => 'SIMPLE',
  'table' => 'cmf_option',
  'type' => 'const',
  'possible_keys' => 'option_name',
  'key' => 'option_name',
  'key_len' => '258',
  'ref' => 'const',
  'rows' => 1,
  'extra' => NULL,
) ]
[ sql ] [ SQL ] SHOW COLUMNS FROM `cmf_plugin` [ RunTime:0.001366s ]
[ sql ] [ SQL ] SELECT `config` FROM `cmf_plugin` WHERE  `name` = 'Qiniu' LIMIT 1 [ RunTime:0.000572s ]
[ sql ] [ EXPLAIN : array (
  'id' => 1,
  'select_type' => 'SIMPLE',
  'table' => 'cmf_plugin',
  'type' => 'ALL',
  'possible_keys' => NULL,
  'key' => NULL,
  'key_len' => NULL,
  'ref' => NULL,
  'rows' => 1,
  'extra' => 'Using where',
) ]
[ sql ] [ SQL ] SELECT `option_value` FROM `cmf_option` WHERE  ( option_name='configpri' ) LIMIT 1 [ RunTime:0.000497s ]
[ sql ] [ EXPLAIN : array (
  'id' => 1,
  'select_type' => 'SIMPLE',
  'table' => 'cmf_option',
  'type' => 'const',
  'possible_keys' => 'option_name',
  'key' => 'option_name',
  'key_len' => '258',
  'ref' => 'const',
  'rows' => 1,
  'extra' => NULL,
) ]
[ warn ] SQL:SELECT `hook`,`plugin` FROM `cmf_hook_plugin` WHERE  `status` = :ThinkBind_1_  AND `hook` IN (:ThinkBind_2_,:ThinkBind_3_,:ThinkBind_4_,:ThinkBind_5_,:ThinkBind_6_,:ThinkBind_7_) ORDER BY `list_order` ASC [Using where; Using filesort]
[ warn ] SQL:SELECT `hook`,`plugin` FROM `cmf_hook_plugin` WHERE  `status` = :ThinkBind_1_  AND `hook` IN (:ThinkBind_2_,:ThinkBind_3_,:ThinkBind_4_,:ThinkBind_5_,:ThinkBind_6_,:ThinkBind_7_) ORDER BY `list_order` ASC [Using where; Using filesort]
---------------------------------------------------------------

[2021-08-29T05:08:17+08:00] 47.102.115.133 GET test03.zwrjkf.cn/admin/index/index.html
[运行时间：0.040193s] [吞吐率：24.88req/s] [内存消耗：4,281.72kb] [文件加载：105]
[ info ] [ LANG ] /www/wwwroot/test01.zwrjkf.com/dp_service/vendor/thinkphp/lang/zh-cn.php
[ info ] [ DB ] INIT mysql
[ info ] [ LANG ] /www/wwwroot/test01.zwrjkf.com/dp_service/vendor/thinkcmf/cmf/src/behavior/../lang/zh-cn.php
[ info ] [ LANG ] /www/wwwroot/test01.zwrjkf.com/dp_service/app/admin/lang/zh-cn/common.php
[ info ] [ LANG ] /www/wwwroot/test01.zwrjkf.com/dp_service/app/portal/lang/zh-cn/common.php
[ info ] [ LANG ] /www/wwwroot/test01.zwrjkf.com/dp_service/app/admin//lang/zh-cn.php
[ info ] [ ROUTE ] array (
)
[ info ] [ HEADER ] array (
  'accept-encoding' => 'gzip',
  'connection' => 'Keep-Alive',
  'host' => 'test03.zwrjkf.cn',
  'user-agent' => 'Mozilla/5.0 (X11; Ubuntu; Linux x86_64; rv:36.0) Gecko/20100101 Firefox/36.0',
  'content-length' => '',
  'content-type' => '',
)
[ info ] [ PARAM ] array (
)
[ info ] [ LANG ] /www/wwwroot/test01.zwrjkf.com/dp_service/app/admin/lang/zh-cn/admin_menu.php
[ info ] [ LANG ] /www/wwwroot/test01.zwrjkf.com/dp_service/app/admin/lang/zh-cn/admin.php
[ info ] [ LANG ] /www/wwwroot/test01.zwrjkf.com/dp_service/app/user/lang/zh-cn/admin_menu.php
[ info ] [ LANG ] /www/wwwroot/test01.zwrjkf.com/dp_service/data/lang//admin_menu.php
[ sql ] [ DB ] CONNECT:[ UseTime:0.000850s ] mysql:host=47.104.242.77;port=3306;dbname=dp2.0;charset=utf8mb4
[ sql ] [ SQL ] SHOW COLUMNS FROM `cmf_hook` [ RunTime:0.001227s ]
[ sql ] [ SQL ] SELECT `hook` FROM `cmf_hook` WHERE  `type` = 1 OR (  `type` = 3  AND ( `app` = '' or `app` = 'cmf' ) ) [ RunTime:0.000672s ]
[ sql ] [ EXPLAIN : array (
  'id' => 1,
  'select_type' => 'SIMPLE',
  'table' => 'cmf_hook',
  'type' => 'ALL',
  'possible_keys' => NULL,
  'key' => NULL,
  'key_len' => NULL,
  'ref' => NULL,
  'rows' => 30,
  'extra' => 'Using where',
) ]
[ sql ] [ SQL ] SHOW COLUMNS FROM `cmf_hook_plugin` [ RunTime:0.001090s ]
[ sql ] [ SQL ] SELECT `hook`,`plugin` FROM `cmf_hook_plugin` WHERE  `status` = 1  AND `hook` IN ('app_dispatch','before_content','log_write_done','switch_theme','switch_admin_theme','captcha_image') ORDER BY `list_order` ASC [ RunTime:0.000577s ]
[ sql ] [ EXPLAIN : array (
  'id' => 1,
  'select_type' => 'SIMPLE',
  'table' => 'cmf_hook_plugin',
  'type' => 'ALL',
  'possible_keys' => NULL,
  'key' => NULL,
  'key_len' => NULL,
  'ref' => NULL,
  'rows' => 1,
  'extra' => 'Using where; Using filesort',
) ]
[ sql ] [ SQL ] SELECT `hook` FROM `cmf_hook` WHERE  `type` = 1 OR (  `type` = 3  AND ( `app` = '' or `app` = 'cmf' ) ) [ RunTime:0.000643s ]
[ sql ] [ EXPLAIN : array (
  'id' => 1,
  'select_type' => 'SIMPLE',
  'table' => 'cmf_hook',
  'type' => 'ALL',
  'possible_keys' => NULL,
  'key' => NULL,
  'key_len' => NULL,
  'ref' => NULL,
  'rows' => 30,
  'extra' => 'Using where',
) ]
[ sql ] [ SQL ] SELECT `hook`,`plugin` FROM `cmf_hook_plugin` WHERE  `status` = 1  AND `hook` IN ('app_dispatch','before_content','log_write_done','switch_theme','switch_admin_theme','captcha_image') ORDER BY `list_order` ASC [ RunTime:0.000537s ]
[ sql ] [ EXPLAIN : array (
  'id' => 1,
  'select_type' => 'SIMPLE',
  'table' => 'cmf_hook_plugin',
  'type' => 'ALL',
  'possible_keys' => NULL,
  'key' => NULL,
  'key_len' => NULL,
  'ref' => NULL,
  'rows' => 1,
  'extra' => 'Using where; Using filesort',
) ]
[ warn ] SQL:SELECT `hook`,`plugin` FROM `cmf_hook_plugin` WHERE  `status` = :ThinkBind_1_  AND `hook` IN (:ThinkBind_2_,:ThinkBind_3_,:ThinkBind_4_,:ThinkBind_5_,:ThinkBind_6_,:ThinkBind_7_) ORDER BY `list_order` ASC [Using where; Using filesort]
[ warn ] SQL:SELECT `hook`,`plugin` FROM `cmf_hook_plugin` WHERE  `status` = :ThinkBind_1_  AND `hook` IN (:ThinkBind_2_,:ThinkBind_3_,:ThinkBind_4_,:ThinkBind_5_,:ThinkBind_6_,:ThinkBind_7_) ORDER BY `list_order` ASC [Using where; Using filesort]
---------------------------------------------------------------

[2021-08-29T05:08:17+08:00] 47.102.115.133 GET test03.zwrjkf.cn/admin/public/login.html
[运行时间：0.040110s] [吞吐率：24.93req/s] [内存消耗：4,152.20kb] [文件加载：97]
[ info ] [ LANG ] /www/wwwroot/test01.zwrjkf.com/dp_service/vendor/thinkphp/lang/zh-cn.php
[ info ] [ DB ] INIT mysql
[ info ] [ LANG ] /www/wwwroot/test01.zwrjkf.com/dp_service/vendor/thinkcmf/cmf/src/behavior/../lang/zh-cn.php
[ info ] [ LANG ] /www/wwwroot/test01.zwrjkf.com/dp_service/app/admin/lang/zh-cn/common.php
[ info ] [ LANG ] /www/wwwroot/test01.zwrjkf.com/dp_service/app/portal/lang/zh-cn/common.php
[ info ] [ LANG ] /www/wwwroot/test01.zwrjkf.com/dp_service/app/admin//lang/zh-cn.php
[ info ] [ ROUTE ] array (
)
[ info ] [ HEADER ] array (
  'accept-encoding' => 'gzip',
  'connection' => 'Keep-Alive',
  'host' => 'test03.zwrjkf.cn',
  'user-agent' => 'Mozilla/5.0 (X11; Ubuntu; Linux x86_64; rv:36.0) Gecko/20100101 Firefox/36.0',
  'content-length' => '',
  'content-type' => '',
)
[ info ] [ PARAM ] array (
)
[ sql ] [ DB ] CONNECT:[ UseTime:0.000864s ] mysql:host=47.104.242.77;port=3306;dbname=dp2.0;charset=utf8mb4
[ sql ] [ SQL ] SHOW COLUMNS FROM `cmf_hook` [ RunTime:0.001301s ]
[ sql ] [ SQL ] SELECT `hook` FROM `cmf_hook` WHERE  `type` = 1 OR (  `type` = 3  AND ( `app` = '' or `app` = 'cmf' ) ) [ RunTime:0.000715s ]
[ sql ] [ EXPLAIN : array (
  'id' => 1,
  'select_type' => 'SIMPLE',
  'table' => 'cmf_hook',
  'type' => 'ALL',
  'possible_keys' => NULL,
  'key' => NULL,
  'key_len' => NULL,
  'ref' => NULL,
  'rows' => 30,
  'extra' => 'Using where',
) ]
[ sql ] [ SQL ] SHOW COLUMNS FROM `cmf_hook_plugin` [ RunTime:0.001122s ]
[ sql ] [ SQL ] SELECT `hook`,`plugin` FROM `cmf_hook_plugin` WHERE  `status` = 1  AND `hook` IN ('app_dispatch','before_content','log_write_done','switch_theme','switch_admin_theme','captcha_image') ORDER BY `list_order` ASC [ RunTime:0.000602s ]
[ sql ] [ EXPLAIN : array (
  'id' => 1,
  'select_type' => 'SIMPLE',
  'table' => 'cmf_hook_plugin',
  'type' => 'ALL',
  'possible_keys' => NULL,
  'key' => NULL,
  'key_len' => NULL,
  'ref' => NULL,
  'rows' => 1,
  'extra' => 'Using where; Using filesort',
) ]
[ sql ] [ SQL ] SELECT `hook` FROM `cmf_hook` WHERE  `type` = 1 OR (  `type` = 3  AND ( `app` = '' or `app` = 'cmf' ) ) [ RunTime:0.000624s ]
[ sql ] [ EXPLAIN : array (
  'id' => 1,
  'select_type' => 'SIMPLE',
  'table' => 'cmf_hook',
  'type' => 'ALL',
  'possible_keys' => NULL,
  'key' => NULL,
  'key_len' => NULL,
  'ref' => NULL,
  'rows' => 30,
  'extra' => 'Using where',
) ]
[ sql ] [ SQL ] SELECT `hook`,`plugin` FROM `cmf_hook_plugin` WHERE  `status` = 1  AND `hook` IN ('app_dispatch','before_content','log_write_done','switch_theme','switch_admin_theme','captcha_image') ORDER BY `list_order` ASC [ RunTime:0.000552s ]
[ sql ] [ EXPLAIN : array (
  'id' => 1,
  'select_type' => 'SIMPLE',
  'table' => 'cmf_hook_plugin',
  'type' => 'ALL',
  'possible_keys' => NULL,
  'key' => NULL,
  'key_len' => NULL,
  'ref' => NULL,
  'rows' => 1,
  'extra' => 'Using where; Using filesort',
) ]
[ warn ] SQL:SELECT `hook`,`plugin` FROM `cmf_hook_plugin` WHERE  `status` = :ThinkBind_1_  AND `hook` IN (:ThinkBind_2_,:ThinkBind_3_,:ThinkBind_4_,:ThinkBind_5_,:ThinkBind_6_,:ThinkBind_7_) ORDER BY `list_order` ASC [Using where; Using filesort]
[ warn ] SQL:SELECT `hook`,`plugin` FROM `cmf_hook_plugin` WHERE  `status` = :ThinkBind_1_  AND `hook` IN (:ThinkBind_2_,:ThinkBind_3_,:ThinkBind_4_,:ThinkBind_5_,:ThinkBind_6_,:ThinkBind_7_) ORDER BY `list_order` ASC [Using where; Using filesort]
