2021-07-16 16:22:00|ERROR|Search.search|PDOException: Unknown column '哈' in 'where clause' in /www/wwwroot/test01.zwrjkf.com/dp_service/PhalApi/PhalApi/NotORM/NotORM/Result.php:273
Stack trace:
#0 /www/wwwroot/test01.zwrjkf.com/dp_service/PhalApi/PhalApi/NotORM/NotORM/Result.php(826): NotORM_Result->query('SELECT * FROM c...', Array)
#1 /www/wwwroot/test01.zwrjkf.com/dp_service/PhalApi/PhalApi/NotORM/NotORM/Result.php(911): NotORM_Result->execute()
#2 /www/wwwroot/test01.zwrjkf.com/dp_service/PhalApi/Appapi/Api/Search.php(57): NotORM_Result->fetchAll()
#3 /www/wwwroot/test01.zwrjkf.com/dp_service/PhalApi/PhalApi/PhalApi.php(57): Api_Search->search()
#4 /www/wwwroot/test01.zwrjkf.com/dp_service/public/appapi/index.php(27): PhalApi->response()
#5 {main}
2021-07-16 16:22:00|ERROR|Search.search|PDOException: Unknown column '哈' in 'where clause' in /www/wwwroot/test01.zwrjkf.com/dp_service/PhalApi/PhalApi/NotORM/NotORM/Result.php:273
Stack trace:
#0 /www/wwwroot/test01.zwrjkf.com/dp_service/PhalApi/PhalApi/NotORM/NotORM/Result.php(826): NotORM_Result->query('SELECT * FROM c...', Array)
#1 /www/wwwroot/test01.zwrjkf.com/dp_service/PhalApi/PhalApi/NotORM/NotORM/Result.php(911): NotORM_Result->execute()
#2 /www/wwwroot/test01.zwrjkf.com/dp_service/PhalApi/Appapi/Api/Search.php(57): NotORM_Result->fetchAll()
#3 /www/wwwroot/test01.zwrjkf.com/dp_service/PhalApi/PhalApi/PhalApi.php(57): Api_Search->search()
#4 /www/wwwroot/test01.zwrjkf.com/dp_service/public/appapi/index.php(27): PhalApi->response()
#5 {main}
2021-07-16 16:22:09|ERROR|Search.search|PDOException: Unknown column '哈' in 'where clause' in /www/wwwroot/test01.zwrjkf.com/dp_service/PhalApi/PhalApi/NotORM/NotORM/Result.php:273
Stack trace:
#0 /www/wwwroot/test01.zwrjkf.com/dp_service/PhalApi/PhalApi/NotORM/NotORM/Result.php(826): NotORM_Result->query('SELECT * FROM c...', Array)
#1 /www/wwwroot/test01.zwrjkf.com/dp_service/PhalApi/PhalApi/NotORM/NotORM/Result.php(911): NotORM_Result->execute()
#2 /www/wwwroot/test01.zwrjkf.com/dp_service/PhalApi/Appapi/Api/Search.php(57): NotORM_Result->fetchAll()
#3 /www/wwwroot/test01.zwrjkf.com/dp_service/PhalApi/PhalApi/PhalApi.php(57): Api_Search->search()
#4 /www/wwwroot/test01.zwrjkf.com/dp_service/public/appapi/index.php(27): PhalApi->response()
#5 {main}
2021-07-16 16:22:09|ERROR|Search.search|PDOException: Unknown column '哈' in 'where clause' in /www/wwwroot/test01.zwrjkf.com/dp_service/PhalApi/PhalApi/NotORM/NotORM/Result.php:273
Stack trace:
#0 /www/wwwroot/test01.zwrjkf.com/dp_service/PhalApi/PhalApi/NotORM/NotORM/Result.php(826): NotORM_Result->query('SELECT * FROM c...', Array)
#1 /www/wwwroot/test01.zwrjkf.com/dp_service/PhalApi/PhalApi/NotORM/NotORM/Result.php(911): NotORM_Result->execute()
#2 /www/wwwroot/test01.zwrjkf.com/dp_service/PhalApi/Appapi/Api/Search.php(57): NotORM_Result->fetchAll()
#3 /www/wwwroot/test01.zwrjkf.com/dp_service/PhalApi/PhalApi/PhalApi.php(57): Api_Search->search()
#4 /www/wwwroot/test01.zwrjkf.com/dp_service/public/appapi/index.php(27): PhalApi->response()
#5 {main}
2021-07-16 16:22:19|ERROR|Search.search|PDOException: Unknown column '这' in 'where clause' in /www/wwwroot/test01.zwrjkf.com/dp_service/PhalApi/PhalApi/NotORM/NotORM/Result.php:273
Stack trace:
#0 /www/wwwroot/test01.zwrjkf.com/dp_service/PhalApi/PhalApi/NotORM/NotORM/Result.php(826): NotORM_Result->query('SELECT * FROM c...', Array)
#1 /www/wwwroot/test01.zwrjkf.com/dp_service/PhalApi/PhalApi/NotORM/NotORM/Result.php(911): NotORM_Result->execute()
#2 /www/wwwroot/test01.zwrjkf.com/dp_service/PhalApi/Appapi/Api/Search.php(57): NotORM_Result->fetchAll()
#3 /www/wwwroot/test01.zwrjkf.com/dp_service/PhalApi/PhalApi/PhalApi.php(57): Api_Search->search()
#4 /www/wwwroot/test01.zwrjkf.com/dp_service/public/appapi/index.php(27): PhalApi->response()
#5 {main}
2021-07-16 16:22:19|ERROR|Search.search|PDOException: Unknown column '这' in 'where clause' in /www/wwwroot/test01.zwrjkf.com/dp_service/PhalApi/PhalApi/NotORM/NotORM/Result.php:273
Stack trace:
#0 /www/wwwroot/test01.zwrjkf.com/dp_service/PhalApi/PhalApi/NotORM/NotORM/Result.php(826): NotORM_Result->query('SELECT * FROM c...', Array)
#1 /www/wwwroot/test01.zwrjkf.com/dp_service/PhalApi/PhalApi/NotORM/NotORM/Result.php(911): NotORM_Result->execute()
#2 /www/wwwroot/test01.zwrjkf.com/dp_service/PhalApi/Appapi/Api/Search.php(57): NotORM_Result->fetchAll()
#3 /www/wwwroot/test01.zwrjkf.com/dp_service/PhalApi/PhalApi/PhalApi.php(57): Api_Search->search()
#4 /www/wwwroot/test01.zwrjkf.com/dp_service/public/appapi/index.php(27): PhalApi->response()
#5 {main}
2021-07-16 16:22:47|ERROR|Search.search|PDOException: Unknown column '手机用户0311' in 'where clause' in /www/wwwroot/test01.zwrjkf.com/dp_service/PhalApi/PhalApi/NotORM/NotORM/Result.php:273
Stack trace:
#0 /www/wwwroot/test01.zwrjkf.com/dp_service/PhalApi/PhalApi/NotORM/NotORM/Result.php(826): NotORM_Result->query('SELECT * FROM c...', Array)
#1 /www/wwwroot/test01.zwrjkf.com/dp_service/PhalApi/PhalApi/NotORM/NotORM/Result.php(911): NotORM_Result->execute()
#2 /www/wwwroot/test01.zwrjkf.com/dp_service/PhalApi/Appapi/Api/Search.php(57): NotORM_Result->fetchAll()
#3 /www/wwwroot/test01.zwrjkf.com/dp_service/PhalApi/PhalApi/PhalApi.php(57): Api_Search->search()
#4 /www/wwwroot/test01.zwrjkf.com/dp_service/public/appapi/index.php(27): PhalApi->response()
#5 {main}
2021-07-16 16:22:47|ERROR|Search.search|PDOException: Unknown column '手机用户0311' in 'where clause' in /www/wwwroot/test01.zwrjkf.com/dp_service/PhalApi/PhalApi/NotORM/NotORM/Result.php:273
Stack trace:
#0 /www/wwwroot/test01.zwrjkf.com/dp_service/PhalApi/PhalApi/NotORM/NotORM/Result.php(826): NotORM_Result->query('SELECT * FROM c...', Array)
#1 /www/wwwroot/test01.zwrjkf.com/dp_service/PhalApi/PhalApi/NotORM/NotORM/Result.php(911): NotORM_Result->execute()
#2 /www/wwwroot/test01.zwrjkf.com/dp_service/PhalApi/Appapi/Api/Search.php(57): NotORM_Result->fetchAll()
#3 /www/wwwroot/test01.zwrjkf.com/dp_service/PhalApi/PhalApi/PhalApi.php(57): Api_Search->search()
#4 /www/wwwroot/test01.zwrjkf.com/dp_service/public/appapi/index.php(27): PhalApi->response()
#5 {main}
