2020-12-31 10:18:00|DEBUG|succeed to upload file to qiniu|{"hash":"FtZ9mwc0oAZ44GAcQnI-Z5zceINY","key":"20201231101759_3d693848dadae0c349d8e713f6a16fbf"}
2020-12-31 10:18:04|DEBUG|succeed to upload file to qiniu|{"hash":"FvaO6IPt3z7lh1hceRjVomUFTsD7","key":"20201231101802_5e99aa3ea9846922c3e1aa7a2968850f"}
2020-12-31 10:18:10|DEBUG|succeed to upload file to qiniu|{"hash":"FkQfV2SEjWMkR5zjnbqOOB0PVyaJ","key":"20201231101807_cefd56f429c7178d4024225d12fcd802"}
2020-12-31 10:18:12|DEBUG|succeed to upload file to qiniu|{"hash":"FrSyoLMljd9djEuPcStkWWiADQz5","key":"20201231101812_8f50be9f1d0e506f6b6934f9168b99be"}
2020-12-31 10:18:16|DEBUG|succeed to upload file to qiniu|{"hash":"FtZ9mwc0oAZ44GAcQnI-Z5zceINY","key":"20201231101815_6296424732477a8b9aa8f6b8edbb1736"}
2020-12-31 10:35:37|DEBUG|succeed to upload file to qiniu|{"hash":"FrSyoLMljd9djEuPcStkWWiADQz5","key":"20201231103537_ed9857e38e7981344cd9767b733ae0da"}
2020-12-31 10:43:52|DEBUG|succeed to upload file to qiniu|{"hash":"FtZ9mwc0oAZ44GAcQnI-Z5zceINY","key":"20201231104351_2cafe9599be2696b362f980400b470d2"}
2020-12-31 10:43:53|DEBUG|succeed to upload file to qiniu|{"hash":"FrSyoLMljd9djEuPcStkWWiADQz5","key":"20201231104353_eeb5a01cc4aa91472e5ee0b5814d7e54"}
2020-12-31 11:17:48|ERROR|User.setRecomClass|exception 'PDOException' with message 'Duplicate entry '[1, 3, 6, 5]' for key '`recom`'' in /www/wwwroot/dp.zwrjkf.cn/PhalApi/PhalApi/NotORM/NotORM/Result.php:273
Stack trace:
#0 /www/wwwroot/dp.zwrjkf.cn/PhalApi/PhalApi/NotORM/NotORM/Result.php(354): NotORM_Result->query('INSERT INTO cmf...', Array)
#1 /www/wwwroot/dp.zwrjkf.cn/PhalApi/PhalApi/NotORM/NotORM/Result.php(371): NotORM_Result->insert_multi(Array)
#2 /www/wwwroot/dp.zwrjkf.cn/PhalApi/Appapi/Model/User.php(997): NotORM_Result->insert(Array)
#3 /www/wwwroot/dp.zwrjkf.cn/PhalApi/Appapi/Domain/User.php(282): Model_User->setRecomClass('40558', '[1, 3, 6, 5]')
#4 /www/wwwroot/dp.zwrjkf.cn/PhalApi/Appapi/Api/User.php(2364): Domain_User->setRecomClass('40558', '[1, 3, 6, 5]')
#5 [internal function]: Api_User->setRecomClass()
#6 /www/wwwroot/dp.zwrjkf.cn/PhalApi/PhalApi/PhalApi.php(57): call_user_func(Array)
#7 /www/wwwroot/dp.zwrjkf.cn/public/appapi/index.php(13): PhalApi->response()
#8 {main}
2020-12-31 11:18:12|ERROR|User.setRecomClass|exception 'PDOException' with message 'Duplicate entry '[1, 3, 6, 5]' for key '`recom`'' in /www/wwwroot/dp.zwrjkf.cn/PhalApi/PhalApi/NotORM/NotORM/Result.php:273
Stack trace:
#0 /www/wwwroot/dp.zwrjkf.cn/PhalApi/PhalApi/NotORM/NotORM/Result.php(354): NotORM_Result->query('INSERT INTO cmf...', Array)
#1 /www/wwwroot/dp.zwrjkf.cn/PhalApi/PhalApi/NotORM/NotORM/Result.php(371): NotORM_Result->insert_multi(Array)
#2 /www/wwwroot/dp.zwrjkf.cn/PhalApi/Appapi/Model/User.php(997): NotORM_Result->insert(Array)
#3 /www/wwwroot/dp.zwrjkf.cn/PhalApi/Appapi/Domain/User.php(282): Model_User->setRecomClass('40558', '[1, 3, 6, 5]')
#4 /www/wwwroot/dp.zwrjkf.cn/PhalApi/Appapi/Api/User.php(2364): Domain_User->setRecomClass('40558', '[1, 3, 6, 5]')
#5 [internal function]: Api_User->setRecomClass()
#6 /www/wwwroot/dp.zwrjkf.cn/PhalApi/PhalApi/PhalApi.php(57): call_user_func(Array)
#7 /www/wwwroot/dp.zwrjkf.cn/public/appapi/index.php(13): PhalApi->response()
#8 {main}
2020-12-31 11:18:29|ERROR|User.setRecomClass|exception 'PDOException' with message 'Duplicate entry '[1, 3, 6, 5]' for key '`recom`'' in /www/wwwroot/dp.zwrjkf.cn/PhalApi/PhalApi/NotORM/NotORM/Result.php:273
Stack trace:
#0 /www/wwwroot/dp.zwrjkf.cn/PhalApi/PhalApi/NotORM/NotORM/Result.php(425): NotORM_Result->query('UPDATE cmf_user...', Array)
#1 /www/wwwroot/dp.zwrjkf.cn/PhalApi/Appapi/Model/User.php(1002): NotORM_Result->update(Array)
#2 /www/wwwroot/dp.zwrjkf.cn/PhalApi/Appapi/Domain/User.php(282): Model_User->setRecomClass('40558', '[1, 3, 6, 5]')
#3 /www/wwwroot/dp.zwrjkf.cn/PhalApi/Appapi/Api/User.php(2364): Domain_User->setRecomClass('40558', '[1, 3, 6, 5]')
#4 [internal function]: Api_User->setRecomClass()
#5 /www/wwwroot/dp.zwrjkf.cn/PhalApi/PhalApi/PhalApi.php(57): call_user_func(Array)
#6 /www/wwwroot/dp.zwrjkf.cn/public/appapi/index.php(13): PhalApi->response()
#7 {main}
2020-12-31 11:20:06|ERROR|User.setRecomClass|exception 'PDOException' with message 'Duplicate entry '[1, 3, 6, 5]' for key '`recom`'' in /www/wwwroot/dp.zwrjkf.cn/PhalApi/PhalApi/NotORM/NotORM/Result.php:273
Stack trace:
#0 /www/wwwroot/dp.zwrjkf.cn/PhalApi/PhalApi/NotORM/NotORM/Result.php(425): NotORM_Result->query('UPDATE cmf_user...', Array)
#1 /www/wwwroot/dp.zwrjkf.cn/PhalApi/Appapi/Model/User.php(1002): NotORM_Result->update(Array)
#2 /www/wwwroot/dp.zwrjkf.cn/PhalApi/Appapi/Domain/User.php(282): Model_User->setRecomClass('40558', '[1, 3, 6, 5]')
#3 /www/wwwroot/dp.zwrjkf.cn/PhalApi/Appapi/Api/User.php(2364): Domain_User->setRecomClass('40558', '[1, 3, 6, 5]')
#4 [internal function]: Api_User->setRecomClass()
#5 /www/wwwroot/dp.zwrjkf.cn/PhalApi/PhalApi/PhalApi.php(57): call_user_func(Array)
#6 /www/wwwroot/dp.zwrjkf.cn/public/appapi/index.php(13): PhalApi->response()
#7 {main}
2020-12-31 13:59:03|ERROR|User.setRecomClass|exception 'PDOException' with message 'Duplicate entry '5, 1, 3, 6' for key '`recom`'' in /www/wwwroot/dp.zwrjkf.cn/PhalApi/PhalApi/NotORM/NotORM/Result.php:273
Stack trace:
#0 /www/wwwroot/dp.zwrjkf.cn/PhalApi/PhalApi/NotORM/NotORM/Result.php(354): NotORM_Result->query('INSERT INTO cmf...', Array)
#1 /www/wwwroot/dp.zwrjkf.cn/PhalApi/PhalApi/NotORM/NotORM/Result.php(371): NotORM_Result->insert_multi(Array)
#2 /www/wwwroot/dp.zwrjkf.cn/PhalApi/Appapi/Model/User.php(997): NotORM_Result->insert(Array)
#3 /www/wwwroot/dp.zwrjkf.cn/PhalApi/Appapi/Domain/User.php(282): Model_User->setRecomClass('40539', '5, 1, 3, 6')
#4 /www/wwwroot/dp.zwrjkf.cn/PhalApi/Appapi/Api/User.php(2364): Domain_User->setRecomClass('40539', '5, 1, 3, 6')
#5 [internal function]: Api_User->setRecomClass()
#6 /www/wwwroot/dp.zwrjkf.cn/PhalApi/PhalApi/PhalApi.php(57): call_user_func(Array)
#7 /www/wwwroot/dp.zwrjkf.cn/public/appapi/index.php(13): PhalApi->response()
#8 {main}
2020-12-31 14:01:34|DEBUG|succeed to upload file to qiniu|{"hash":"ls9iberhX7qjL1ujOwvC1QssYPs2","key":"20201231140127_593dd78317ca52d40e02c583312acac4"}
2020-12-31 14:01:38|ERROR|User.setRecomClass|exception 'PDOException' with message 'Duplicate entry '1, 3, 5, 6' for key '`recom`'' in /www/wwwroot/dp.zwrjkf.cn/PhalApi/PhalApi/NotORM/NotORM/Result.php:273
Stack trace:
#0 /www/wwwroot/dp.zwrjkf.cn/PhalApi/PhalApi/NotORM/NotORM/Result.php(354): NotORM_Result->query('INSERT INTO cmf...', Array)
#1 /www/wwwroot/dp.zwrjkf.cn/PhalApi/PhalApi/NotORM/NotORM/Result.php(371): NotORM_Result->insert_multi(Array)
#2 /www/wwwroot/dp.zwrjkf.cn/PhalApi/Appapi/Model/User.php(997): NotORM_Result->insert(Array)
#3 /www/wwwroot/dp.zwrjkf.cn/PhalApi/Appapi/Domain/User.php(282): Model_User->setRecomClass('40560', '1, 3, 5, 6')
#4 /www/wwwroot/dp.zwrjkf.cn/PhalApi/Appapi/Api/User.php(2364): Domain_User->setRecomClass('40560', '1, 3, 5, 6')
#5 [internal function]: Api_User->setRecomClass()
#6 /www/wwwroot/dp.zwrjkf.cn/PhalApi/PhalApi/PhalApi.php(57): call_user_func(Array)
#7 /www/wwwroot/dp.zwrjkf.cn/public/appapi/index.php(13): PhalApi->response()
#8 {main}
2020-12-31 14:01:41|DEBUG|succeed to upload file to qiniu|{"hash":"FjbaxeggkT7rAeFYX6hVpooOJSjM","key":"20201231140141_03e2dd22c30b776d123be2de23839968"}
2020-12-31 14:01:41|DEBUG|succeed to upload file to qiniu|{"hash":"FkQRfdCJ2ItL8VHxvNXfzzECsNuD","key":"20201231140141_2feabe40780b7287b184cccf78bf93fc"}
2020-12-31 14:06:44|DEBUG|succeed to upload file to qiniu|{"hash":"Ft4uPjxe1pTzSOA9HF5iMVtvdS2P","key":"20201231140643_3d51be4d82b4812085cdd4b584d7f59c"}
2020-12-31 14:13:18|DEBUG|succeed to upload file to qiniu|{"hash":"Ft4uPjxe1pTzSOA9HF5iMVtvdS2P","key":"20201231141318_26f66dcfa72597e4e76fe64daa580718"}
2020-12-31 14:14:43|DEBUG|succeed to upload file to qiniu|{"hash":"Ft4uPjxe1pTzSOA9HF5iMVtvdS2P","key":"20201231141443_51f03abf05b32c164ba8c807bd818dea"}
2020-12-31 14:15:00|DEBUG|succeed to upload file to qiniu|{"hash":"Ft4uPjxe1pTzSOA9HF5iMVtvdS2P","key":"20201231141459_3c06a53e6a4cf2eef29e93e07a79d375"}
2020-12-31 14:15:35|DEBUG|succeed to upload file to qiniu|{"hash":"FnQd5sBp4S3ux1g2s_h0Pc2H2tyq","key":"20201231141534_9b9aa674624b198f7ab84e7601b01ce7"}
2020-12-31 14:18:06|DEBUG|succeed to upload file to qiniu|{"hash":"Ft4uPjxe1pTzSOA9HF5iMVtvdS2P","key":"20201231141806_df6eed1a85fe33eeb5282815b1b4b878"}
2020-12-31 14:26:06|DEBUG|succeed to upload file to qiniu|{"hash":"Frk5C_w7H4D6Cko-5VM9ziiUTKGr","key":"20201231142605_1284c3aba4facf1eb6a7474372963d94"}
2020-12-31 14:27:39|DEBUG|succeed to upload file to qiniu|{"hash":"FnAEBJQKt8SMGiKo0gUXCfGvYIYJ","key":"20201231142739_9b0d45503a1345bf2955093349330812"}
2020-12-31 14:30:14|DEBUG|succeed to upload file to qiniu|{"hash":"FjbaxeggkT7rAeFYX6hVpooOJSjM","key":"20201231143014_12ad55ed9de4327feafbd33108d2cd46"}
2020-12-31 14:40:22|ERROR|publish.detailsNote|exception 'PDOException' with message 'You have an error in your SQL syntax; check the manual that corresponds to your MySQL server version for the right syntax to use near ')' at line 1' in /www/wwwroot/dp.zwrjkf.cn/PhalApi/PhalApi/NotORM/NotORM/Result.php:273
Stack trace:
#0 /www/wwwroot/dp.zwrjkf.cn/PhalApi/PhalApi/NotORM/NotORM/Result.php(826): NotORM_Result->query('SELECT * FROM c...', Array)
#1 /www/wwwroot/dp.zwrjkf.cn/PhalApi/PhalApi/NotORM/NotORM/Result.php(872): NotORM_Result->execute()
#2 /www/wwwroot/dp.zwrjkf.cn/PhalApi/Appapi/Model/InvitationVisit.php(17): NotORM_Result->fetch()
#3 /www/wwwroot/dp.zwrjkf.cn/PhalApi/Appapi/Domain/Invitationvisit.php(14): Model_InvitationVisit->addVisitLog(40553, Array)
#4 /www/wwwroot/dp.zwrjkf.cn/PhalApi/Appapi/Api/Publish.php(226): Domain_Invitationvisit->addVisitLog(40553, Array)
#5 [internal function]: Api_Publish->detailsNote()
#6 /www/wwwroot/dp.zwrjkf.cn/PhalApi/PhalApi/PhalApi.php(57): call_user_func(Array)
#7 /www/wwwroot/dp.zwrjkf.cn/public/appapi/index.php(13): PhalApi->response()
#8 {main}
2020-12-31 15:13:31|DEBUG|succeed to upload file to qiniu|{"hash":"FhqztIYKaHmWHjmcgcAyJw0IiPvb","key":"20201231151330_cee56a938b494aa423c6cd56c2bbee5a"}
2020-12-31 15:13:32|DEBUG|succeed to upload file to qiniu|{"hash":"FhqztIYKaHmWHjmcgcAyJw0IiPvb","key":"20201231151332_56768729862f7b8881d6d1975301a68f"}
2020-12-31 15:20:06|DEBUG|succeed to upload file to qiniu|{"hash":"FoG9bDyODrZFmXsZQKpIYohIaZOx","key":"20201231152002_38ed05bf8cc0a10a3cdf58a1cce3cb46"}
2020-12-31 15:27:14|DEBUG|succeed to upload file to qiniu|{"hash":"FpkkrfephH36uqd9O4gfRhPgovWm","key":"20201231152714_ad389ad694fd9309ed3f38212d78166a"}
2020-12-31 15:27:37|DEBUG|succeed to upload file to qiniu|{"hash":"FgXIqVBmmJbS3TgS0YcNOUzdVvt-","key":"20201231152733_393befa7c6a23531131e877f7b3647d5"}
2020-12-31 15:27:41|DEBUG|succeed to upload file to qiniu|{"hash":"FrAfzG52s0sU2kg_teq6BEvcFs5t","key":"20201231152737_29265adec0b2366c3eabc1f6d1309f26"}
2020-12-31 15:29:29|DEBUG|succeed to upload file to qiniu|{"hash":"FgXIqVBmmJbS3TgS0YcNOUzdVvt-","key":"20201231152925_5dd0b26aa1370649e1d2ea9182742050"}
2020-12-31 15:29:33|DEBUG|succeed to upload file to qiniu|{"hash":"FrAfzG52s0sU2kg_teq6BEvcFs5t","key":"20201231152929_79e6bfdedd14c31744cde59fb87128b6"}
2020-12-31 15:29:38|DEBUG|succeed to upload file to qiniu|{"hash":"FgXIqVBmmJbS3TgS0YcNOUzdVvt-","key":"20201231152934_93f0efd06215b9745d2a84e78eacb2d4"}
2020-12-31 15:50:10|DEBUG|succeed to upload file to qiniu|{"hash":"FvxWUFUBvAWmkVzUoL1PaRTBilBN","key":"20201231155008_6205438dca3680b8ca1afb796573b88f"}
2020-12-31 16:26:41|DEBUG|succeed to upload file to qiniu|{"hash":"Frk5C_w7H4D6Cko-5VM9ziiUTKGr","key":"20201231162640_f088951f51d5848a4bcf0f1d468f7174"}
2020-12-31 16:47:27|DEBUG|succeed to upload file to qiniu|{"hash":"FsH4flJWB5IxS51joqo1fDw3BWMI","key":"20201231164727_ee905c851b3398666cb70d5b8bf44782"}
2020-12-31 16:47:34|DEBUG|succeed to upload file to qiniu|{"hash":"FkQRfdCJ2ItL8VHxvNXfzzECsNuD","key":"20201231164734_2b7145d17c36e60d618e7c59a6b2f55c"}
2020-12-31 16:47:42|DEBUG|succeed to upload file to qiniu|{"hash":"FsH4flJWB5IxS51joqo1fDw3BWMI","key":"20201231164741_304caea15b47d056de253d233a63abde"}
2020-12-31 16:52:09|DEBUG|succeed to upload file to qiniu|{"hash":"Fp1kJX5XVC9z7lEMnGVi3145G4PW","key":"20201231165209_18c35ae67550418aad5dcf8b74a06f92"}
2020-12-31 17:11:49|DEBUG|succeed to upload file to qiniu|{"hash":"FtZ9mwc0oAZ44GAcQnI-Z5zceINY","key":"20201231171149_44c05cef18b65650c440652881c1a80e"}
2020-12-31 17:11:55|DEBUG|succeed to upload file to qiniu|{"hash":"FkQfV2SEjWMkR5zjnbqOOB0PVyaJ","key":"20201231171152_8a1b136b10410b145794045d10d9cd48"}
2020-12-31 17:11:58|DEBUG|succeed to upload file to qiniu|{"hash":"FvaO6IPt3z7lh1hceRjVomUFTsD7","key":"20201231171157_19134b2463a359bb15da22e489bd3fdf"}
2020-12-31 17:12:01|DEBUG|succeed to upload file to qiniu|{"hash":"FsSVzBh7FuAaEpwXbD2FiY0GXf24","key":"20201231171201_36182bccf0db9957c7a82729d076db62"}
2020-12-31 17:12:05|DEBUG|succeed to upload file to qiniu|{"hash":"FtZ9mwc0oAZ44GAcQnI-Z5zceINY","key":"20201231171204_8d6ab36a132241a511bbde74c2f76ed5"}
2020-12-31 17:31:50|DEBUG|succeed to upload file to qiniu|{"hash":"FuOifvoOeVdGHDRyoKLBnfcADDvv","key":"20201231173147_e4ad58372c582b998240d6fd551224e5"}
2020-12-31 17:31:51|DEBUG|succeed to upload file to qiniu|{"hash":"FhYFre_yTRH2P3xulNBdGQV4Nu9f","key":"20201231173147_04ae83fd1ac9db46a13be52ccbeaf028"}
2020-12-31 17:31:55|DEBUG|succeed to upload file to qiniu|{"hash":"FkDp8n1Jaz2OQlV4hqPWrwnULMj6","key":"20201231173147_14c590074c8e8efd7befead73e44e141"}
2020-12-31 17:31:56|DEBUG|succeed to upload file to qiniu|{"hash":"FuOifvoOeVdGHDRyoKLBnfcADDvv","key":"20201231173152_87e183911ef8a3e66ba9c57227251faf"}
2020-12-31 17:31:58|DEBUG|succeed to upload file to qiniu|{"hash":"FhYFre_yTRH2P3xulNBdGQV4Nu9f","key":"20201231173152_f1c7f03520276e26d9bc334a44797b14"}
2020-12-31 17:31:59|DEBUG|succeed to upload file to qiniu|{"hash":"FkDp8n1Jaz2OQlV4hqPWrwnULMj6","key":"20201231173152_4c90d106bfdf88b3d83096b3e37f1692"}
2020-12-31 17:39:42|ERROR|publish.detailsNote|exception 'PDOException' with message 'You have an error in your SQL syntax; check the manual that corresponds to your MySQL server version for the right syntax to use near ')' at line 1' in /www/wwwroot/dp.zwrjkf.cn/PhalApi/PhalApi/NotORM/NotORM/Result.php:273
Stack trace:
#0 /www/wwwroot/dp.zwrjkf.cn/PhalApi/PhalApi/NotORM/NotORM/Result.php(826): NotORM_Result->query('SELECT * FROM c...', Array)
#1 /www/wwwroot/dp.zwrjkf.cn/PhalApi/PhalApi/NotORM/NotORM/Result.php(872): NotORM_Result->execute()
#2 /www/wwwroot/dp.zwrjkf.cn/PhalApi/Appapi/Model/InvitationVisit.php(17): NotORM_Result->fetch()
#3 /www/wwwroot/dp.zwrjkf.cn/PhalApi/Appapi/Domain/Invitationvisit.php(14): Model_InvitationVisit->addVisitLog(40522, Array)
#4 /www/wwwroot/dp.zwrjkf.cn/PhalApi/Appapi/Api/Publish.php(226): Domain_Invitationvisit->addVisitLog(40522, Array)
#5 [internal function]: Api_Publish->detailsNote()
#6 /www/wwwroot/dp.zwrjkf.cn/PhalApi/PhalApi/PhalApi.php(57): call_user_func(Array)
#7 /www/wwwroot/dp.zwrjkf.cn/public/appapi/index.php(13): PhalApi->response()
#8 {main}
2020-12-31 17:40:12|DEBUG|succeed to upload file to qiniu|{"hash":"FmxX7RuxNirmy9g8bbzifE4bxCOK","key":"20201231174012_1acfc3bd99e0d56724b5430a0eae0ff6"}
2020-12-31 17:40:13|DEBUG|succeed to upload file to qiniu|{"hash":"FmxX7RuxNirmy9g8bbzifE4bxCOK","key":"20201231174013_158f6b81d9b3afa726f61d89cecfcd0c"}
2020-12-31 17:40:16|DEBUG|succeed to upload file to qiniu|{"hash":"FgNN-yn5v0FWgRNnAaz8oyxVHLbh","key":"20201231174016_d4183d574f0d2fc62d7244017a3e5e12"}
2020-12-31 17:41:54|DEBUG|succeed to upload file to qiniu|{"hash":"FuOifvoOeVdGHDRyoKLBnfcADDvv","key":"20201231174151_a45bbfee87ff4c18c9f73b42b1ab74d8"}
2020-12-31 17:41:55|DEBUG|succeed to upload file to qiniu|{"hash":"FuHwtBfSOfJ4cRDeor_xxB0k3zR8","key":"20201231174151_77a6f49b5bd6defa7ad5ffd3dda4ebda"}
2020-12-31 17:41:56|DEBUG|succeed to upload file to qiniu|{"hash":"FkDp8n1Jaz2OQlV4hqPWrwnULMj6","key":"20201231174151_d6f51618b72d91bf315879ae54a5d228"}
2020-12-31 17:42:59|DEBUG|succeed to upload file to qiniu|{"hash":"FuOifvoOeVdGHDRyoKLBnfcADDvv","key":"20201231174256_954e8f3ff5e92490d88371e60c7f2bea"}
2020-12-31 17:43:01|DEBUG|succeed to upload file to qiniu|{"hash":"FuHwtBfSOfJ4cRDeor_xxB0k3zR8","key":"20201231174256_d32860bba56c1708e40e04610b3eaa17"}
2020-12-31 17:43:02|DEBUG|succeed to upload file to qiniu|{"hash":"FkDp8n1Jaz2OQlV4hqPWrwnULMj6","key":"20201231174256_cd095f6f3ea99f8bf5f0cac1667fd641"}
2020-12-31 17:48:03|DEBUG|succeed to upload file to qiniu|{"hash":"FqNCtNQiEuq6fiQsr4M-PN62Z0xe","key":"20201231174803_1324ad6c401db951cfaea59d58456cd3"}
2020-12-31 17:48:03|DEBUG|succeed to upload file to qiniu|{"hash":"Frf6Lj-n6FMgoB-3KxpcrjzUdLFI","key":"20201231174803_589540aeb419f4c769d7c3e57fce58b8"}
2020-12-31 17:48:03|DEBUG|succeed to upload file to qiniu|{"hash":"FnikMMPj2eFeEx85u2pifq0Vcy0Q","key":"20201231174803_ea76a4a0877c1aa524e9f30af30d4360"}
2020-12-31 18:09:33|DEBUG|succeed to upload file to qiniu|{"hash":"FrQkUawZy-YiCE_u5Z-YIzoulI4B","key":"20201231180933_01b1f7f677324bf6c7b8aeccd6d13ce4"}
2020-12-31 18:09:35|DEBUG|succeed to upload file to qiniu|{"hash":"FrQkUawZy-YiCE_u5Z-YIzoulI4B","key":"20201231180935_31101fe869acd0048a863b3503acff15"}
2020-12-31 18:10:18|DEBUG|succeed to upload file to qiniu|{"hash":"FrQkUawZy-YiCE_u5Z-YIzoulI4B","key":"20201231181018_394322d2c784849c732c95e14c699a58"}
2020-12-31 18:10:19|DEBUG|succeed to upload file to qiniu|{"hash":"FrQkUawZy-YiCE_u5Z-YIzoulI4B","key":"20201231181019_4759f3f116d8ae31d1a5f870c9419e53"}
2020-12-31 18:10:22|DEBUG|succeed to upload file to qiniu|{"hash":"Fvxq1Ng3YxY9mzWLJeJABklb6jTL","key":"20201231181021_beab1e0d340d47d2f5ad0c53503ec62b"}
2020-12-31 18:10:25|DEBUG|succeed to upload file to qiniu|{"hash":"FjmsW2gNYjGZ6qC_tRSRHKeQYvaj","key":"20201231181024_82586b7ede2969ae6fe34ac32472e4f9"}
2020-12-31 18:10:55|DEBUG|succeed to upload file to qiniu|{"hash":"FoFvS7RJMkLlvMSiCfe5BtkicvLy","key":"20201231181055_b4832c452dc544480f6019df1a96e6fb"}
2020-12-31 18:10:56|DEBUG|succeed to upload file to qiniu|{"hash":"FoFvS7RJMkLlvMSiCfe5BtkicvLy","key":"20201231181056_a05e66d7cc4bc319b4bc824a9f988c78"}
2020-12-31 18:22:04|DEBUG|succeed to upload file to qiniu|{"hash":"FrSyoLMljd9djEuPcStkWWiADQz5","key":"20201231182204_74aaa763b965293900ae27f4b75b0c8a"}
2020-12-31 18:22:07|DEBUG|succeed to upload file to qiniu|{"hash":"FtZ9mwc0oAZ44GAcQnI-Z5zceINY","key":"20201231182206_c6d52d9b6be1601bcb2b63c1d0939610"}
2020-12-31 18:22:08|DEBUG|succeed to upload file to qiniu|{"hash":"FsSVzBh7FuAaEpwXbD2FiY0GXf24","key":"20201231182208_3961388c2d0d9b7641421b33193944f8"}
2020-12-31 18:23:50|DEBUG|succeed to upload file to qiniu|{"hash":"FrSyoLMljd9djEuPcStkWWiADQz5","key":"20201231182350_5fa8e25bee1993cf7c0a7005d8065bc6"}
2020-12-31 18:23:53|DEBUG|succeed to upload file to qiniu|{"hash":"FvaO6IPt3z7lh1hceRjVomUFTsD7","key":"20201231182352_375aa92a3ec30d90aa8d82fb4c439608"}
2020-12-31 18:24:25|DEBUG|succeed to upload file to qiniu|{"hash":"FtZ9mwc0oAZ44GAcQnI-Z5zceINY","key":"20201231182424_6b644f7d590ce7905cfed26603b001a0"}
2020-12-31 18:24:26|DEBUG|succeed to upload file to qiniu|{"hash":"FtZ9mwc0oAZ44GAcQnI-Z5zceINY","key":"20201231182426_5c4444191d2c1f5f3e4b97fdbf4a8063"}
2020-12-31 18:24:52|DEBUG|succeed to upload file to qiniu|{"hash":"FrSyoLMljd9djEuPcStkWWiADQz5","key":"20201231182452_59295e12d1826fa1ef95eac5f554db3b"}
2020-12-31 18:24:56|DEBUG|succeed to upload file to qiniu|{"hash":"FvaO6IPt3z7lh1hceRjVomUFTsD7","key":"20201231182455_2c6d4f28f64842d83bbcae56b957aaad"}
2020-12-31 18:25:12|DEBUG|succeed to upload file to qiniu|{"hash":"FrSyoLMljd9djEuPcStkWWiADQz5","key":"20201231182512_800281194837c1cd8696ef6b3a43a819"}
2020-12-31 18:25:14|DEBUG|succeed to upload file to qiniu|{"hash":"FtZ9mwc0oAZ44GAcQnI-Z5zceINY","key":"20201231182513_a49032878c74728ab8f218ce6648261b"}
2020-12-31 18:27:09|DEBUG|succeed to upload file to qiniu|{"hash":"FrSyoLMljd9djEuPcStkWWiADQz5","key":"20201231182709_6f0316f6e84b1056762a90f414406b64"}
2020-12-31 18:27:11|DEBUG|succeed to upload file to qiniu|{"hash":"FsSVzBh7FuAaEpwXbD2FiY0GXf24","key":"20201231182711_270bc1b369528d8a5602e8f290299c73"}
2020-12-31 18:27:14|DEBUG|succeed to upload file to qiniu|{"hash":"FtZ9mwc0oAZ44GAcQnI-Z5zceINY","key":"20201231182713_07333f00d20cea2f05c62105caee54a7"}
2020-12-31 18:30:11|DEBUG|succeed to upload file to qiniu|{"hash":"FsSVzBh7FuAaEpwXbD2FiY0GXf24","key":"20201231183011_16a7db0f6dc25f652f452437f8e63c61"}
2020-12-31 18:30:13|DEBUG|succeed to upload file to qiniu|{"hash":"FrSyoLMljd9djEuPcStkWWiADQz5","key":"20201231183013_d089fe35e995447d4b9145b25e5682c0"}
2020-12-31 18:30:17|DEBUG|succeed to upload file to qiniu|{"hash":"FvaO6IPt3z7lh1hceRjVomUFTsD7","key":"20201231183015_da8fdbf7dc30994b18b777c90850404a"}
2020-12-31 18:31:14|DEBUG|succeed to upload file to qiniu|{"hash":"FtZ9mwc0oAZ44GAcQnI-Z5zceINY","key":"20201231183113_a953450fc46bd1873d7e9740140dee2c"}
2020-12-31 18:31:15|DEBUG|succeed to upload file to qiniu|{"hash":"FrSyoLMljd9djEuPcStkWWiADQz5","key":"20201231183115_8f9235a3f7cde6ddfdde754e6f122720"}
2020-12-31 18:31:18|DEBUG|succeed to upload file to qiniu|{"hash":"FvaO6IPt3z7lh1hceRjVomUFTsD7","key":"20201231183117_41ccbf1aff6ab64ea4f8d80c8fe865ff"}
2020-12-31 18:31:55|DEBUG|succeed to upload file to qiniu|{"hash":"FtZ9mwc0oAZ44GAcQnI-Z5zceINY","key":"20201231183155_725c5436ff8ecc495d7f31cf6dcc945e"}
2020-12-31 18:31:56|DEBUG|succeed to upload file to qiniu|{"hash":"FrSyoLMljd9djEuPcStkWWiADQz5","key":"20201231183155_36839d976912205a36d8aa6208bf33d4"}
2020-12-31 18:31:58|DEBUG|succeed to upload file to qiniu|{"hash":"FvaO6IPt3z7lh1hceRjVomUFTsD7","key":"20201231183156_3705552a9dd0ad2b31fcdb7475446d17"}
2020-12-31 18:32:52|DEBUG|succeed to upload file to qiniu|{"hash":"FtZ9mwc0oAZ44GAcQnI-Z5zceINY","key":"20201231183251_f538fc1cc08df76a215aa2a55185cf84"}
2020-12-31 18:32:54|DEBUG|succeed to upload file to qiniu|{"hash":"FvaO6IPt3z7lh1hceRjVomUFTsD7","key":"20201231183253_3b6a3beba3ffbbee0f9bbfc534e8a1f1"}
2020-12-31 18:32:56|DEBUG|succeed to upload file to qiniu|{"hash":"FtZ9mwc0oAZ44GAcQnI-Z5zceINY","key":"20201231183255_e0a622d24f831a5d0b69b2837b8afbde"}
2020-12-31 18:33:23|DEBUG|succeed to upload file to qiniu|{"hash":"FpQOtdeUGnQfre-nAaDnx_MutYoB","key":"20201231183322_582c53c9e8bc5b3536526990c74fe645"}
2020-12-31 18:33:28|DEBUG|succeed to upload file to qiniu|{"hash":"Fs42X0SnkZQ30OY5852xSdYjHJ25","key":"20201231183327_fca564878e14af03b82b036dc41e071a"}
2020-12-31 18:33:29|DEBUG|succeed to upload file to qiniu|{"hash":"FsUw9W8Z8sT2ROIPlJTVQnysklLW","key":"20201231183329_12d10e819641ec69c369483d030402c1"}
2020-12-31 18:33:35|DEBUG|succeed to upload file to qiniu|{"hash":"FsUw9W8Z8sT2ROIPlJTVQnysklLW","key":"20201231183335_04b82e6a9f0aaf7c92107c411ee16731"}
2020-12-31 18:33:38|DEBUG|succeed to upload file to qiniu|{"hash":"FmxX7RuxNirmy9g8bbzifE4bxCOK","key":"20201231183338_88bff148ecc7aa1f56da9bad78341c8d"}
2020-12-31 18:33:43|DEBUG|succeed to upload file to qiniu|{"hash":"FsUw9W8Z8sT2ROIPlJTVQnysklLW","key":"20201231183343_c6831ad6380e21a61330af945466acb6"}
2020-12-31 18:33:48|DEBUG|succeed to upload file to qiniu|{"hash":"FsUw9W8Z8sT2ROIPlJTVQnysklLW","key":"20201231183348_6b9497774d3021a6e67597d063a3cd9e"}
2020-12-31 18:33:50|DEBUG|succeed to upload file to qiniu|{"hash":"FsUw9W8Z8sT2ROIPlJTVQnysklLW","key":"20201231183349_ed8cfa212adb273291fcff7ca38a680d"}
2020-12-31 18:34:37|DEBUG|succeed to upload file to qiniu|{"hash":"Fo62ue2IvWgUmFpV6bS4MtPX8eKE","key":"20201231183436_aef6b464a94aa4ee1736566d7cc947d3"}
2020-12-31 18:34:39|DEBUG|succeed to upload file to qiniu|{"hash":"Fs-w0ckv60u_voq8oO4tCb-i2ph3","key":"20201231183436_50a022caf3ec4d71d7a5b9ac76ea3fee"}
2020-12-31 18:36:54|DEBUG|succeed to upload file to qiniu|{"hash":"FrSyoLMljd9djEuPcStkWWiADQz5","key":"20201231183654_a04cc27b7046805ca034cbe875118cce"}
2020-12-31 18:36:56|DEBUG|succeed to upload file to qiniu|{"hash":"FtZ9mwc0oAZ44GAcQnI-Z5zceINY","key":"20201231183655_e7e050500e7af60ccfbc9c25a3e1d092"}
2020-12-31 18:36:59|DEBUG|succeed to upload file to qiniu|{"hash":"FvaO6IPt3z7lh1hceRjVomUFTsD7","key":"20201231183658_685907373a1e9b603f548ed5a2696f3a"}
2020-12-31 18:46:11|DEBUG|succeed to upload file to qiniu|{"hash":"FsSVzBh7FuAaEpwXbD2FiY0GXf24","key":"20201231184611_180b3dc381709d01680117246e268ef4"}
2020-12-31 18:46:13|DEBUG|succeed to upload file to qiniu|{"hash":"FrSyoLMljd9djEuPcStkWWiADQz5","key":"20201231184613_e7138e1dcbf9a6c2e7604c4253725bab"}
2020-12-31 18:46:16|DEBUG|succeed to upload file to qiniu|{"hash":"FvaO6IPt3z7lh1hceRjVomUFTsD7","key":"20201231184615_d59dc3a837f410a65ecbf472d0972263"}
2020-12-31 18:48:23|DEBUG|succeed to upload file to qiniu|{"hash":"Fo62ue2IvWgUmFpV6bS4MtPX8eKE","key":"20201231184821_71bcb67bd4dfc1bed6b4a76d36eda70b"}
2020-12-31 18:48:24|DEBUG|succeed to upload file to qiniu|{"hash":"Fs-w0ckv60u_voq8oO4tCb-i2ph3","key":"20201231184821_f7acf7b861317c2019fcdd8a247c117c"}
2020-12-31 19:01:32|ERROR|publish.detailsNote|exception 'PDOException' with message 'You have an error in your SQL syntax; check the manual that corresponds to your MySQL server version for the right syntax to use near ')' at line 1' in /www/wwwroot/dp.zwrjkf.cn/PhalApi/PhalApi/NotORM/NotORM/Result.php:273
Stack trace:
#0 /www/wwwroot/dp.zwrjkf.cn/PhalApi/PhalApi/NotORM/NotORM/Result.php(826): NotORM_Result->query('SELECT * FROM c...', Array)
#1 /www/wwwroot/dp.zwrjkf.cn/PhalApi/PhalApi/NotORM/NotORM/Result.php(872): NotORM_Result->execute()
#2 /www/wwwroot/dp.zwrjkf.cn/PhalApi/Appapi/Model/InvitationVisit.php(17): NotORM_Result->fetch()
#3 /www/wwwroot/dp.zwrjkf.cn/PhalApi/Appapi/Domain/Invitationvisit.php(14): Model_InvitationVisit->addVisitLog(40539, Array)
#4 /www/wwwroot/dp.zwrjkf.cn/PhalApi/Appapi/Api/Publish.php(226): Domain_Invitationvisit->addVisitLog(40539, Array)
#5 [internal function]: Api_Publish->detailsNote()
#6 /www/wwwroot/dp.zwrjkf.cn/PhalApi/PhalApi/PhalApi.php(57): call_user_func(Array)
#7 /www/wwwroot/dp.zwrjkf.cn/public/appapi/index.php(13): PhalApi->response()
#8 {main}
2020-12-31 19:01:42|ERROR|publish.detailsNote|exception 'PDOException' with message 'You have an error in your SQL syntax; check the manual that corresponds to your MySQL server version for the right syntax to use near ')' at line 1' in /www/wwwroot/dp.zwrjkf.cn/PhalApi/PhalApi/NotORM/NotORM/Result.php:273
Stack trace:
#0 /www/wwwroot/dp.zwrjkf.cn/PhalApi/PhalApi/NotORM/NotORM/Result.php(826): NotORM_Result->query('SELECT * FROM c...', Array)
#1 /www/wwwroot/dp.zwrjkf.cn/PhalApi/PhalApi/NotORM/NotORM/Result.php(872): NotORM_Result->execute()
#2 /www/wwwroot/dp.zwrjkf.cn/PhalApi/Appapi/Model/InvitationVisit.php(17): NotORM_Result->fetch()
#3 /www/wwwroot/dp.zwrjkf.cn/PhalApi/Appapi/Domain/Invitationvisit.php(14): Model_InvitationVisit->addVisitLog(40539, Array)
#4 /www/wwwroot/dp.zwrjkf.cn/PhalApi/Appapi/Api/Publish.php(226): Domain_Invitationvisit->addVisitLog(40539, Array)
#5 [internal function]: Api_Publish->detailsNote()
#6 /www/wwwroot/dp.zwrjkf.cn/PhalApi/PhalApi/PhalApi.php(57): call_user_func(Array)
#7 /www/wwwroot/dp.zwrjkf.cn/public/appapi/index.php(13): PhalApi->response()
#8 {main}
2020-12-31 19:02:55|ERROR|publish.detailsNote|exception 'PDOException' with message 'You have an error in your SQL syntax; check the manual that corresponds to your MySQL server version for the right syntax to use near ')' at line 1' in /www/wwwroot/dp.zwrjkf.cn/PhalApi/PhalApi/NotORM/NotORM/Result.php:273
Stack trace:
#0 /www/wwwroot/dp.zwrjkf.cn/PhalApi/PhalApi/NotORM/NotORM/Result.php(826): NotORM_Result->query('SELECT * FROM c...', Array)
#1 /www/wwwroot/dp.zwrjkf.cn/PhalApi/PhalApi/NotORM/NotORM/Result.php(872): NotORM_Result->execute()
#2 /www/wwwroot/dp.zwrjkf.cn/PhalApi/Appapi/Model/InvitationVisit.php(17): NotORM_Result->fetch()
#3 /www/wwwroot/dp.zwrjkf.cn/PhalApi/Appapi/Domain/Invitationvisit.php(14): Model_InvitationVisit->addVisitLog(40539, Array)
#4 /www/wwwroot/dp.zwrjkf.cn/PhalApi/Appapi/Api/Publish.php(226): Domain_Invitationvisit->addVisitLog(40539, Array)
#5 [internal function]: Api_Publish->detailsNote()
#6 /www/wwwroot/dp.zwrjkf.cn/PhalApi/PhalApi/PhalApi.php(57): call_user_func(Array)
#7 /www/wwwroot/dp.zwrjkf.cn/public/appapi/index.php(13): PhalApi->response()
#8 {main}
2020-12-31 19:03:01|ERROR|publish.detailsNote|exception 'PDOException' with message 'You have an error in your SQL syntax; check the manual that corresponds to your MySQL server version for the right syntax to use near ')' at line 1' in /www/wwwroot/dp.zwrjkf.cn/PhalApi/PhalApi/NotORM/NotORM/Result.php:273
Stack trace:
#0 /www/wwwroot/dp.zwrjkf.cn/PhalApi/PhalApi/NotORM/NotORM/Result.php(826): NotORM_Result->query('SELECT * FROM c...', Array)
#1 /www/wwwroot/dp.zwrjkf.cn/PhalApi/PhalApi/NotORM/NotORM/Result.php(872): NotORM_Result->execute()
#2 /www/wwwroot/dp.zwrjkf.cn/PhalApi/Appapi/Model/InvitationVisit.php(17): NotORM_Result->fetch()
#3 /www/wwwroot/dp.zwrjkf.cn/PhalApi/Appapi/Domain/Invitationvisit.php(14): Model_InvitationVisit->addVisitLog(40539, Array)
#4 /www/wwwroot/dp.zwrjkf.cn/PhalApi/Appapi/Api/Publish.php(226): Domain_Invitationvisit->addVisitLog(40539, Array)
#5 [internal function]: Api_Publish->detailsNote()
#6 /www/wwwroot/dp.zwrjkf.cn/PhalApi/PhalApi/PhalApi.php(57): call_user_func(Array)
#7 /www/wwwroot/dp.zwrjkf.cn/public/appapi/index.php(13): PhalApi->response()
#8 {main}
2020-12-31 19:03:02|ERROR|publish.detailsNote|exception 'PDOException' with message 'You have an error in your SQL syntax; check the manual that corresponds to your MySQL server version for the right syntax to use near ')' at line 1' in /www/wwwroot/dp.zwrjkf.cn/PhalApi/PhalApi/NotORM/NotORM/Result.php:273
Stack trace:
#0 /www/wwwroot/dp.zwrjkf.cn/PhalApi/PhalApi/NotORM/NotORM/Result.php(826): NotORM_Result->query('SELECT * FROM c...', Array)
#1 /www/wwwroot/dp.zwrjkf.cn/PhalApi/PhalApi/NotORM/NotORM/Result.php(872): NotORM_Result->execute()
#2 /www/wwwroot/dp.zwrjkf.cn/PhalApi/Appapi/Model/InvitationVisit.php(17): NotORM_Result->fetch()
#3 /www/wwwroot/dp.zwrjkf.cn/PhalApi/Appapi/Domain/Invitationvisit.php(14): Model_InvitationVisit->addVisitLog(40539, Array)
#4 /www/wwwroot/dp.zwrjkf.cn/PhalApi/Appapi/Api/Publish.php(226): Domain_Invitationvisit->addVisitLog(40539, Array)
#5 [internal function]: Api_Publish->detailsNote()
#6 /www/wwwroot/dp.zwrjkf.cn/PhalApi/PhalApi/PhalApi.php(57): call_user_func(Array)
#7 /www/wwwroot/dp.zwrjkf.cn/public/appapi/index.php(13): PhalApi->response()
#8 {main}
2020-12-31 19:03:04|ERROR|publish.detailsNote|exception 'PDOException' with message 'You have an error in your SQL syntax; check the manual that corresponds to your MySQL server version for the right syntax to use near ')' at line 1' in /www/wwwroot/dp.zwrjkf.cn/PhalApi/PhalApi/NotORM/NotORM/Result.php:273
Stack trace:
#0 /www/wwwroot/dp.zwrjkf.cn/PhalApi/PhalApi/NotORM/NotORM/Result.php(826): NotORM_Result->query('SELECT * FROM c...', Array)
#1 /www/wwwroot/dp.zwrjkf.cn/PhalApi/PhalApi/NotORM/NotORM/Result.php(872): NotORM_Result->execute()
#2 /www/wwwroot/dp.zwrjkf.cn/PhalApi/Appapi/Model/InvitationVisit.php(17): NotORM_Result->fetch()
#3 /www/wwwroot/dp.zwrjkf.cn/PhalApi/Appapi/Domain/Invitationvisit.php(14): Model_InvitationVisit->addVisitLog(40539, Array)
#4 /www/wwwroot/dp.zwrjkf.cn/PhalApi/Appapi/Api/Publish.php(226): Domain_Invitationvisit->addVisitLog(40539, Array)
#5 [internal function]: Api_Publish->detailsNote()
#6 /www/wwwroot/dp.zwrjkf.cn/PhalApi/PhalApi/PhalApi.php(57): call_user_func(Array)
#7 /www/wwwroot/dp.zwrjkf.cn/public/appapi/index.php(13): PhalApi->response()
#8 {main}
2020-12-31 19:03:10|ERROR|publish.detailsNote|exception 'PDOException' with message 'You have an error in your SQL syntax; check the manual that corresponds to your MySQL server version for the right syntax to use near ')' at line 1' in /www/wwwroot/dp.zwrjkf.cn/PhalApi/PhalApi/NotORM/NotORM/Result.php:273
Stack trace:
#0 /www/wwwroot/dp.zwrjkf.cn/PhalApi/PhalApi/NotORM/NotORM/Result.php(826): NotORM_Result->query('SELECT * FROM c...', Array)
#1 /www/wwwroot/dp.zwrjkf.cn/PhalApi/PhalApi/NotORM/NotORM/Result.php(872): NotORM_Result->execute()
#2 /www/wwwroot/dp.zwrjkf.cn/PhalApi/Appapi/Model/InvitationVisit.php(17): NotORM_Result->fetch()
#3 /www/wwwroot/dp.zwrjkf.cn/PhalApi/Appapi/Domain/Invitationvisit.php(14): Model_InvitationVisit->addVisitLog(40539, Array)
#4 /www/wwwroot/dp.zwrjkf.cn/PhalApi/Appapi/Api/Publish.php(226): Domain_Invitationvisit->addVisitLog(40539, Array)
#5 [internal function]: Api_Publish->detailsNote()
#6 /www/wwwroot/dp.zwrjkf.cn/PhalApi/PhalApi/PhalApi.php(57): call_user_func(Array)
#7 /www/wwwroot/dp.zwrjkf.cn/public/appapi/index.php(13): PhalApi->response()
#8 {main}
2020-12-31 19:03:42|ERROR|publish.detailsNote|exception 'PDOException' with message 'You have an error in your SQL syntax; check the manual that corresponds to your MySQL server version for the right syntax to use near ')' at line 1' in /www/wwwroot/dp.zwrjkf.cn/PhalApi/PhalApi/NotORM/NotORM/Result.php:273
Stack trace:
#0 /www/wwwroot/dp.zwrjkf.cn/PhalApi/PhalApi/NotORM/NotORM/Result.php(826): NotORM_Result->query('SELECT * FROM c...', Array)
#1 /www/wwwroot/dp.zwrjkf.cn/PhalApi/PhalApi/NotORM/NotORM/Result.php(872): NotORM_Result->execute()
#2 /www/wwwroot/dp.zwrjkf.cn/PhalApi/Appapi/Model/InvitationVisit.php(17): NotORM_Result->fetch()
#3 /www/wwwroot/dp.zwrjkf.cn/PhalApi/Appapi/Domain/Invitationvisit.php(14): Model_InvitationVisit->addVisitLog(40539, Array)
#4 /www/wwwroot/dp.zwrjkf.cn/PhalApi/Appapi/Api/Publish.php(226): Domain_Invitationvisit->addVisitLog(40539, Array)
#5 [internal function]: Api_Publish->detailsNote()
#6 /www/wwwroot/dp.zwrjkf.cn/PhalApi/PhalApi/PhalApi.php(57): call_user_func(Array)
#7 /www/wwwroot/dp.zwrjkf.cn/public/appapi/index.php(13): PhalApi->response()
#8 {main}
2020-12-31 19:03:45|ERROR|publish.detailsNote|exception 'PDOException' with message 'You have an error in your SQL syntax; check the manual that corresponds to your MySQL server version for the right syntax to use near ')' at line 1' in /www/wwwroot/dp.zwrjkf.cn/PhalApi/PhalApi/NotORM/NotORM/Result.php:273
Stack trace:
#0 /www/wwwroot/dp.zwrjkf.cn/PhalApi/PhalApi/NotORM/NotORM/Result.php(826): NotORM_Result->query('SELECT * FROM c...', Array)
#1 /www/wwwroot/dp.zwrjkf.cn/PhalApi/PhalApi/NotORM/NotORM/Result.php(872): NotORM_Result->execute()
#2 /www/wwwroot/dp.zwrjkf.cn/PhalApi/Appapi/Model/InvitationVisit.php(17): NotORM_Result->fetch()
#3 /www/wwwroot/dp.zwrjkf.cn/PhalApi/Appapi/Domain/Invitationvisit.php(14): Model_InvitationVisit->addVisitLog(40539, Array)
#4 /www/wwwroot/dp.zwrjkf.cn/PhalApi/Appapi/Api/Publish.php(226): Domain_Invitationvisit->addVisitLog(40539, Array)
#5 [internal function]: Api_Publish->detailsNote()
#6 /www/wwwroot/dp.zwrjkf.cn/PhalApi/PhalApi/PhalApi.php(57): call_user_func(Array)
#7 /www/wwwroot/dp.zwrjkf.cn/public/appapi/index.php(13): PhalApi->response()
#8 {main}
2020-12-31 19:07:46|ERROR|publish.detailsNote|exception 'PDOException' with message 'You have an error in your SQL syntax; check the manual that corresponds to your MySQL server version for the right syntax to use near ')' at line 1' in /www/wwwroot/dp.zwrjkf.cn/PhalApi/PhalApi/NotORM/NotORM/Result.php:273
Stack trace:
#0 /www/wwwroot/dp.zwrjkf.cn/PhalApi/PhalApi/NotORM/NotORM/Result.php(826): NotORM_Result->query('SELECT * FROM c...', Array)
#1 /www/wwwroot/dp.zwrjkf.cn/PhalApi/PhalApi/NotORM/NotORM/Result.php(872): NotORM_Result->execute()
#2 /www/wwwroot/dp.zwrjkf.cn/PhalApi/Appapi/Model/InvitationVisit.php(17): NotORM_Result->fetch()
#3 /www/wwwroot/dp.zwrjkf.cn/PhalApi/Appapi/Domain/Invitationvisit.php(14): Model_InvitationVisit->addVisitLog(40539, Array)
#4 /www/wwwroot/dp.zwrjkf.cn/PhalApi/Appapi/Api/Publish.php(226): Domain_Invitationvisit->addVisitLog(40539, Array)
#5 [internal function]: Api_Publish->detailsNote()
#6 /www/wwwroot/dp.zwrjkf.cn/PhalApi/PhalApi/PhalApi.php(57): call_user_func(Array)
#7 /www/wwwroot/dp.zwrjkf.cn/public/appapi/index.php(13): PhalApi->response()
#8 {main}
2020-12-31 19:08:11|ERROR|publish.detailsNote|exception 'PDOException' with message 'You have an error in your SQL syntax; check the manual that corresponds to your MySQL server version for the right syntax to use near ')' at line 1' in /www/wwwroot/dp.zwrjkf.cn/PhalApi/PhalApi/NotORM/NotORM/Result.php:273
Stack trace:
#0 /www/wwwroot/dp.zwrjkf.cn/PhalApi/PhalApi/NotORM/NotORM/Result.php(826): NotORM_Result->query('SELECT * FROM c...', Array)
#1 /www/wwwroot/dp.zwrjkf.cn/PhalApi/PhalApi/NotORM/NotORM/Result.php(872): NotORM_Result->execute()
#2 /www/wwwroot/dp.zwrjkf.cn/PhalApi/Appapi/Model/InvitationVisit.php(17): NotORM_Result->fetch()
#3 /www/wwwroot/dp.zwrjkf.cn/PhalApi/Appapi/Domain/Invitationvisit.php(14): Model_InvitationVisit->addVisitLog(40539, Array)
#4 /www/wwwroot/dp.zwrjkf.cn/PhalApi/Appapi/Api/Publish.php(226): Domain_Invitationvisit->addVisitLog(40539, Array)
#5 [internal function]: Api_Publish->detailsNote()
#6 /www/wwwroot/dp.zwrjkf.cn/PhalApi/PhalApi/PhalApi.php(57): call_user_func(Array)
#7 /www/wwwroot/dp.zwrjkf.cn/public/appapi/index.php(13): PhalApi->response()
#8 {main}
2020-12-31 19:08:12|ERROR|publish.detailsNote|exception 'PDOException' with message 'You have an error in your SQL syntax; check the manual that corresponds to your MySQL server version for the right syntax to use near ')' at line 1' in /www/wwwroot/dp.zwrjkf.cn/PhalApi/PhalApi/NotORM/NotORM/Result.php:273
Stack trace:
#0 /www/wwwroot/dp.zwrjkf.cn/PhalApi/PhalApi/NotORM/NotORM/Result.php(826): NotORM_Result->query('SELECT * FROM c...', Array)
#1 /www/wwwroot/dp.zwrjkf.cn/PhalApi/PhalApi/NotORM/NotORM/Result.php(872): NotORM_Result->execute()
#2 /www/wwwroot/dp.zwrjkf.cn/PhalApi/Appapi/Model/InvitationVisit.php(17): NotORM_Result->fetch()
#3 /www/wwwroot/dp.zwrjkf.cn/PhalApi/Appapi/Domain/Invitationvisit.php(14): Model_InvitationVisit->addVisitLog(40539, Array)
#4 /www/wwwroot/dp.zwrjkf.cn/PhalApi/Appapi/Api/Publish.php(226): Domain_Invitationvisit->addVisitLog(40539, Array)
#5 [internal function]: Api_Publish->detailsNote()
#6 /www/wwwroot/dp.zwrjkf.cn/PhalApi/PhalApi/PhalApi.php(57): call_user_func(Array)
#7 /www/wwwroot/dp.zwrjkf.cn/public/appapi/index.php(13): PhalApi->response()
#8 {main}
2020-12-31 19:08:20|ERROR|publish.detailsNote|exception 'PDOException' with message 'You have an error in your SQL syntax; check the manual that corresponds to your MySQL server version for the right syntax to use near ')' at line 1' in /www/wwwroot/dp.zwrjkf.cn/PhalApi/PhalApi/NotORM/NotORM/Result.php:273
Stack trace:
#0 /www/wwwroot/dp.zwrjkf.cn/PhalApi/PhalApi/NotORM/NotORM/Result.php(826): NotORM_Result->query('SELECT * FROM c...', Array)
#1 /www/wwwroot/dp.zwrjkf.cn/PhalApi/PhalApi/NotORM/NotORM/Result.php(872): NotORM_Result->execute()
#2 /www/wwwroot/dp.zwrjkf.cn/PhalApi/Appapi/Model/InvitationVisit.php(17): NotORM_Result->fetch()
#3 /www/wwwroot/dp.zwrjkf.cn/PhalApi/Appapi/Domain/Invitationvisit.php(14): Model_InvitationVisit->addVisitLog(40539, Array)
#4 /www/wwwroot/dp.zwrjkf.cn/PhalApi/Appapi/Api/Publish.php(228): Domain_Invitationvisit->addVisitLog(40539, Array)
#5 [internal function]: Api_Publish->detailsNote()
#6 /www/wwwroot/dp.zwrjkf.cn/PhalApi/PhalApi/PhalApi.php(57): call_user_func(Array)
#7 /www/wwwroot/dp.zwrjkf.cn/public/appapi/index.php(13): PhalApi->response()
#8 {main}
2020-12-31 19:09:02|ERROR|publish.detailsNote|exception 'PDOException' with message 'You have an error in your SQL syntax; check the manual that corresponds to your MySQL server version for the right syntax to use near ')' at line 1' in /www/wwwroot/dp.zwrjkf.cn/PhalApi/PhalApi/NotORM/NotORM/Result.php:273
Stack trace:
#0 /www/wwwroot/dp.zwrjkf.cn/PhalApi/PhalApi/NotORM/NotORM/Result.php(826): NotORM_Result->query('SELECT * FROM c...', Array)
#1 /www/wwwroot/dp.zwrjkf.cn/PhalApi/PhalApi/NotORM/NotORM/Result.php(872): NotORM_Result->execute()
#2 /www/wwwroot/dp.zwrjkf.cn/PhalApi/Appapi/Model/InvitationVisit.php(17): NotORM_Result->fetch()
#3 /www/wwwroot/dp.zwrjkf.cn/PhalApi/Appapi/Domain/Invitationvisit.php(14): Model_InvitationVisit->addVisitLog(40539, Array)
#4 /www/wwwroot/dp.zwrjkf.cn/PhalApi/Appapi/Api/Publish.php(228): Domain_Invitationvisit->addVisitLog(40539, Array)
#5 [internal function]: Api_Publish->detailsNote()
#6 /www/wwwroot/dp.zwrjkf.cn/PhalApi/PhalApi/PhalApi.php(57): call_user_func(Array)
#7 /www/wwwroot/dp.zwrjkf.cn/public/appapi/index.php(13): PhalApi->response()
#8 {main}
2020-12-31 19:09:03|DEBUG|succeed to upload file to qiniu|{"hash":"Fmp5usqXsRRV09PDizFhtRfAQQ50","key":"20201231190902_993c9685e6b6fa025239cf832e007c3e"}
2020-12-31 19:09:08|DEBUG|succeed to upload file to qiniu|{"hash":"FjTvvhUSpU2fLGvSd75sYurh8LZ2","key":"20201231190908_98b75299a6cbde0c29d96048ed77b541"}
2020-12-31 19:09:17|DEBUG|succeed to upload file to qiniu|{"hash":"Fnxn9SF8Q3I5SOdz51FyL4X9maQx","key":"20201231190914_c46dc20c44d6868a1e8667abc549578d"}
2020-12-31 19:09:48|ERROR|publish.detailsNote|exception 'PDOException' with message 'You have an error in your SQL syntax; check the manual that corresponds to your MySQL server version for the right syntax to use near ')' at line 1' in /www/wwwroot/dp.zwrjkf.cn/PhalApi/PhalApi/NotORM/NotORM/Result.php:273
Stack trace:
#0 /www/wwwroot/dp.zwrjkf.cn/PhalApi/PhalApi/NotORM/NotORM/Result.php(826): NotORM_Result->query('SELECT * FROM c...', Array)
#1 /www/wwwroot/dp.zwrjkf.cn/PhalApi/PhalApi/NotORM/NotORM/Result.php(872): NotORM_Result->execute()
#2 /www/wwwroot/dp.zwrjkf.cn/PhalApi/Appapi/Model/InvitationVisit.php(17): NotORM_Result->fetch()
#3 /www/wwwroot/dp.zwrjkf.cn/PhalApi/Appapi/Domain/Invitationvisit.php(14): Model_InvitationVisit->addVisitLog(40539, Array)
#4 /www/wwwroot/dp.zwrjkf.cn/PhalApi/Appapi/Api/Publish.php(228): Domain_Invitationvisit->addVisitLog(40539, Array)
#5 [internal function]: Api_Publish->detailsNote()
#6 /www/wwwroot/dp.zwrjkf.cn/PhalApi/PhalApi/PhalApi.php(57): call_user_func(Array)
#7 /www/wwwroot/dp.zwrjkf.cn/public/appapi/index.php(13): PhalApi->response()
#8 {main}
2020-12-31 19:09:56|ERROR|publish.detailsNote|exception 'PDOException' with message 'You have an error in your SQL syntax; check the manual that corresponds to your MySQL server version for the right syntax to use near ')' at line 1' in /www/wwwroot/dp.zwrjkf.cn/PhalApi/PhalApi/NotORM/NotORM/Result.php:273
Stack trace:
#0 /www/wwwroot/dp.zwrjkf.cn/PhalApi/PhalApi/NotORM/NotORM/Result.php(826): NotORM_Result->query('SELECT * FROM c...', Array)
#1 /www/wwwroot/dp.zwrjkf.cn/PhalApi/PhalApi/NotORM/NotORM/Result.php(872): NotORM_Result->execute()
#2 /www/wwwroot/dp.zwrjkf.cn/PhalApi/Appapi/Model/InvitationVisit.php(17): NotORM_Result->fetch()
#3 /www/wwwroot/dp.zwrjkf.cn/PhalApi/Appapi/Domain/Invitationvisit.php(14): Model_InvitationVisit->addVisitLog(40539, Array)
#4 /www/wwwroot/dp.zwrjkf.cn/PhalApi/Appapi/Api/Publish.php(228): Domain_Invitationvisit->addVisitLog(40539, Array)
#5 [internal function]: Api_Publish->detailsNote()
#6 /www/wwwroot/dp.zwrjkf.cn/PhalApi/PhalApi/PhalApi.php(57): call_user_func(Array)
#7 /www/wwwroot/dp.zwrjkf.cn/public/appapi/index.php(13): PhalApi->response()
#8 {main}
2020-12-31 19:10:29|ERROR|publish.detailsNote|exception 'PDOException' with message 'You have an error in your SQL syntax; check the manual that corresponds to your MySQL server version for the right syntax to use near ')' at line 1' in /www/wwwroot/dp.zwrjkf.cn/PhalApi/PhalApi/NotORM/NotORM/Result.php:273
Stack trace:
#0 /www/wwwroot/dp.zwrjkf.cn/PhalApi/PhalApi/NotORM/NotORM/Result.php(826): NotORM_Result->query('SELECT * FROM c...', Array)
#1 /www/wwwroot/dp.zwrjkf.cn/PhalApi/PhalApi/NotORM/NotORM/Result.php(872): NotORM_Result->execute()
#2 /www/wwwroot/dp.zwrjkf.cn/PhalApi/Appapi/Model/InvitationVisit.php(17): NotORM_Result->fetch()
#3 /www/wwwroot/dp.zwrjkf.cn/PhalApi/Appapi/Domain/Invitationvisit.php(14): Model_InvitationVisit->addVisitLog(40539, Array)
#4 /www/wwwroot/dp.zwrjkf.cn/PhalApi/Appapi/Api/Publish.php(228): Domain_Invitationvisit->addVisitLog(40539, Array)
#5 [internal function]: Api_Publish->detailsNote()
#6 /www/wwwroot/dp.zwrjkf.cn/PhalApi/PhalApi/PhalApi.php(57): call_user_func(Array)
#7 /www/wwwroot/dp.zwrjkf.cn/public/appapi/index.php(13): PhalApi->response()
#8 {main}
2020-12-31 19:10:37|ERROR|publish.detailsNote|exception 'PDOException' with message 'You have an error in your SQL syntax; check the manual that corresponds to your MySQL server version for the right syntax to use near ')' at line 1' in /www/wwwroot/dp.zwrjkf.cn/PhalApi/PhalApi/NotORM/NotORM/Result.php:273
Stack trace:
#0 /www/wwwroot/dp.zwrjkf.cn/PhalApi/PhalApi/NotORM/NotORM/Result.php(826): NotORM_Result->query('SELECT * FROM c...', Array)
#1 /www/wwwroot/dp.zwrjkf.cn/PhalApi/PhalApi/NotORM/NotORM/Result.php(872): NotORM_Result->execute()
#2 /www/wwwroot/dp.zwrjkf.cn/PhalApi/Appapi/Model/InvitationVisit.php(17): NotORM_Result->fetch()
#3 /www/wwwroot/dp.zwrjkf.cn/PhalApi/Appapi/Domain/Invitationvisit.php(14): Model_InvitationVisit->addVisitLog(40539, Array)
#4 /www/wwwroot/dp.zwrjkf.cn/PhalApi/Appapi/Api/Publish.php(228): Domain_Invitationvisit->addVisitLog(40539, Array)
#5 [internal function]: Api_Publish->detailsNote()
#6 /www/wwwroot/dp.zwrjkf.cn/PhalApi/PhalApi/PhalApi.php(57): call_user_func(Array)
#7 /www/wwwroot/dp.zwrjkf.cn/public/appapi/index.php(13): PhalApi->response()
#8 {main}
2020-12-31 19:10:40|ERROR|publish.detailsNote|exception 'PDOException' with message 'You have an error in your SQL syntax; check the manual that corresponds to your MySQL server version for the right syntax to use near ')' at line 1' in /www/wwwroot/dp.zwrjkf.cn/PhalApi/PhalApi/NotORM/NotORM/Result.php:273
Stack trace:
#0 /www/wwwroot/dp.zwrjkf.cn/PhalApi/PhalApi/NotORM/NotORM/Result.php(826): NotORM_Result->query('SELECT * FROM c...', Array)
#1 /www/wwwroot/dp.zwrjkf.cn/PhalApi/PhalApi/NotORM/NotORM/Result.php(872): NotORM_Result->execute()
#2 /www/wwwroot/dp.zwrjkf.cn/PhalApi/Appapi/Model/InvitationVisit.php(17): NotORM_Result->fetch()
#3 /www/wwwroot/dp.zwrjkf.cn/PhalApi/Appapi/Domain/Invitationvisit.php(14): Model_InvitationVisit->addVisitLog(40539, Array)
#4 /www/wwwroot/dp.zwrjkf.cn/PhalApi/Appapi/Api/Publish.php(228): Domain_Invitationvisit->addVisitLog(40539, Array)
#5 [internal function]: Api_Publish->detailsNote()
#6 /www/wwwroot/dp.zwrjkf.cn/PhalApi/PhalApi/PhalApi.php(57): call_user_func(Array)
#7 /www/wwwroot/dp.zwrjkf.cn/public/appapi/index.php(13): PhalApi->response()
#8 {main}
2020-12-31 19:11:00|ERROR|publish.detailsNote|exception 'PDOException' with message 'You have an error in your SQL syntax; check the manual that corresponds to your MySQL server version for the right syntax to use near ')' at line 1' in /www/wwwroot/dp.zwrjkf.cn/PhalApi/PhalApi/NotORM/NotORM/Result.php:273
Stack trace:
#0 /www/wwwroot/dp.zwrjkf.cn/PhalApi/PhalApi/NotORM/NotORM/Result.php(826): NotORM_Result->query('SELECT * FROM c...', Array)
#1 /www/wwwroot/dp.zwrjkf.cn/PhalApi/PhalApi/NotORM/NotORM/Result.php(872): NotORM_Result->execute()
#2 /www/wwwroot/dp.zwrjkf.cn/PhalApi/Appapi/Model/InvitationVisit.php(17): NotORM_Result->fetch()
#3 /www/wwwroot/dp.zwrjkf.cn/PhalApi/Appapi/Domain/Invitationvisit.php(14): Model_InvitationVisit->addVisitLog(40539, Array)
#4 /www/wwwroot/dp.zwrjkf.cn/PhalApi/Appapi/Api/Publish.php(228): Domain_Invitationvisit->addVisitLog(40539, Array)
#5 [internal function]: Api_Publish->detailsNote()
#6 /www/wwwroot/dp.zwrjkf.cn/PhalApi/PhalApi/PhalApi.php(57): call_user_func(Array)
#7 /www/wwwroot/dp.zwrjkf.cn/public/appapi/index.php(13): PhalApi->response()
#8 {main}
2020-12-31 19:11:07|DEBUG|succeed to upload file to qiniu|{"hash":"FrSyoLMljd9djEuPcStkWWiADQz5","key":"20201231191107_7810f6079d7a28ad44eb699eca7e14a8"}
2020-12-31 19:11:12|DEBUG|succeed to upload file to qiniu|{"hash":"FkQfV2SEjWMkR5zjnbqOOB0PVyaJ","key":"20201231191110_3a499fcb56f300491b7f60fb03168228"}
2020-12-31 19:11:15|DEBUG|succeed to upload file to qiniu|{"hash":"FvaO6IPt3z7lh1hceRjVomUFTsD7","key":"20201231191114_561122b5e30bedb418d034e993285343"}
2020-12-31 19:13:11|ERROR|publish.detailsNote|exception 'PDOException' with message 'You have an error in your SQL syntax; check the manual that corresponds to your MySQL server version for the right syntax to use near ')' at line 1' in /www/wwwroot/dp.zwrjkf.cn/PhalApi/PhalApi/NotORM/NotORM/Result.php:273
Stack trace:
#0 /www/wwwroot/dp.zwrjkf.cn/PhalApi/PhalApi/NotORM/NotORM/Result.php(826): NotORM_Result->query('SELECT * FROM c...', Array)
#1 /www/wwwroot/dp.zwrjkf.cn/PhalApi/PhalApi/NotORM/NotORM/Result.php(872): NotORM_Result->execute()
#2 /www/wwwroot/dp.zwrjkf.cn/PhalApi/Appapi/Model/InvitationVisit.php(17): NotORM_Result->fetch()
#3 /www/wwwroot/dp.zwrjkf.cn/PhalApi/Appapi/Domain/Invitationvisit.php(14): Model_InvitationVisit->addVisitLog(40539, Array)
#4 /www/wwwroot/dp.zwrjkf.cn/PhalApi/Appapi/Api/Publish.php(226): Domain_Invitationvisit->addVisitLog(40539, Array)
#5 [internal function]: Api_Publish->detailsNote()
#6 /www/wwwroot/dp.zwrjkf.cn/PhalApi/PhalApi/PhalApi.php(57): call_user_func(Array)
#7 /www/wwwroot/dp.zwrjkf.cn/public/appapi/index.php(13): PhalApi->response()
#8 {main}
2020-12-31 19:15:18|DEBUG|succeed to upload file to qiniu|{"hash":"Fkj2lUD5qmiVFxJddvBqVejZuqBf","key":"20201231191518_3656bbcd165db330a60fa83ce790bf09"}
2020-12-31 19:15:26|DEBUG|succeed to upload file to qiniu|{"hash":"FsCdlJPR-qPbodU98rLZKmvm9c8Q","key":"20201231191526_55a9de1550a1e52dbb56b436663d85ff"}
2020-12-31 19:15:35|DEBUG|succeed to upload file to qiniu|{"hash":"Fnxn9SF8Q3I5SOdz51FyL4X9maQx","key":"20201231191532_2f7a2dc5d0e5222a384fc325348358e5"}
2020-12-31 19:16:54|DEBUG|succeed to upload file to qiniu|{"hash":"FgibOvP4SCf4Q0j3FI2xQh4syFR6","key":"20201231191654_53c0378860bd98fca5861910265c1269"}
2020-12-31 19:16:59|DEBUG|succeed to upload file to qiniu|{"hash":"FgibOvP4SCf4Q0j3FI2xQh4syFR6","key":"20201231191658_a6e77ec71256f335444205b3664f370c"}
2020-12-31 19:17:11|DEBUG|succeed to upload file to qiniu|{"hash":"Fnxn9SF8Q3I5SOdz51FyL4X9maQx","key":"20201231191708_c43f3eadf615d736ebf2b993b3d7a0a4"}
2020-12-31 19:38:39|DEBUG|succeed to upload file to qiniu|{"hash":"Fix25Q3e97Htkr4HkGIJ-k_O8vXn","key":"20201231193837_b2e31ded9017a98e7b21837c45fb64e8"}
2020-12-31 19:38:45|DEBUG|succeed to upload file to qiniu|{"hash":"FjTvvhUSpU2fLGvSd75sYurh8LZ2","key":"20201231193844_a965f819a08cf266759c2a8cbe069546"}
2020-12-31 19:38:49|DEBUG|succeed to upload file to qiniu|{"hash":"Fmp5usqXsRRV09PDizFhtRfAQQ50","key":"20201231193849_a4bbfec59e928c607e6df13426f91b34"}
2020-12-31 19:42:30|DEBUG|succeed to upload file to qiniu|{"hash":"FoFvS7RJMkLlvMSiCfe5BtkicvLy","key":"20201231194230_43fb3971ea32962ca45be04d2063d52b"}
2020-12-31 19:42:32|DEBUG|succeed to upload file to qiniu|{"hash":"FmxX7RuxNirmy9g8bbzifE4bxCOK","key":"20201231194232_8e2952ca62597a31e062af9f175e4ddf"}
2020-12-31 19:42:34|DEBUG|succeed to upload file to qiniu|{"hash":"FsUw9W8Z8sT2ROIPlJTVQnysklLW","key":"20201231194234_03858c854ae43bfa48eb94f5e659c3d2"}
2020-12-31 19:44:54|DEBUG|succeed to upload file to qiniu|{"hash":"Fix25Q3e97Htkr4HkGIJ-k_O8vXn","key":"20201231194452_299ff72009e1e26905019d8c0875b0c5"}
2020-12-31 19:46:16|DEBUG|succeed to upload file to qiniu|{"hash":"Fkj2lUD5qmiVFxJddvBqVejZuqBf","key":"20201231194616_c1aa74a3d95972324ab3056a64dff14a"}
2020-12-31 19:46:23|DEBUG|succeed to upload file to qiniu|{"hash":"FhhlogWGV5bhe0TwhL9Cz8d9YZOk","key":"20201231194623_badcd628e29fe4caf4c3ee8a9b298204"}
2020-12-31 19:46:31|DEBUG|succeed to upload file to qiniu|{"hash":"FudBDDB0eIsjMaTUqWctWk0Xs-uN","key":"20201231194628_09f54f1d6f1422266203ed76fad2dd0f"}
2020-12-31 19:52:10|DEBUG|succeed to upload file to qiniu|{"hash":"FgibOvP4SCf4Q0j3FI2xQh4syFR6","key":"20201231195210_1378caf90cbbddbf6280575d9b868f73"}
2020-12-31 19:52:17|DEBUG|succeed to upload file to qiniu|{"hash":"Fkj2lUD5qmiVFxJddvBqVejZuqBf","key":"20201231195217_85e5ed79529f4d088b99d698b906ad7d"}
2020-12-31 19:52:22|DEBUG|succeed to upload file to qiniu|{"hash":"Fkj2lUD5qmiVFxJddvBqVejZuqBf","key":"20201231195222_b7c52a5313eb147fa677e000c14b90ca"}
2020-12-31 20:20:33|DEBUG|succeed to upload file to qiniu|{"hash":"FrSyoLMljd9djEuPcStkWWiADQz5","key":"20201231202033_e8017d19c9b81d7e57bfd61075ce4520"}
2020-12-31 20:20:36|DEBUG|succeed to upload file to qiniu|{"hash":"FtZ9mwc0oAZ44GAcQnI-Z5zceINY","key":"20201231202036_832d233349665e492f53d8ab82d33559"}
2020-12-31 20:20:40|DEBUG|succeed to upload file to qiniu|{"hash":"FvaO6IPt3z7lh1hceRjVomUFTsD7","key":"20201231202038_6d08c6a264cb10207783bfdd588fd044"}
2020-12-31 20:21:14|DEBUG|succeed to upload file to qiniu|{"hash":"FrSyoLMljd9djEuPcStkWWiADQz5","key":"20201231202113_a8a375c93790c238ece2eace57cc49ea"}
2020-12-31 20:21:18|DEBUG|succeed to upload file to qiniu|{"hash":"FvaO6IPt3z7lh1hceRjVomUFTsD7","key":"20201231202116_f895a1a1844850aa083b9c2594b4f974"}
2020-12-31 20:21:20|DEBUG|succeed to upload file to qiniu|{"hash":"FrSyoLMljd9djEuPcStkWWiADQz5","key":"20201231202119_764cb3ec25cb89bf15bf38991f161b28"}
2020-12-31 20:23:36|DEBUG|succeed to upload file to qiniu|{"hash":"Fix25Q3e97Htkr4HkGIJ-k_O8vXn","key":"20201231202334_8ef3ee5182818b53ef528d4120f3a43b"}
2020-12-31 20:23:41|DEBUG|succeed to upload file to qiniu|{"hash":"Fkj2lUD5qmiVFxJddvBqVejZuqBf","key":"20201231202341_da75256b348b4f694f75a5f9cc8ec9c5"}
2020-12-31 20:23:48|DEBUG|succeed to upload file to qiniu|{"hash":"FudBDDB0eIsjMaTUqWctWk0Xs-uN","key":"20201231202346_ff4ed85aaf3fd81ea9877692cb4f26ce"}
2020-12-31 20:27:05|DEBUG|succeed to upload file to qiniu|{"hash":"Fix25Q3e97Htkr4HkGIJ-k_O8vXn","key":"20201231202703_5cb073c4d4f330f4e54195bccf0e451b"}
2020-12-31 20:27:12|DEBUG|succeed to upload file to qiniu|{"hash":"FgibOvP4SCf4Q0j3FI2xQh4syFR6","key":"20201231202711_a725c04e83f02eab51e1ece1247022ef"}
2020-12-31 20:27:19|DEBUG|succeed to upload file to qiniu|{"hash":"FudBDDB0eIsjMaTUqWctWk0Xs-uN","key":"20201231202716_ce6fb6966fdc77ddd09cadc763363b10"}
2020-12-31 20:29:25|DEBUG|succeed to upload file to qiniu|{"hash":"FgibOvP4SCf4Q0j3FI2xQh4syFR6","key":"20201231202925_d60d670a244877336d085d6156985ac3"}
2020-12-31 20:29:33|DEBUG|succeed to upload file to qiniu|{"hash":"Ft1O4uIyyG6hsKUFO5KbajrLFaYh","key":"20201231202931_c16a44ddd853c30aeed7b4aea84fbcbb"}
2020-12-31 20:29:57|DEBUG|succeed to upload file to qiniu|{"hash":"Fnxn9SF8Q3I5SOdz51FyL4X9maQx","key":"20201231202954_b93a32da816f99f481a8d314513508b9"}
2020-12-31 20:35:44|DEBUG|succeed to upload file to qiniu|{"hash":"FsSVzBh7FuAaEpwXbD2FiY0GXf24","key":"20201231203544_f17f957a21016a2f72c019a756297b94"}
2020-12-31 20:35:49|DEBUG|succeed to upload file to qiniu|{"hash":"FrSyoLMljd9djEuPcStkWWiADQz5","key":"20201231203549_319c89cc0839782bcd452d4bcbd25ebd"}
2020-12-31 20:35:52|DEBUG|succeed to upload file to qiniu|{"hash":"FvaO6IPt3z7lh1hceRjVomUFTsD7","key":"20201231203551_c9ffdcdd0a6902696697c290649664d0"}
2020-12-31 20:36:54|DEBUG|succeed to upload file to qiniu|{"hash":"FgibOvP4SCf4Q0j3FI2xQh4syFR6","key":"20201231203654_bdcefe106c5e27e2e6102cbc6fa0c84d"}
