{"seq":0,"push_id":"","ret_code":1008007,"environment":"","err_msg":"\u5bf9\u4e8eios, environment \u53d6\u503c\u4e0d\u6b63\u786e, \u5fc5\u987b\u662f product \u6216 dev","err_msg_zh":"","result":null}
{"seq":0,"push_id":"1344470462687641600","ret_code":0,"environment":"","err_msg":"NO_ERROR","err_msg_zh":"","result":"{}"}
{"seq":0,"push_id":"","ret_code":1008029,"environment":"","err_msg":"token is not valid :token is not belong to this accessId","err_msg_zh":"token \u65e0\u6548 :token is not belong to this accessId","result":null}
{"seq":0,"push_id":"","ret_code":1008029,"environment":"","err_msg":"token is not belong to this accessId: 02b78405f85ee42cbe38da3c86ef2ad0116c","err_msg_zh":"token \u4e0d\u5c5e\u4e8e\u8be5\u5e94\u7528 accessId: 02b78405f85ee42cbe38da3c86ef2ad0116c","result":null}
{"seq":0,"push_id":"","ret_code":1008029,"environment":"","err_msg":"token is not belong to this accessId: 02b78405f85ee42cbe38da3c86ef2ad0116c","err_msg_zh":"token \u4e0d\u5c5e\u4e8e\u8be5\u5e94\u7528 accessId: 02b78405f85ee42cbe38da3c86ef2ad0116c","result":null}
{"seq":0,"push_id":"","ret_code":1008029,"environment":"","err_msg":"token is not belong to this accessId: 02b78405f85ee42cbe38da3c86ef2ad0116c","err_msg_zh":"token \u4e0d\u5c5e\u4e8e\u8be5\u5e94\u7528 accessId: 02b78405f85ee42cbe38da3c86ef2ad0116c","result":null}
{"seq":0,"push_id":"","ret_code":1008029,"environment":"","err_msg":"token is not belong to this accessId: 02b78405f85ee42cbe38da3c86ef2ad0116c","err_msg_zh":"token \u4e0d\u5c5e\u4e8e\u8be5\u5e94\u7528 accessId: 02b78405f85ee42cbe38da3c86ef2ad0116c","result":null}
{"seq":0,"push_id":"","ret_code":1008029,"environment":"","err_msg":"token is not belong to this accessId: 02b78405f85ee42cbe38da3c86ef2ad0116c","err_msg_zh":"token \u4e0d\u5c5e\u4e8e\u8be5\u5e94\u7528 accessId: 02b78405f85ee42cbe38da3c86ef2ad0116c","result":null}
{"seq":0,"push_id":"","ret_code":1008029,"environment":"","err_msg":"token is not belong to this accessId: 02b78405f85ee42cbe38da3c86ef2ad0116c","err_msg_zh":"token \u4e0d\u5c5e\u4e8e\u8be5\u5e94\u7528 accessId: 02b78405f85ee42cbe38da3c86ef2ad0116c","result":null}
{"seq":0,"push_id":"","ret_code":1008029,"environment":"","err_msg":"token is not belong to this accessId: 02b78405f85ee42cbe38da3c86ef2ad0116c","err_msg_zh":"token \u4e0d\u5c5e\u4e8e\u8be5\u5e94\u7528 accessId: 02b78405f85ee42cbe38da3c86ef2ad0116c","result":null}
{"seq":0,"push_id":"","ret_code":1008029,"environment":"","err_msg":"token is not belong to this accessId: 02b78405f85ee42cbe38da3c86ef2ad0116c","err_msg_zh":"token \u4e0d\u5c5e\u4e8e\u8be5\u5e94\u7528 accessId: 02b78405f85ee42cbe38da3c86ef2ad0116c","result":null}
{"seq":0,"push_id":"1344483815661277184","ret_code":0,"environment":"","err_msg":"NO_ERROR","err_msg_zh":"","result":"{}"}
{"seq":0,"push_id":"","ret_code":1008029,"environment":"","err_msg":"token is not belong to this accessId: 0474808d52feb2b60128f9933ea2e966c8e6","err_msg_zh":"token \u4e0d\u5c5e\u4e8e\u8be5\u5e94\u7528 accessId: 0474808d52feb2b60128f9933ea2e966c8e6","result":null}
{"seq":0,"push_id":"","ret_code":1008029,"environment":"","err_msg":"token is not belong to this accessId: 0474808d52feb2b60128f9933ea2e966c8e6","err_msg_zh":"token \u4e0d\u5c5e\u4e8e\u8be5\u5e94\u7528 accessId: 0474808d52feb2b60128f9933ea2e966c8e6","result":null}
{"seq":0,"push_id":"","ret_code":1008029,"environment":"","err_msg":"token is not belong to this accessId: 0474808d52feb2b60128f9933ea2e966c8e6","err_msg_zh":"token \u4e0d\u5c5e\u4e8e\u8be5\u5e94\u7528 accessId: 0474808d52feb2b60128f9933ea2e966c8e6","result":null}
{"seq":0,"push_id":"","ret_code":1008029,"environment":"","err_msg":"token is not belong to this accessId: 0474808d52feb2b60128f9933ea2e966c8e6","err_msg_zh":"token \u4e0d\u5c5e\u4e8e\u8be5\u5e94\u7528 accessId: 0474808d52feb2b60128f9933ea2e966c8e6","result":null}
{"seq":0,"push_id":"","ret_code":1008029,"environment":"","err_msg":"token is not belong to this accessId: 0474808d52feb2b60128f9933ea2e966c8e6","err_msg_zh":"token \u4e0d\u5c5e\u4e8e\u8be5\u5e94\u7528 accessId: 0474808d52feb2b60128f9933ea2e966c8e6","result":null}
{"seq":0,"push_id":"","ret_code":1008029,"environment":"","err_msg":"token is not valid :caefcb8054b973525e68246a804f0d2aa0b521d495f1b18f46b87510ac4f0d52","err_msg_zh":"token \u65e0\u6548 :caefcb8054b973525e68246a804f0d2aa0b521d495f1b18f46b87510ac4f0d52","result":null}
{"seq":0,"push_id":"","ret_code":1008029,"environment":"","err_msg":"token is not valid :caefcb8054b973525e68246a804f0d2aa0b521d495f1b18f46b87510ac4f0d52","err_msg_zh":"token \u65e0\u6548 :caefcb8054b973525e68246a804f0d2aa0b521d495f1b18f46b87510ac4f0d52","result":null}
{"seq":0,"push_id":"","ret_code":1008029,"environment":"","err_msg":"token is not valid :caefcb8054b973525e68246a804f0d2aa0b521d495f1b18f46b87510ac4f0d52","err_msg_zh":"token \u65e0\u6548 :caefcb8054b973525e68246a804f0d2aa0b521d495f1b18f46b87510ac4f0d52","result":null}
{"seq":0,"push_id":"","ret_code":1008029,"environment":"","err_msg":"token is not valid :caefcb8054b973525e68246a804f0d2aa0b521d495f1b18f46b87510ac4f0d52","err_msg_zh":"token \u65e0\u6548 :caefcb8054b973525e68246a804f0d2aa0b521d495f1b18f46b87510ac4f0d52","result":null}
{"seq":0,"push_id":"","ret_code":1008029,"environment":"","err_msg":"token is not belong to this accessId: 0474808d52feb2b60128f9933ea2e966c8e6","err_msg_zh":"token \u4e0d\u5c5e\u4e8e\u8be5\u5e94\u7528 accessId: 0474808d52feb2b60128f9933ea2e966c8e6","result":null}
{"seq":0,"push_id":"","ret_code":1008029,"environment":"","err_msg":"token is not belong to this accessId: 0474808d52feb2b60128f9933ea2e966c8e6","err_msg_zh":"token \u4e0d\u5c5e\u4e8e\u8be5\u5e94\u7528 accessId: 0474808d52feb2b60128f9933ea2e966c8e6","result":null}
{"seq":0,"push_id":"","ret_code":1008029,"environment":"","err_msg":"token is not belong to this accessId: 0474808d52feb2b60128f9933ea2e966c8e6","err_msg_zh":"token \u4e0d\u5c5e\u4e8e\u8be5\u5e94\u7528 accessId: 0474808d52feb2b60128f9933ea2e966c8e6","result":null}
{"seq":0,"push_id":"","ret_code":1008029,"environment":"","err_msg":"token is not valid :caefcb8054b973525e68246a804f0d2aa0b521d495f1b18f46b87510ac4f0d52","err_msg_zh":"token \u65e0\u6548 :caefcb8054b973525e68246a804f0d2aa0b521d495f1b18f46b87510ac4f0d52","result":null}
{"seq":0,"push_id":"","ret_code":1008029,"environment":"","err_msg":"token is not valid :caefcb8054b973525e68246a804f0d2aa0b521d495f1b18f46b87510ac4f0d52","err_msg_zh":"token \u65e0\u6548 :caefcb8054b973525e68246a804f0d2aa0b521d495f1b18f46b87510ac4f0d52","result":null}
{"seq":0,"push_id":"","ret_code":1008029,"environment":"","err_msg":"token is not valid :caefcb8054b973525e68246a804f0d2aa0b521d495f1b18f46b87510ac4f0d52","err_msg_zh":"token \u65e0\u6548 :caefcb8054b973525e68246a804f0d2aa0b521d495f1b18f46b87510ac4f0d52","result":null}
{"seq":0,"push_id":"","ret_code":1008029,"environment":"","err_msg":"token is not valid :caefcb8054b973525e68246a804f0d2aa0b521d495f1b18f46b87510ac4f0d52","err_msg_zh":"token \u65e0\u6548 :caefcb8054b973525e68246a804f0d2aa0b521d495f1b18f46b87510ac4f0d52","result":null}
{"seq":0,"push_id":"","ret_code":1008029,"environment":"","err_msg":"token is not belong to this accessId: 0474808d52feb2b60128f9933ea2e966c8e6","err_msg_zh":"token \u4e0d\u5c5e\u4e8e\u8be5\u5e94\u7528 accessId: 0474808d52feb2b60128f9933ea2e966c8e6","result":null}
{"seq":0,"push_id":"","ret_code":1008029,"environment":"","err_msg":"token is not belong to this accessId: 0474808d52feb2b60128f9933ea2e966c8e6","err_msg_zh":"token \u4e0d\u5c5e\u4e8e\u8be5\u5e94\u7528 accessId: 0474808d52feb2b60128f9933ea2e966c8e6","result":null}
{"seq":0,"push_id":"","ret_code":1008029,"environment":"","err_msg":"token is not belong to this accessId: 0474808d52feb2b60128f9933ea2e966c8e6","err_msg_zh":"token \u4e0d\u5c5e\u4e8e\u8be5\u5e94\u7528 accessId: 0474808d52feb2b60128f9933ea2e966c8e6","result":null}
{"seq":0,"push_id":"","ret_code":1008029,"environment":"","err_msg":"token is not belong to this accessId: 0474808d52feb2b60128f9933ea2e966c8e6","err_msg_zh":"token \u4e0d\u5c5e\u4e8e\u8be5\u5e94\u7528 accessId: 0474808d52feb2b60128f9933ea2e966c8e6","result":null}
{"seq":0,"push_id":"","ret_code":1008029,"environment":"","err_msg":"token is not belong to this accessId: 0474808d52feb2b60128f9933ea2e966c8e6","err_msg_zh":"token \u4e0d\u5c5e\u4e8e\u8be5\u5e94\u7528 accessId: 0474808d52feb2b60128f9933ea2e966c8e6","result":null}
{"seq":0,"push_id":"","ret_code":1008029,"environment":"","err_msg":"token is not belong to this accessId: 0474808d52feb2b60128f9933ea2e966c8e6","err_msg_zh":"token \u4e0d\u5c5e\u4e8e\u8be5\u5e94\u7528 accessId: 0474808d52feb2b60128f9933ea2e966c8e6","result":null}
{"seq":0,"push_id":"","ret_code":1008029,"environment":"","err_msg":"token is not valid :caefcb8054b973525e68246a804f0d2aa0b521d495f1b18f46b87510ac4f0d52","err_msg_zh":"token \u65e0\u6548 :caefcb8054b973525e68246a804f0d2aa0b521d495f1b18f46b87510ac4f0d52","result":null}
{"seq":0,"push_id":"","ret_code":1008029,"environment":"","err_msg":"token is not valid :caefcb8054b973525e68246a804f0d2aa0b521d495f1b18f46b87510ac4f0d52","err_msg_zh":"token \u65e0\u6548 :caefcb8054b973525e68246a804f0d2aa0b521d495f1b18f46b87510ac4f0d52","result":null}
{"seq":0,"push_id":"","ret_code":1008029,"environment":"","err_msg":"token is not belong to this accessId: 0474808d52feb2b60128f9933ea2e966c8e6","err_msg_zh":"token \u4e0d\u5c5e\u4e8e\u8be5\u5e94\u7528 accessId: 0474808d52feb2b60128f9933ea2e966c8e6","result":null}
{"seq":0,"push_id":"","ret_code":1008029,"environment":"","err_msg":"token is not belong to this accessId: 0474808d52feb2b60128f9933ea2e966c8e6","err_msg_zh":"token \u4e0d\u5c5e\u4e8e\u8be5\u5e94\u7528 accessId: 0474808d52feb2b60128f9933ea2e966c8e6","result":null}
{"seq":0,"push_id":"","ret_code":1008029,"environment":"","err_msg":"token is not belong to this accessId: 0124769c97b5293feb260c891c7eeb452247","err_msg_zh":"token \u4e0d\u5c5e\u4e8e\u8be5\u5e94\u7528 accessId: 0124769c97b5293feb260c891c7eeb452247","result":null}
{"seq":0,"push_id":"","ret_code":1008029,"environment":"","err_msg":"token is not belong to this accessId: 0124769c97b5293feb260c891c7eeb452247","err_msg_zh":"token \u4e0d\u5c5e\u4e8e\u8be5\u5e94\u7528 accessId: 0124769c97b5293feb260c891c7eeb452247","result":null}
{"seq":0,"push_id":"","ret_code":1008029,"environment":"","err_msg":"token is not belong to this accessId: 0124769c97b5293feb260c891c7eeb452247","err_msg_zh":"token \u4e0d\u5c5e\u4e8e\u8be5\u5e94\u7528 accessId: 0124769c97b5293feb260c891c7eeb452247","result":null}
{"seq":0,"push_id":"1345569099501010944","ret_code":0,"environment":"dev","err_msg":"NO_ERROR","err_msg_zh":"","result":"{}"}
{"seq":0,"push_id":"1345609880425267200","ret_code":0,"environment":"dev","err_msg":"NO_ERROR","err_msg_zh":"","result":"{}"}
{"seq":0,"push_id":"1345610084289421312","ret_code":0,"environment":"dev","err_msg":"NO_ERROR","err_msg_zh":"","result":"{}"}
{"seq":0,"push_id":"1345632248057077760","ret_code":0,"environment":"dev","err_msg":"NO_ERROR","err_msg_zh":"","result":"{}"}
{"seq":0,"push_id":"1345632349034934272","ret_code":0,"environment":"dev","err_msg":"NO_ERROR","err_msg_zh":"","result":"{}"}
{"seq":0,"push_id":"1345632769006411776","ret_code":0,"environment":"dev","err_msg":"NO_ERROR","err_msg_zh":"","result":"{}"}
{"seq":0,"push_id":"1345633206791086080","ret_code":0,"environment":"dev","err_msg":"NO_ERROR","err_msg_zh":"","result":"{}"}
{"seq":0,"push_id":"1345633277498654720","ret_code":0,"environment":"dev","err_msg":"NO_ERROR","err_msg_zh":"","result":"{}"}
{"seq":0,"push_id":"1345633336336351232","ret_code":0,"environment":"dev","err_msg":"NO_ERROR","err_msg_zh":"","result":"{}"}
{"seq":0,"push_id":"1345633413238951936","ret_code":0,"environment":"dev","err_msg":"NO_ERROR","err_msg_zh":"","result":"{}"}
{"seq":0,"push_id":"1345647210284482560","ret_code":0,"environment":"dev","err_msg":"NO_ERROR","err_msg_zh":"","result":"{}"}
{"seq":0,"push_id":"1345647324474404864","ret_code":0,"environment":"dev","err_msg":"NO_ERROR","err_msg_zh":"","result":"{}"}
{"seq":0,"push_id":"1345647715819798528","ret_code":0,"environment":"dev","err_msg":"NO_ERROR","err_msg_zh":"","result":"{}"}
{"seq":0,"push_id":"1345647953234141184","ret_code":0,"environment":"dev","err_msg":"NO_ERROR","err_msg_zh":"","result":"{}"}
{"seq":0,"push_id":"1345648183094624256","ret_code":0,"environment":"dev","err_msg":"NO_ERROR","err_msg_zh":"","result":"{}"}
{"seq":0,"push_id":"1345648417002516480","ret_code":0,"environment":"dev","err_msg":"NO_ERROR","err_msg_zh":"","result":"{}"}
{"seq":0,"push_id":"1345648807228018688","ret_code":0,"environment":"dev","err_msg":"NO_ERROR","err_msg_zh":"","result":"{}"}
{"seq":0,"push_id":"1345652868727738368","ret_code":0,"environment":"dev","err_msg":"NO_ERROR","err_msg_zh":"","result":"{}"}
{"seq":0,"push_id":"1345654466505900032","ret_code":0,"environment":"dev","err_msg":"NO_ERROR","err_msg_zh":"","result":"{}"}
{"seq":0,"push_id":"1345655274131750912","ret_code":0,"environment":"dev","err_msg":"NO_ERROR","err_msg_zh":"","result":"{}"}
{"seq":0,"push_id":"1345662497134243840","ret_code":0,"environment":"dev","err_msg":"NO_ERROR","err_msg_zh":"","result":"{}"}
{"seq":0,"push_id":"1345664529949822976","ret_code":0,"environment":"dev","err_msg":"NO_ERROR","err_msg_zh":"","result":"{}"}
{"seq":0,"push_id":"1345665851386265600","ret_code":0,"environment":"dev","err_msg":"NO_ERROR","err_msg_zh":"","result":"{}"}
{"seq":0,"push_id":"1345668354110685184","ret_code":0,"environment":"dev","err_msg":"NO_ERROR","err_msg_zh":"","result":"{}"}
{"seq":0,"push_id":"1345669329353482240","ret_code":0,"environment":"dev","err_msg":"NO_ERROR","err_msg_zh":"","result":"{}"}
{"seq":0,"push_id":"1345678908321775616","ret_code":0,"environment":"dev","err_msg":"NO_ERROR","err_msg_zh":"","result":"{}"}
{"seq":0,"push_id":"1345679718837469184","ret_code":0,"environment":"dev","err_msg":"NO_ERROR","err_msg_zh":"","result":"{}"}
{"seq":0,"push_id":"1345722442575855616","ret_code":0,"environment":"dev","err_msg":"NO_ERROR","err_msg_zh":"","result":"{}"}
{"seq":0,"push_id":"1345726895261519872","ret_code":0,"environment":"dev","err_msg":"NO_ERROR","err_msg_zh":"","result":"{}"}
{"seq":0,"push_id":"1345727012769140736","ret_code":0,"environment":"dev","err_msg":"NO_ERROR","err_msg_zh":"","result":"{}"}
{"seq":0,"push_id":"1345727067035037696","ret_code":0,"environment":"dev","err_msg":"NO_ERROR","err_msg_zh":"","result":"{}"}
{"seq":0,"push_id":"1345727494958911488","ret_code":0,"environment":"dev","err_msg":"NO_ERROR","err_msg_zh":"","result":"{}"}
{"seq":0,"push_id":"1345727525770313728","ret_code":0,"environment":"dev","err_msg":"NO_ERROR","err_msg_zh":"","result":"{}"}
{"seq":0,"push_id":"1345727536407015424","ret_code":0,"environment":"dev","err_msg":"NO_ERROR","err_msg_zh":"","result":"{}"}
{"seq":0,"push_id":"1345727562034188288","ret_code":0,"environment":"dev","err_msg":"NO_ERROR","err_msg_zh":"","result":"{}"}
{"seq":0,"push_id":"1345727590886875136","ret_code":0,"environment":"dev","err_msg":"NO_ERROR","err_msg_zh":"","result":"{}"}
{"seq":0,"push_id":"1345727615993974784","ret_code":0,"environment":"dev","err_msg":"NO_ERROR","err_msg_zh":"","result":"{}"}
{"seq":0,"push_id":"1345727625292713984","ret_code":0,"environment":"dev","err_msg":"NO_ERROR","err_msg_zh":"","result":"{}"}
{"seq":0,"push_id":"1345727632926392320","ret_code":0,"environment":"dev","err_msg":"NO_ERROR","err_msg_zh":"","result":"{}"}
{"seq":0,"push_id":"1345727640518074368","ret_code":0,"environment":"dev","err_msg":"NO_ERROR","err_msg_zh":"","result":"{}"}
{"seq":0,"push_id":"1345727649300942848","ret_code":0,"environment":"dev","err_msg":"NO_ERROR","err_msg_zh":"","result":"{}"}
{"seq":0,"push_id":"1345727659048472576","ret_code":0,"environment":"dev","err_msg":"NO_ERROR","err_msg_zh":"","result":"{}"}
{"seq":0,"push_id":"1345727670742196224","ret_code":0,"environment":"dev","err_msg":"NO_ERROR","err_msg_zh":"","result":"{}"}
{"seq":0,"push_id":"1345910303417737216","ret_code":0,"environment":"dev","err_msg":"NO_ERROR","err_msg_zh":"","result":"{}"}
{"seq":0,"push_id":"1345933491468009472","ret_code":0,"environment":"dev","err_msg":"NO_ERROR","err_msg_zh":"","result":"{}"}
{"seq":0,"push_id":"1345934755903897600","ret_code":0,"environment":"dev","err_msg":"NO_ERROR","err_msg_zh":"","result":"{}"}
{"seq":0,"push_id":"1345934894114603008","ret_code":0,"environment":"dev","err_msg":"NO_ERROR","err_msg_zh":"","result":"{}"}
{"seq":0,"push_id":"1345934964633444352","ret_code":0,"environment":"dev","err_msg":"NO_ERROR","err_msg_zh":"","result":"{}"}
{"seq":0,"push_id":"1345935098238758912","ret_code":0,"environment":"dev","err_msg":"NO_ERROR","err_msg_zh":"","result":"{}"}
{"seq":0,"push_id":"1345936066296709120","ret_code":0,"environment":"dev","err_msg":"NO_ERROR","err_msg_zh":"","result":"{}"}
{"seq":0,"push_id":"1345936108063592448","ret_code":0,"environment":"dev","err_msg":"NO_ERROR","err_msg_zh":"","result":"{}"}
{"seq":0,"push_id":"1345936371931447296","ret_code":0,"environment":"dev","err_msg":"NO_ERROR","err_msg_zh":"","result":"{}"}
{"seq":0,"push_id":"1345936403929759744","ret_code":0,"environment":"dev","err_msg":"NO_ERROR","err_msg_zh":"","result":"{}"}
{"seq":0,"push_id":"1345937823265460224","ret_code":0,"environment":"dev","err_msg":"NO_ERROR","err_msg_zh":"","result":"{}"}
{"seq":0,"push_id":"1345937844245434368","ret_code":0,"environment":"dev","err_msg":"NO_ERROR","err_msg_zh":"","result":"{}"}
{"seq":0,"push_id":"1345937851803500544","ret_code":0,"environment":"dev","err_msg":"NO_ERROR","err_msg_zh":"","result":"{}"}
{"seq":0,"push_id":"1345937858350891008","ret_code":0,"environment":"dev","err_msg":"NO_ERROR","err_msg_zh":"","result":"{}"}
{"seq":0,"push_id":"1345940265050836992","ret_code":0,"environment":"dev","err_msg":"NO_ERROR","err_msg_zh":"","result":"{}"}
{"seq":0,"push_id":"1345940613794631680","ret_code":0,"environment":"dev","err_msg":"NO_ERROR","err_msg_zh":"","result":"{}"}
{"seq":0,"push_id":"1345941672181174272","ret_code":0,"environment":"dev","err_msg":"NO_ERROR","err_msg_zh":"","result":"{}"}
{"seq":0,"push_id":"1345974015608528896","ret_code":0,"environment":"dev","err_msg":"NO_ERROR","err_msg_zh":"","result":"{}"}
{"seq":0,"push_id":"1345974448834023424","ret_code":0,"environment":"dev","err_msg":"NO_ERROR","err_msg_zh":"","result":"{}"}
{"seq":0,"push_id":"1345974511723388928","ret_code":0,"environment":"dev","err_msg":"NO_ERROR","err_msg_zh":"","result":"{}"}
{"seq":0,"push_id":"1345985356318720000","ret_code":0,"environment":"dev","err_msg":"NO_ERROR","err_msg_zh":"","result":"{}"}
{"seq":0,"push_id":"1345986048240414720","ret_code":0,"environment":"dev","err_msg":"NO_ERROR","err_msg_zh":"","result":"{}"}
{"seq":0,"push_id":"1345996831011708928","ret_code":0,"environment":"dev","err_msg":"NO_ERROR","err_msg_zh":"","result":"{}"}
{"seq":0,"push_id":"1345996944480206848","ret_code":0,"environment":"dev","err_msg":"NO_ERROR","err_msg_zh":"","result":"{}"}
{"seq":0,"push_id":"1345997029989453824","ret_code":0,"environment":"dev","err_msg":"NO_ERROR","err_msg_zh":"","result":"{}"}
{"seq":0,"push_id":"1345997765116731392","ret_code":0,"environment":"dev","err_msg":"NO_ERROR","err_msg_zh":"","result":"{}"}
{"seq":0,"push_id":"1345997840349921280","ret_code":0,"environment":"dev","err_msg":"NO_ERROR","err_msg_zh":"","result":"{}"}
{"seq":0,"push_id":"1345997910004760576","ret_code":0,"environment":"dev","err_msg":"NO_ERROR","err_msg_zh":"","result":"{}"}
{"seq":0,"push_id":"1346005231065890816","ret_code":0,"environment":"dev","err_msg":"NO_ERROR","err_msg_zh":"","result":"{}"}
{"seq":0,"push_id":"1346005651670724608","ret_code":0,"environment":"dev","err_msg":"NO_ERROR","err_msg_zh":"","result":"{}"}
{"seq":0,"push_id":"1346005881145262080","ret_code":0,"environment":"dev","err_msg":"NO_ERROR","err_msg_zh":"","result":"{}"}
{"seq":0,"push_id":"1346006066990759936","ret_code":0,"environment":"dev","err_msg":"NO_ERROR","err_msg_zh":"","result":"{}"}
{"seq":0,"push_id":"1346006235362652160","ret_code":0,"environment":"dev","err_msg":"NO_ERROR","err_msg_zh":"","result":"{}"}
{"seq":0,"push_id":"1346006566502952960","ret_code":0,"environment":"dev","err_msg":"NO_ERROR","err_msg_zh":"","result":"{}"}
{"seq":0,"push_id":"1346006642507939840","ret_code":0,"environment":"dev","err_msg":"NO_ERROR","err_msg_zh":"","result":"{}"}
{"seq":0,"push_id":"1346006741053120512","ret_code":0,"environment":"dev","err_msg":"NO_ERROR","err_msg_zh":"","result":"{}"}
{"seq":0,"push_id":"1346006994674323456","ret_code":0,"environment":"dev","err_msg":"NO_ERROR","err_msg_zh":"","result":"{}"}
{"seq":0,"push_id":"1346019466022031360","ret_code":0,"environment":"dev","err_msg":"NO_ERROR","err_msg_zh":"","result":"{}"}
{"seq":0,"push_id":"1346019582799777792","ret_code":0,"environment":"dev","err_msg":"NO_ERROR","err_msg_zh":"","result":"{}"}
{"seq":0,"push_id":"1346019685849657344","ret_code":0,"environment":"dev","err_msg":"NO_ERROR","err_msg_zh":"","result":"{}"}
{"seq":0,"push_id":"1346019740283305984","ret_code":0,"environment":"dev","err_msg":"NO_ERROR","err_msg_zh":"","result":"{}"}
{"seq":0,"push_id":"1346020398705217536","ret_code":0,"environment":"dev","err_msg":"NO_ERROR","err_msg_zh":"","result":"{}"}
{"seq":0,"push_id":"1346020528279781376","ret_code":0,"environment":"dev","err_msg":"NO_ERROR","err_msg_zh":"","result":"{}"}
{"seq":0,"push_id":"1346271013335277568","ret_code":0,"environment":"dev","err_msg":"NO_ERROR","err_msg_zh":"","result":"{}"}
{"seq":0,"push_id":"1346290897704226816","ret_code":0,"environment":"dev","err_msg":"NO_ERROR","err_msg_zh":"","result":"{}"}
{"seq":0,"push_id":"1346291061814759424","ret_code":0,"environment":"dev","err_msg":"NO_ERROR","err_msg_zh":"","result":"{}"}
{"seq":0,"push_id":"1346291092449923072","ret_code":0,"environment":"dev","err_msg":"NO_ERROR","err_msg_zh":"","result":"{}"}
{"seq":0,"push_id":"1346291103917228032","ret_code":0,"environment":"dev","err_msg":"NO_ERROR","err_msg_zh":"","result":"{}"}
{"seq":0,"push_id":"1346291114855927808","ret_code":0,"environment":"dev","err_msg":"NO_ERROR","err_msg_zh":"","result":"{}"}
{"seq":0,"push_id":"1346291637701132288","ret_code":0,"environment":"dev","err_msg":"NO_ERROR","err_msg_zh":"","result":"{}"}
{"seq":0,"push_id":"1346635445156446208","ret_code":0,"environment":"dev","err_msg":"NO_ERROR","err_msg_zh":"","result":"{}"}
{"seq":0,"push_id":"1347363068547461120","ret_code":0,"environment":"dev","err_msg":"NO_ERROR","err_msg_zh":"","result":"{}"}
{"seq":0,"push_id":"1347794738912198656","ret_code":0,"environment":"dev","err_msg":"NO_ERROR","err_msg_zh":"","result":"{}"}
{"seq":0,"push_id":"1347827836777398272","ret_code":0,"environment":"dev","err_msg":"NO_ERROR","err_msg_zh":"","result":"{}"}
{"seq":0,"push_id":"1347839073200402432","ret_code":0,"environment":"dev","err_msg":"NO_ERROR","err_msg_zh":"","result":"{}"}
{"seq":0,"push_id":"1348457871590891520","ret_code":0,"environment":"dev","err_msg":"NO_ERROR","err_msg_zh":"","result":"{}"}
{"seq":0,"push_id":"1348861165479948288","ret_code":0,"environment":"dev","err_msg":"NO_ERROR","err_msg_zh":"","result":"{}"}
{"seq":0,"push_id":"1350261297438031872","ret_code":0,"environment":"dev","err_msg":"NO_ERROR","err_msg_zh":"","result":"{}"}
{"seq":0,"push_id":"1350628553326071808","ret_code":0,"environment":"dev","err_msg":"NO_ERROR","err_msg_zh":"","result":"{}"}
{"seq":0,"push_id":"1350986811865915392","ret_code":0,"environment":"dev","err_msg":"NO_ERROR","err_msg_zh":"","result":"{}"}
{"seq":0,"push_id":"1351350974391869440","ret_code":0,"environment":"dev","err_msg":"NO_ERROR","err_msg_zh":"","result":"{}"}
{"seq":0,"push_id":"1351719994970402816","ret_code":0,"environment":"dev","err_msg":"NO_ERROR","err_msg_zh":"","result":"{}"}
{"seq":0,"push_id":"1352088880861429760","ret_code":0,"environment":"dev","err_msg":"NO_ERROR","err_msg_zh":"","result":"{}"}
